--------------------------------------------------------------------------------------------------------------------------------------------------------------------------------
With SFD
--------------------------------------------------------------------------------------------------------------------------------------------------------------------------------
Node Id:	Initiator_Id	Reception_from_Grp_Initiator	Reception_from_other			No of packets reception from Self Group_Ini	No of packets reception from other GroupIni
1 		7 		87.4 					12.6 					264 					38
17 		7 		92.0 					8.0 					277 					24
18 		7 		92.1 					7.9 					278 					24
22 		7 		92.1 					7.9 					278 					24
23 		7 		91.1 					8.9 					275 					27
24 		7 		86.4 					13.6 					260 					41
25 		7 		97.7 					2.3 					294 					7
26 		7 		98.0 					2.0 					296 					6
3 		7 		89.4 					10.6 					270 					32
31 		7 		94.0 					6.0 					284 					18
4 		7 		90.7 					9.3 					274 					28
7 		7 		100.0 					0.0 					302 					0
8 		7 		93.0 					7.0 					280 					21
10 		11 		100.0 					0.0 					297 					0
11 		11 		100.0 					0.0 					297 					0
13 		11 		100.0 					0.0 					298 					0
14 		11 		100.0 					0.0 					297 					0
15 		11 		100.0 					0.0 					297 					0
16 		11 		100.0 					0.0 					298 					0
19 		11 		100.0 					0.0 					298 					0
2 		11 		100.0 					0.0 					298 					0
20 		11 		100.0 					0.0 					298 					0
27 		11 		100.0 					0.0 					298 					0
28 		11 		100.0 					0.0 					298 					0
33 		11 		100.0 					0.0 					298 					0
6 		11 		100.0 					0.0 					298 					0
--------------------------------------------------------------------------------------------------------------------------------------------------------------------------------
Without SDF
--------------------------------------------------------------------------------------------------------------------------------------------------------------------------------
Node Id:	Initiator_Id	Reception_from_Grp_Initiator	Reception_from_other			No of packets reception from Self Group_Ini	No of packets reception from other GroupIni
1 		7 		0.0 					100.0 					0 					302
17 		7 		1.0 					99.0 					3 					296
18 		7 		0.3 					99.7 					1 					302
22 		7 		0.3 					99.7 					1 					302
23 		7 		0.3 					99.7 					1 					302
24 		7 		0.3 					99.7 					1 					302
25 		7 		0.3 					99.7 					1 					302
26 		7 		0.3 					99.7 					1 					301
3 		7 		0.0 					100.0 					0 					303
31 		7 		0.0 					100.0 					0 					303
4 		7 		0.0 					100.0 					0 					302
7 		7 		100.0 					0.0 					303 					0
8 		7 		0.0 					100.0 					0 					303
10 		11 		100.0 					0.0 					302 					0
11 		11 		100.0 					0.0 					303 					0
13 		11 		99.0 					1.0 					300 					3
14 		11 		0.0 					100.0 					0 					302
15 		11 		100.0 					0.0 					303 					0
16 		11 		100.0 					0.0 					303 					0
19 		11 		99.3 					0.7 					301 					2
2 		11 		100.0 					0.0 					303 					0
20 		11 		99.3 					0.7 					301 					2
27 		11 		99.7 					0.3 					302 					1
28 		11 		99.7 					0.3 					302 					1
33 		11 		100.0 					0.0 					303 					0
6 		11 		99.7 					0.3 					302 					1
