name,time,nodeid,value
test,1562949600220628992,56,"   56   289    0    10 42767  |    0     0   10    44 41231 "
test,1562949602229667072,56,"   56   290    0    10 42767  |    0     0   10    44 41231 "
test,1562949647140723968,56,=8`vxB;Yz0`000``8>00a0``0`00a0```0c000a0``1|00a0``#`000a000c000a000c000a   56    12    0    10 -- |    0     0   10    65 --
test,1562949649148441088,56,"   56    13    0    10 -- |    0     0   10    65 --"
test,1562949651136111104,56,"   56    14    0    10 -- |    0     0   10    65 --"
test,1562949653142646016,56,"   56    15    0    10 -- |    0     0   10    65 --"
test,1562949655132339968,56,"   56    16    0    10 -- |    0     0   10    65 --"
test,1562949657139671040,56,"   56    17    0    10 -- |    0     0   10    65 --"
test,1562949659150614016,56,"   56    18    0    10 -- |    0     0   10    65 --"
test,1562949661135297024,56,"   56    19    0    10 -- |    0     0   10    65 --"
test,1562949663143748096,56,"   56    20    0    10 -- |    0     0   10    65 --"
test,1562949665131277056,56,"   56    21    0    10 -- |    0     0   10    65 --"
test,1562949667138704128,56,"   56    22    0    10 -- |    0     0   10    65 --"
test,1562949669127634944,56,"   56    23    0    10 -- |    0     0    0     0     0 "
test,1562949671133801984,56,"   56    24    0    10 -- |    0     0   10    65 --"
test,1562949673141769984,56,"   56    25    0    10 -- |    0     0   10    65 --"
test,1562949675130671872,56,"   56    26    0    10 -- |    0     0   10    65 --"
test,1562949677140076032,56,"   56    27    0    10 -- |    0     0   10    65 --"
test,1562949679146210816,56,"   56    28    0    10 -- |    0     0   10    65 --"
test,1562949681133511168,56,"   56    29    0    10 -- |    0     0   10    65 --"
test,1562949683140026112,56,"   56    30    0    10 -- |    0     0   10    65 --"
test,1562949685129411072,56,"   56    31    0    10 -- |    0     0   10    65 --"
test,1562949687153831936,56,"   56    32    0    10 -- |    0     0   10    65 --"
test,1562949689152875008,56,"   56    33    0    10 -- |    0     0   10    65 --"
test,1562949691132428800,56,"   56    34    0    10 -- |    0     0   10    65 --"
test,1562949693139805184,56,"   56    35    0    10 -- |    0     0   10    65 --"
test,1562949695145150976,56,"   56    36    0    10 -- |    0     0   10    65 --"
test,1562949697185952000,56,"   56    37    0    10 -- |    0     0   10    65 --"
test,1562949699140846080,56,"   56    38    0    10 -- |    0     0   10    65 --"
test,1562949701132563200,56,"   56    39    0    10 -- |    0     0   10    65 --"
test,1562949703137630976,56,"   56    40    0    10 -- |    0     0   10    65 --"
test,1562949705146245120,56,"   56    41    0    10 -- |    0     0   10    65 --"
test,1562949709141179136,56,"   56    43    0    10 -- |    0     0   10    65 --"
test,1562949711130361088,56,"   56    44    0    10 -- |    0     0   10    65 --"
test,1562949713137883904,56,"   56    45    0    10 -- |    0     0   10    65 --"
test,1562949715146413056,56,"   56    46    0    10 -- |    0     0   10    65 --"
test,1562949717133126144,56,"   56    47    0    10 -- |    0     0   10    65 --"
test,1562949719139137024,56,"   56    48    0    10 -- |    0     0   10    65 --"
test,1562949721129936896,56,"   56    49    0    10 -- |    0     0   10    65 --"
test,1562949723138170112,56,"   56    50    0    10 -- |    0     0   10    65 --"
test,1562949725145647104,56,"   56    51    0    10 -- |    0     0   10    65 --"
test,1562949727131911936,56,"   56    52    0    10 -- |    0     0   10    65 --"
test,1562949729139683840,56,"   56    53    0    10 -- |    0     0   10    65 --"
test,1562949731144217856,56,"   56    54    0    10 -- |    0     0   10    65 --"
test,1562949733134604032,56,"   56    55    0    10 -- |    0     0   10    65 --"
test,1562949735140847872,56,"   56    56    0    10 -- |    0     0   10    65 --"
test,1562949737131254784,56,"   56    57    0    10 -- |    0     0   10    65 --"
test,1562949739148203008,56,"   56    58    0    10 -- |    0     0   10    65 --"
test,1562949741127685120,56,"   56    59    0    10 -- |    0     0   10    65 --"
test,1562949743135270144,56,"   56    60    0    10 -- |    0     0   10    65 --"
test,1562949745143150080,56,"   56    61    0    10 -- |    0     0   10    65 --"
test,1562949747130112000,56,"   56    62    0    10 -- |    0     0   10    65 --"
test,1562949749138119936,56,"   56    63    0    10 -- |    0     0   10    65 --"
test,1562949751126574080,56,"   56    64    0    10 -- |    0     0   10    65 --"
test,1562949753135215104,56,"   56    65    0    10 -- |    0     0   10    65 --"
test,1562949755139781120,56,"   56    66    0    10 -- |    0     0   10    65 --"
test,1562949757129511168,56,"   56    67    0    10 -- |    0     0   10    65 --"
test,1562949759139053056,56,"   56    68    0    10 -- |    0     0   10    65 --"
test,1562949761142908160,56,"   56    69    0    10 -- |    0     0   10    65 --"
test,1562949763132338944,56,"   56    70    0    10 -- |    0     0   10    44 --"
test,1562949765141825792,56,"   56    71    0    10 -- |    0     0   10    65 --"
test,1562949767128715008,56,"   56    72    0    10 -- |    0     0   10    65 --"
test,1562949769139676160,56,"   56    73    0    10 -- |    0     0   10    65 --"
test,1562949771141957888,56,"   56    74    0    10 -- |    0     0   10    65 --"
test,1562949773132376064,56,"   56    75    0    10 -- |    0     0   10    65 --"
test,1562949775137594112,56,"   56    76    0    10 -- |    0     0   10    44 --"
test,1562949777127439872,56,"   56    77    0    10 -- |    0     0   10    65 --"
test,1562949779150935808,56,"   56    78    0    10 -- |    0     0   10    65 --"
test,1562949781149786880,56,"   56    79    0    10 -- |    0     0   10    65 --"
test,1562949783130953984,56,"   56    80    0    10 -- |    0     0   10    65 --"
test,1562949785136539904,56,"   56    81    0    10 -- |    0     0   10    65 --"
test,1562949787126946816,56,"   56    82    0    10 -- |    0     0   10    65 --"
test,1562949789139880960,56,"   56    83    0    10 -- |    0     0   10    65 --"
test,1562949791139912960,56,"   56    84    0     9 -- |    0     0   10    65 --"
test,1562949793129292032,56,"   56    85    0    10 -- |    0     0   10    65 --"
test,1562949795137356032,56,"   56    86    0    10 -- |    0     0   10    65 --"
test,1562949797125587968,56,"   56    87    0    10 -- |    0     0   10    65 --"
test,1562949799158539008,56,"   56    88    0    10 -- |    0     0   10    65 --"
test,1562949801142976000,56,"   56    89    0    10 -- |    0     0   10    65 --"
test,1562949803128495872,56,"   56    90    0    10 -- |    0     0   10    65 --"
test,1562949805135154944,56,"   56    91    0    10 -- |    0     0   10    65 --"
test,1562949807124679168,56,"   56    92    0    10 -- |    0     0   10    65 --"
test,1562949809142590976,56,"   56    93    0    10 -- |    0     0   10    65 --"
test,1562949811137644032,56,"   56    94    0    10 -- |    0     0   10    65 --"
test,1562949813127329024,56,"   56    95    0    10 -- |    0     0   10    65 --"
test,1562949815136344064,56,"   56    96    0    10 -- |    0     0   10    65 --"
test,1562949817124175104,56,"   56    97    0    10 -- |    0     0   10    65 --"
test,1562949821137569024,56,"   56    99    0    10 -- |    0     0   10    65 --"
test,1562949823126494976,56,"   56   100    0    10 -- |    0     0   10    65 --"
test,1562949825134187008,56,"   56   101    0    10 -- |    0     0   10    65 --"
test,1562949827138652928,56,"   56   102    0    10 -- |    0     0   10    65 --"
test,1562949829129494784,56,"   56   103    0    10 -- |    0     0   10    65 --"
test,1562949831145735936,56,"   56   104    0    10 -- |    0     0   10    65 --"
test,1562949833125504000,56,"   56   105    0    10 -- |    0     0   10    65 --"
test,1562949835134091008,56,"   56   106    0    10 -- |    0     0   10    65 --"
test,1562949837142790144,56,"   56   107    0    10 -- |    0     0   10    65 --"
test,1562949839128751104,56,"   56   108    0    10 -- |    0     0   10    65 --"
test,1562949841137870080,56,"   56   109    0    10 -- |    0     0   10    65 --"
test,1562949843124736000,56,"   56   110    0    10 -- |    0     0   10    65 --"
test,1562949845133487872,56,"   56   111    0    10 -- |    0     0   10    65 --"
test,1562949847146789120,56,"   56   112    0    10 -- |    0     0   10    65 --"
test,1562949849128057856,56,"   56   113    0    10 -- |    0     0   10    65 --"
test,1562949851134264064,56,"   56   114    0    10 -- |    0     0   10    65 --"
test,1562949853123742976,56,"   56   115    0    10 -- |    0     0   10    65 --"
test,1562949855133740032,56,"   56   116    0    10 -- |    0     0   10    65 --"
test,1562949857138401024,56,"   56   117    0    10 -- |    0     0   10    65 --"
test,1562949859127564032,56,"   56   118    0    10 -- |    0     0   10    65 --"
test,1562949861136090112,56,"   56   119    0    10 -- |    0     0   10    65 --"
test,1562949863138670848,56,"   56   120    0    10 -- |    0     0   10    65 --"
test,1562949865131565056,56,"   56   121    0    10 -- |    0     0   10    65 --"
test,1562949867135913984,56,"   56   122    0    10 -- |    0     0   10    65 --"
test,1562949869126811136,56,"   56   123    0    10 -- |    0     0   10    65 --"
test,1562949871138364160,56,"   56   124    0    10 -- |    0     0   10    65 --"
test,1562949873121999104,56,"   56   125    0    10 -- |    0     0   10    65 --"
test,1562949875130025984,56,"   56   126    0    10 -- |    0     0   10    65 --"
test,1562949877138597120,56,"   56   127    0    10 -- |    0     0   10    65 --"
test,1562949879124684032,56,"   56   128    0    10 -- |    0     0   10    65 --"
test,1562949881133202176,56,"   56   129    0    10 -- |    0     0   10    65 --"
test,1562949883121088000,56,"   56   130    0    10 -- |    0     0   10    65 --"
test,1562949885129388032,56,"   56   131    0    10 -- |    0     0   10    65 --"
test,1562949887136899072,56,"   56   132    0    10 -- |    0     0   10    65 --"
test,1562949889123578112,56,"   56   133    0    10 -- |    0     0   10    65 --"
test,1562949891145050880,56,"   56   134    0    10 -- |    0     0   10    65 --"
test,1562949893138326016,56,"   56   135    0    10 -- |    0     0   10    65 --"
test,1562949895127067136,56,"   56   136    0    10 -- |    0     0   10    65 --"
test,1562949897136475136,56,"   56   137    0    10 -- |    0     0   10    65 --"
test,1562949899122732032,56,"   56   138    0    10 -- |    0     0   10    65 --"
test,1562949901166644992,56,"   56   139    0    10 -- |    0     0   10    65 --"
test,1562949903137923072,56,"   56   140    0    10 -- |    0     0   10    65 --"
test,1562949905126099200,56,"   56   141    0    10 -- |    0     0   10    65 --"
test,1562949907135302912,56,"   56   142    0    10 -- |    0     0   10    65 --"
test,1562949909121804032,56,"   56   143    0    10 -- |    0     0   10    65 --"
test,1562949911147248896,56,"   56   144    0    10 -- |    0     0   10    65 --"
test,1562949913136066816,56,"   56   145    0    10 -- |    0     0   10    65 --"
test,1562949915125381888,56,"   56   146    0    10 -- |    0     0   10    65 --"
test,1562949917133344000,56,"   56   147    0    10 -- |    0     0   10    65 --"
test,1562949919120989952,56,"   56   148    0    10 -- |    0     0   10    65 --"
test,1562949923133292032,56,"   56   150    0    10 -- |    0     0   10    65 --"
test,1562949925124412160,56,"   56   151    0    10 -- |    0     0   10    44 --"
test,1562949927133235968,56,"   56   152    0    10 -- |    0     0   10    65 --"
test,1562949929119985152,56,"   56   153    0    10 -- |    0     0   10    65 --"
test,1562949931126856192,56,"   56   154    0    10 -- |    0     0   10    65 --"
test,1562949933136100096,56,"   56   155    0    10 -- |    0     0   10    65 --"
test,1562949935123572992,56,"   56   156    0    10 -- |    0     0   10    65 --"
test,1562949937130595840,56,"   56   157    0    10 -- |    0     0   10    65 --"
test,1562949939119593984,56,"   56   158    0    10 -- |    0     0   10    65 --"
test,1562949941125555968,56,"   56   159    0    10 -- |    0     0   10    65 --"
test,1562949943134089984,56,"   56   160    0    10 -- |    0     0   10    65 --"
test,1562949945122100992,56,"   56   161    0    10 -- |    0     0   10    65 --"
test,1562949947129533952,56,"   56   162    0    10 -- |    0     0   10    65 --"
test,1562949949140397056,56,"   56   163    0    10 -- |    0     0   10    65 --"
test,1562949951124913920,56,"   56   164    0    10 -- |    0     0   10    44 --"
test,1562949953142391808,56,"   56   165    0    10 -- |    0     0   10    65 --"
test,1562949955120910848,56,"   56   166    0    10 -- |    0     0   10    65 --"
test,1562949957128806144,56,"   56   167    0    10 -- |    0     0   10    65 --"
test,1562949959140204032,56,"   56   168    0    10 -- |    0     0   10    65 --"
test,1562949961125014016,56,"   56   169    0    10 -- |    0     0   10    65 --"
test,1562949964116896000,56,"   56   170    0    10 -- |    0     0    9    65 --"
test,1562949965120033024,56,"   56   171    0    10 -- |    0     0   10    65 --"
test,1562949968113303040,56,"   56   172    0    10 -- |    0     0    9    65 --"
test,1562949969133331968,56,"   56   173    0    10 -- |    0     0   10    65 --"
test,1562949971123204096,56,"   56   174    0    10 -- |    0     0   10    65 --"
test,1562949973134308096,56,"   56   175    0    10 -- |    0     0   10    65 --"
test,1562949975120135936,56,"   56   176    0    10 -- |    0     0   10    65 --"
test,1562949977126075904,56,"   56   177    0    10 -- |    0     0   10    44 --"
test,1562949980102703104,56,"   56   178    0    10 -- |    0     0    9    65 --"
test,1562949981124231936,56,"   56   179    0    10 -- |    0     0   10    65 --"
test,1562949983130053120,56,"   56   180    0    10 -- |    0     0   10    44 --"
test,1562949985118260992,56,"   56   181    0    10 -- |    0     0   10    65 --"
test,1562949987125694976,56,"   56   182    0    10 -- |    0     0   10    65 --"
test,1562949989134567936,56,"   56   183    0    10 -- |    0     0   10    44 --"
test,1562949991121687808,56,"   56   184    0     8 -- |    0     0   10    65 --"
test,1562949993130584832,56,"   56   185    0    10 -- |    0     0   10    65 --"
test,1562949995117297920,56,"   56   186    0    10 -- |    0     0   10    65 --"
test,1562949997125771008,56,"   56   187    0    10 -- |    0     0   10    65 --"
test,1562949999132946944,56,"   56   188    0    10 -- |    0     0   10    65 --"
test,1562950001120142848,56,"   56   189    0    10 -- |    0     0   10    65 --"
test,1562950005134215168,56,"   56   191    0    10 -- |    0     0   10    65 --"
test,1562950007123429888,56,"   56   192    0    10 -- |    0     0   10    65 --"
test,1562950009131336960,56,"   56   193    0    10 -- |    0     0   10    65 --"
test,1562950011119554048,56,"   56   194    0    10 -- |    0     0   10    65 --"
test,1562950013150851072,56,"   56   195    0    10 -- |    0     0   10    65 --"
test,1562950015115695872,56,"   56   196    0    10 -- |    0     0   10    65 --"
test,1562950017121980928,56,"   56   197    0    10 -- |    0     0   10    65 --"
test,1562950019135059200,56,"   56   198    0    10 -- |    0     0   10    65 --"
test,1562950021121367808,56,"   56   199    0    10 -- |    0     0   10    65 --"
test,1562950025131293184,56,"   56   201    0    10 -- |    0     0   10    65 --"
test,1562950027122787840,56,"   56   202    0    10 -- |    0     0   10    65 --"
test,1562950029127738112,56,"   56   203    0    10 -- |    0     0   10    65 --"
test,1562950031117437952,56,"   56   204    0    10 -- |    0     0   10    65 --"
test,1562950035135375104,56,"   56   206    0    10 -- |    0     0   10    65 --"
test,1562950037120225024,56,"   56   207    0    10 -- |    0     0   10    65 --"
test,1562950039128144896,56,"   56   208    0    10 -- |    0     0   10    65 --"
test,1562950041116322048,56,"   56   209    0    10 -- |    0     0   10    65 --"
test,1562950043122983936,56,"   56   210    0    10 -- |    0     0   10    65 --"
test,1562950045131724032,56,"   56   211    0    10 -- |    0     0   10    44 --"
test,1562950047119895808,56,"   56   212    0    10 -- |    0     0   10    65 --"
test,1562950049126926848,56,"   56   213    0    10 -- |    0     0   10    65 --"
test,1562950051115502080,56,"   56   214    0    10 -- |    0     0   10    65 --"
test,1562950053121803008,56,"   56   215    0    10 -- |    0     0   10    65 --"
test,1562950056114931200,56,"   56   216    0    10 -- |    0     0    9    65 --"
test,1562950057118580992,56,"   56   217    0    10 -- |    0     0   10    65 --"
test,1562950059124190208,56,"   56   218    0    10 -- |    0     0   10    65 --"
test,1562950061114574848,56,"   56   219    0    10 -- |    0     0   10    65 --"
test,1562950063120827904,56,"   56   220    0    10 -- |    0     0   10    65 --"
test,1562950065129644032,56,"   56   221    0    10 -- |    0     0   10    65 --"
test,1562950067117414912,56,"   56   222    0    10 -- |    0     0   10    65 --"
test,1562950069125734144,56,"   56   223    0    10 -- |    0     0   10    65 --"
test,1562950071131289088,56,"   56   224    0    10 -- |    0     0   10    65 --"
test,1562950073122028032,56,"   56   225    0    10 -- |    0     0   10    65 --"
test,1562950075128542976,56,"   56   226    0    10 -- |    0     0   10    65 --"
test,1562950077116802048,56,"   56   227    0    10 -- |    0     0   10    65 --"
test,1562950079123273984,56,"   56   228    0    10 -- |    0     0   10    44 --"
test,1562950081133207040,56,"   56   229    0    10 -- |    0     0   10    65 --"
test,1562950083122701824,56,"   56   230    0    10 -- |    0     0   10    65 --"
test,1562950085128606976,56,"   56   231    0    10 -- |    0     0   10    65 --"
test,1562950087118541056,56,"   56   232    0    10 -- |    0     0   10    65 --"
test,1562950089122280960,56,"   56   233    0    10 -- |    0     0   10    65 --"
test,1562950091129456128,56,"   56   234    0    10 -- |    0     0   10    65 --"
test,1562950094105367808,56,"   56   235    0    10 -- |    0     0    9    65 --"
test,1562950095125539072,56,"   56   236    0    10 -- |    0     0   10    65 --"
test,1562950097115515904,56,"   56   237    0    10 -- |    0     0   10    65 --"
test,1562950099122753024,56,"   56   238    0    10 -- |    0     0   10    65 --"
test,1562950101129716992,56,"   56   239    0    10 -- |    0     0   10    65 --"
test,1562950103117763072,56,"   56   240    0    10 -- |    0     0   10    65 --"
test,1562950105128267008,56,"   56   241    0    10 -- |    0     0   10    65 --"
test,1562950107113976064,56,"   56   242    0    10 -- |    0     0   10    65 --"
test,1562950109123198976,56,"   56   243    0    10 -- |    0     0   10    65 --"
test,1562950111130381056,56,"   56   244    0    10 -- |    0     0   10    65 --"
test,1562950113116972032,56,"   56   245    0    10 -- |    0     0   10    65 --"
test,1562950115124008960,56,"   56   246    0    10 -- |    0     0   10    65 --"
test,1562950117113099008,56,"   56   247    0    10 -- |    0     0   10    65 --"
test,1562950119119950080,56,"   56   248    0    10 -- |    0     0   10    65 --"
test,1562950121126262016,56,"   56   249    0    10 -- |    0     0   10    65 --"
test,1562950123115169024,56,"   56   250    0    10 -- |    0     0   10    65 --"
test,1562950125122876928,56,"   56   251    0    10 -- |    0     0   10    65 --"
test,1562950127112379904,56,"   56   252    0    10 -- |    0     0   10    65 --"
test,1562950129118144000,56,"   56   253    0    10 -- |    0     0   10    65 --"
test,1562950131124098048,56,"   56   254    0    10 -- |    0     0   10    65 --"
test,1562950133116055040,56,"   56   255    0    10 -- |    0     0   10    65 --"
test,1562950135133094144,56,"   56   256    0    10 -- |    0     0   10    65 --"
test,1562950137128818944,56,"   56   257    0    10 -- |    0     0   10    65 --"
test,1562950139120348928,56,"   56   258    0    10 -- |    0     0   10    65 --"
test,1562950141123162112,56,"   56   259    0    10 -- |    0     0   10    65 --"
test,1562950143113883136,56,"   56   260    0    10 -- |    0     0   10    65 --"
test,1562950145122435072,56,"   56   261    0    10 -- |    0     0   10    65 --"
test,1562950147126802944,56,"   56   262    0    10 -- |    0     0   10    65 --"
test,1562950149116982016,56,"   56   263    0    10 -- |    0     0   10    65 --"
test,1562950151125143040,56,"   56   264    0    10 -- |    0     0   10    65 --"
test,1562950153112745984,56,"   56   265    0    10 -- |    0     0   10    65 --"
test,1562950155120942080,56,"   56   266    0    10 -- |    0     0   10    65 --"
test,1562950157131186944,56,"   56   267    0    10 -- |    0     0   10    65 --"
test,1562950159115961088,56,"   56   268    0    10 -- |    0     0   10    65 --"
test,1562950161123825920,56,"   56   269    0    10 -- |    0     0   10    65 --"
test,1562950163112436992,56,"   56   270    0    10 -- |    0     0   10    65 --"
test,1562950165120180992,56,"   56   271    0    10 -- |    0     0   10    65 --"
test,1562950167129654016,56,"   56   272    0    10 -- |    0     0   10    65 --"
test,1562950169117043968,56,"   56   273    0    10 -- |    0     0   10    65 --"
test,1562950171121767168,56,"   56   274    0    10 -- |    0     0   10    65 --"
test,1562950173111565056,56,"   56   275    0    10 -- |    0     0   10    65 --"
test,1562950175134699008,56,"   56   276    0    10 -- |    0     0   10    65 --"
test,1562950177126832896,56,"   56   277    0    10 -- |    0     0   10    65 --"
test,1562950179114031104,56,"   56   278    0    10 -- |    0     0   10    65 --"
test,1562950181120184064,56,"   56   279    0    10 -- |    0     0   10    65 --"
test,1562950183110397184,56,"   56   280    0    10 -- |    0     0   10    65 --"
test,1562950185129844992,56,"   56   281    0    10 -- |    0     0   10    65 --"
test,1562950187123323904,56,"   56   282    0    10 -- |    0     0   10    65 --"
test,1562950189113960960,56,"   56   283    0    10 -- |    0     0   10    65 --"
test,1562950191121846016,56,"   56   284    0    10 -- |    0     0   10    65 --"
test,1562950193109043968,56,"   56   285    0    10 -- |    0     0   10    65 --"
