name,time,nodeid,value
test,1562948446640952064,53,"   53    12    0     7 -- |    0     0    6     2 --"
test,1562948448649681920,53,"   53    13    0     8 -- |    0     0    8     2 --"
test,1562948449671997184,53,"   53    14    0     8 -- |    0     0   10     2 --"
test,1562948452651289088,53,"   53    15    0    10 -- |    0     0    8     2 --"
test,1562948454643852032,53,"   53    16    0     8 -- |    0     0    5     2 --"
test,1562948455665184000,53,"   53    17    0     8 -- |    0     0   10     2 --"
test,1562948458645423872,53,"   53    18    0     5 -- |    0     0    8     2 --"
test,1562948460654095872,53,"   53    19    0     8 -- |    0     0    8     2 --"
test,1562948461660381952,53,"   53    20    0     7 -- |    0     0   10     2 --"
test,1562948464639656960,53,"   53    21    0     8 -- |    0     0    8     2 --"
test,1562948466648422912,53,"   53    22    0     8 -- |    0     0    9     2 --"
test,1562948468641186048,53,"   53    23    0     9 -- |    0     0    9     2 --"
test,1562948470649921024,53,"   53    24    0     8 -- |    0     0    8     2 --"
test,1562948471671464960,53,"   53    25    0     8 -- |    0     0   10     2 --"
test,1562948473664366848,53,"   53    26    0     7 -- |    0     0   10     2 --"
test,1562948476644217856,53,"   53    27    0     9 -- |    0     0    8     2 --"
test,1562948478652921088,53,"   53    28    0     9 -- |    0     0    8     2 --"
test,1562948480645652992,53,"   53    29    0     9 -- |    0     0    7     2 --"
test,1562948482638384128,53,"   53    30    0    10 -- |    0     0    7     2 --"
test,1562948484647126016,53,"   53    31    0    10 -- |    0     0    9     2 --"
test,1562948486639976960,53,"   53    32    0    10 -- |    0     0    9     2 --"
test,1562948488648581120,53,"   53    33    0     8 -- |    0     0    7     2 --"
test,1562948490641362944,53,"   53    34    0     9 -- |    0     0    9     2 --"
test,1562948492650102016,53,"   53    35    0     9 -- |    0     0    7     2 --"
test,1562948493678049024,53,"   53    36    0     8 -- |    0     0   10     2 --"
test,1562948496651681792,53,"   53    37    0     7 -- |    0     0    9     2 --"
test,1562948498644473088,53,"   53    38    0    10 -- |    0     0    9     2 --"
test,1562948500653014016,53,"   53    39    0     9 -- |    0     0    8     2 --"
test,1562948502645884160,53,"   53    40    0     9 -- |    0     0    8     2 --"
test,1562948504638685952,53,"   53    41    0     7 -- |    0     0    9     2 --"
test,1562948506647886080,53,"   53    42    0    10 -- |    0     0    9     2 --"
test,1562948508640167936,53,"   53    43    0     8 -- |    0     0    9     2 --"
test,1562948510648936960,53,"   53    44    0     8 -- |    0     0    7     2 --"
test,1562948512641650944,53,"   53    45    0    10 -- |    0     0    9     2 --"
test,1562948514650351104,53,"   53    46    0     8 -- |    0     0    9     2 --"
test,1562948516643383040,53,"   53    47    0     7 -- |    0     0    8     2 --"
test,1562948517666414080,53,"   53    48    0     8 -- |    0     0   10     2 --"
test,1562948519657677824,53,"   53    49    0     5 -- |    0     0   10     2 --"
test,1562948521667229952,53,"   53    50    0    10 -- |    0     0   10     2 --"
test,1562948523661254912,53,"   53    51    0     9 -- |    0     0   10     2 --"
test,1562948526639013888,53,"   53    52    0     9 -- |    0     0    7     2 --"
test,1562948528647619072,53,"   53    53    0    10 -- |    0     0    9     2 --"
test,1562948530640317952,53,"   53    54    0    10 -- |    0     0    8     2 --"
test,1562948532649108992,53,"   53    55    0     8 -- |    0     0    7     2 --"
test,1562948533670523904,53,"   53    56    0     8 -- |    0     0   10     2 --"
test,1562948536650718976,53,"   53    57    0     9 -- |    0     0    8     2 --"
test,1562948537655838976,53,"   53    58    0     8 -- |    0     0   10     2 --"
test,1562948540636081920,53,"   53    59    0     8 -- |    0     0    9     2 --"
test,1562948542644828928,53,"   53    60    0     8 -- |    0     0    8     2 --"
test,1562948544637693952,53,"   53    61    0     8 -- |    0     0    6     2 --"
test,1562948546646533120,53,"   53    62    0    10 -- |    0     0    8     2 --"
test,1562948548639164928,53,"   53    63    0     9 -- |    0     0    9     2 --"
test,1562948549660246016,53,"   53    64    0     9 -- |    0     0   10     2 --"
test,1562948551672096000,53,"   53    65    0     9 -- |    0     0   10     2 --"
test,1562948553664868096,53,"   53    66    0     8 -- |    0     0   10     2 --"
test,1562948556642259968,53,"   53    67    0     9 -- |    0     0    6     2 --"
test,1562948558650784000,53,"   53    68    0     8 -- |    0     0    9     2 --"
test,1562948560643649024,53,"   53    69    0     9 -- |    0     0    8     2 --"
test,1562948562636385792,53,"   53    70    0     8 -- |    0     0    8     2 --"
test,1562948563656913920,53,"   53    71    0     8 -- |    0     0   10     2 --"
test,1562948566637972224,53,"   53    72    0     9 -- |    0     0    9     2 --"
test,1562948568646624000,53,"   53    73    0     5 -- |    0     0    9     2 --"
test,1562948570639308032,53,"   53    74    0     9 -- |    0     0    7     2 --"
test,1562948572648338176,53,"   53    75    0     8 -- |    0     0    6     2 --"
test,1562948574640840960,53,"   53    76    0     9 -- |    0     0    7     2 --"
test,1562948576649650944,53,"   53    77    0     8 -- |    0     0    5     2 --"
test,1562948578642482944,53,"   53    78    0     9 -- |    0     0    6     2 --"
test,1562948580635233024,53,"   53    79    0    10 -- |    0     0    9     2 --"
test,1562948582643953152,53,"   53    80    0    10 -- |    0     0    9     2 --"
test,1562948584636704000,53,"   53    81    0     8 -- |    0     0    8     2 --"
test,1562948586645512960,53,"   53    82    0     7 -- |    0     0    9     2 --"
test,1562948588638192896,53,"   53    83    0    10 -- |    0     0    8     2 --"
test,1562948590646915840,53,"   53    84    0     9 -- |    0     0    7     2 --"
test,1562948591668355072,53,"   53    85    0    10 -- |    0     0   10     2 --"
test,1562948594648345088,53,"   53    86    0    10 -- |    0     0    8     2 --"
test,1562948596641666048,53,"   53    87    0    10 -- |    0     0    8     2 --"
test,1562948598634021888,53,"   53    88    0     9 -- |    0     0    8     2 --"
test,1562948600642713088,53,"   53    89    0     9 -- |    0     0    9     2 --"
test,1562948602635534080,53,"   53    90    0     8 -- |    0     0    7     2 --"
test,1562948604644126976,53,"   53    91    0     7 -- |    0     0    8     2 --"
test,1562948606637216000,53,"   53    92    0     8 -- |    0     0    7     2 --"
test,1562948608645622016,53,"   53    93    0     9 -- |    0     0    9     2 --"
test,1562948610638497024,53,"   53    94    0     5 -- |    0     0    7     2 --"
test,1562948611659321088,53,"   53    95    0    10 -- |    0     0   10     2 --"
test,1562948614639975168,53,"   53    96    0    10 -- |    0     0    5     2 --"
test,1562948615662970112,53,"   53    97    0     8 -- |    0     0   10     2 --"
test,1562948618641510912,53,"   53    98    0     7 -- |    0     0    8     2 --"
test,1562948620634228992,53,"   53    99    0     3 -- |    0     0    7     2 --"
test,1562948621657562112,53,"   53   100    0     4 -- |    0     0   10     2 --"
test,1562948624635710976,53,"   53   101    0    10 -- |    0     0    8     2 --"
test,1562948626646123776,53,"   53   102    0     6 -- |    0     0    8     2 --"
test,1562948628637389056,53,"   53   103    0    10 -- |    0     0    8     2 --"
test,1562948630646332928,53,"   53   104    0     8 -- |    0     0    9     2 --"
test,1562948631667021056,53,"   53   105    0     7 -- |    0     0   10     2 --"
test,1562948634647396096,53,"   53   106    0     5 -- |    0     0    8     2 --"
test,1562948636644761088,53,"   53   107    0     5 -- |    0     0    9     2 --"
test,1562948638632965120,53,"   53   108    0    10 -- |    0     0    6     2 --"
test,1562948640641649920,53,"   53   109    0     8 -- |    0     0    9     2 --"
test,1562948642634524160,53,"   53   110    0     5 -- |    0     0    6     2 --"
test,1562948644643177984,53,"   53   111    0    10 -- |    0     0    9     2 --"
test,1562948646635997952,53,"   53   112    0     8 -- |    0     0    8     2 --"
test,1562948648644634880,53,"   53   113    0     7 -- |    0     0    8     2 --"
test,1562948650637496064,53,"   53   114    0    10 -- |    0     0    7     2 --"
test,1562948651662565888,53,"   53   115    0    10 -- |    0     0   10     2 --"
test,1562948654638979072,53,"   53   116    0     5 -- |    0     0    7     2 --"
test,1562948656647703040,53,"   53   117    0     9 -- |    0     0    7     2 --"
test,1562948657659250944,53,"   53   118    0     8 -- |    0     0   10     2 --"
test,1562948660633291008,53,"   53   119    0     9 -- |    0     0    9     2 --"
test,1562948662641942016,53,"   53   120    0     7 -- |    0     0    9     2 --"
test,1562948664634633984,53,"   53   121    0    10 -- |    0     0    7     2 --"
test,1562948665656481024,53,"   53   122    0     8 -- |    0     0   10     2 --"
test,1562948668636270080,53,"   53   123    0    10 -- |    0     0    9     2 --"
test,1562948670644950016,53,"   53   124    0     8 -- |    0     0    8     2 --"
test,1562948672637625856,53,"   53   125    0     8 -- |    0     0    8     2 --"
test,1562948674646393088,53,"   53   126    0     9 -- |    0     0    8     2 --"
test,1562948676639148032,53,"   53   127    0    10 -- |    0     0    8     2 --"
test,1562948678632088064,53,"   53   128    0     9 -- |    0     0    8     2 --"
test,1562948680640645120,53,"   53   129    0    10 -- |    0     0    7     2 --"
test,1562948682633539840,53,"   53   130    0     9 -- |    0     0    9     2 --"
test,1562948684642126080,53,"   53   131    0     9 -- |    0     0    7     2 --"
test,1562948686634993920,53,"   53   132    0     9 -- |    0     0    9     2 --"
test,1562948688643811840,53,"   53   133    0     7 -- |    0     0    9     2 --"
test,1562948690636457984,53,"   53   134    0     8 -- |    0     0    9     2 --"
test,1562948691657824000,53,"   53   135    0     8 -- |    0     0   10     2 --"
test,1562948694637921024,53,"   53   136    0     9 -- |    0     0    9     2 --"
test,1562948696630697984,53,"   53   137    0     8 -- |    0     0    9     2 --"
test,1562948698639503104,53,"   53   138    0     7 -- |    0     0    8     2 --"
test,1562948699661844992,53,"   53   139    0     8 -- |    0     0   10     2 --"
test,1562948702640876032,53,"   53   140    0     9 -- |    0     0    5     2 --"
test,1562948704633651968,53,"   53   141    0     9 -- |    0     0    9     2 --"
test,1562948706642566912,53,"   53   142    0     4 -- |    0     0    7     2 --"
test,1562948708635270144,53,"   53   143    0     9 -- |    0     0    7     2 --"
test,1562948710643873024,53,"   53   144    0     7 -- |    0     0    7     2 --"
test,1562948712636625152,53,"   53   145    0     7 -- |    0     0    6     2 --"
test,1562948714645347072,53,"   53   146    0     6 -- |    0     0    8     2 --"
test,1562948716638099968,53,"   53   147    0     9 -- |    0     0    9     2 --"
test,1562948718630894848,53,"   53   148    0     9 -- |    0     0    9     2 --"
test,1562948720639581952,53,"   53   149    0     6 -- |    0     0    8     2 --"
test,1562948722632379136,53,"   53   150    0    10 -- |    0     0    8     2 --"
test,1562948723653161984,53,"   53   151    0     8 -- |    0     0   10     2 --"
test,1562948725665934080,53,"   53   152    0     8 -- |    0     0   10     2 --"
test,1562948728642633984,53,"   53   153    0     7 -- |    0     0    9     2 --"
test,1562948730635364096,53,"   53   154    0    10 -- |    0     0    9     2 --"
test,1562948732643995904,53,"   53   155    0     9 -- |    0     0    7     2 --"
test,1562948733649586944,53,"   53   156    0     5 -- |    0     0   10     2 --"
test,1562948735659019008,53,"   53   157    0     5 -- |    0     0   10     2 --"
test,1562948738638381056,53,"   53   158    0    10 -- |    0     0    8     2 --"
test,1562948739658624768,53,"   53   159    0    10 -- |    0     0   10     2 --"
test,1562948742639770880,53,"   53   160    0     7 -- |    0     0    9     2 --"
test,1562948744632632064,53,"   53   161    0     8 -- |    0     0    8     2 --"
test,1562948746641297152,53,"   53   162    0     9 -- |    0     0    9     2 --"
test,1562948748634249984,53,"   53   163    0     8 -- |    0     0    6     2 --"
test,1562948750642877952,53,"   53   164    0    10 -- |    0     0    0     0     0 "
test,1562948752635603968,53,"   53   165    0     8 -- |    0     0    8     2 --"
test,1562948754628355072,53,"   53   166    0    10 -- |    0     0    8     2 --"
test,1562948755665539072,53,"   53   167    0     9 -- |    0     0   10     2 --"
test,1562948757657447936,53,"   53   168    0     8 -- |    0     0   10     2 --"
test,1562948760638621184,53,"   53   169    0     7 -- |    0     0    7     2 --"
test,1562948761664719104,53,"   53   170    0    10 -- |    0     0   10     2 --"
test,1562948764640409088,53,"   53   171    0    10 -- |    0     0    9     2 --"
test,1562948766632879104,53,"   53   172    0     8 -- |    0     0    7     2 --"
test,1562948768641645056,53,"   53   173    0     7 -- |    0     0    7     2 --"
test,1562948770634376960,53,"   53   174    0     9 -- |    0     0    9     2 --"
test,1562948772643040000,53,"   53   175    0     7 -- |    0     0    8     2 --"
test,1562948774635854848,53,"   53   176    0     8 -- |    0     0    8     2 --"
test,1562948776628724992,53,"   53   177    0     4 -- |    0     0    8     2 --"
test,1562948777649262848,53,"   53   178    0    10 -- |    0     0   10     2 --"
test,1562948780630310912,53,"   53   179    0     7 -- |    0     0    9     2 --"
test,1562948782638958848,53,"   53   180    0     6 -- |    0     0    9     2 --"
test,1562948784631705088,53,"   53   181    0     9 -- |    0     0    8     2 --"
test,1562948786640433152,53,"   53   182    0    10 -- |    0     0    7     2 --"
test,1562948787660761088,53,"   53   183    0     6 -- |    0     0   10     2 --"
test,1562948789655764992,53,"   53   184    0     8 -- |    0     0   10     2 --"
test,1562948792634665984,53,"   53   185    0     8 -- |    0     0    7     2 --"
test,1562948793657061120,53,"   53   186    0     8 -- |    0     0   10     2 --"
test,1562948796636282880,53,"   53   187    0     8 -- |    0     0    8     2 --"
test,1562948798629144832,53,"   53   188    0     9 -- |    0     0    9     2 --"
test,1562948800637639936,53,"   53   189    0     7 -- |    0     0    8     2 --"
test,1562948802630588160,53,"   53   190    0     7 -- |    0     0    9     2 --"
test,1562948803654136832,53,"   53   191    0     8 -- |    0     0   10     2 --"
test,1562948806631962112,53,"   53   192    0    10 -- |    0     0    9     2 --"
test,1562948808640614912,53,"   53   193    0     9 -- |    0     0    9     2 --"
test,1562948810633536000,53,"   53   194    0    10 -- |    0     0    7     2 --"
test,1562948812642096128,53,"   53   195    0     8 -- |    0     0    9     2 --"
test,1562948814634978048,53,"   53   196    0     9 -- |    0     0    8     2 --"
test,1562948816627710208,53,"   53   197    0    10 -- |    0     0    7     2 --"
test,1562948817649327104,53,"   53   198    0    10 -- |    0     0   10     2 --"
test,1562948819658438912,53,"   53   199    0    10 -- |    0     0   10     2 --"
test,1562948822637912064,53,"   53   200    0     6 -- |    0     0    9     2 --"
test,1562948824630686976,53,"   53   201    0     8 -- |    0     0    9     2 --"
test,1562948826639437824,53,"   53   202    0     4 -- |    0     0    7     2 --"
test,1562948828633566976,53,"   53   203    0     6 -- |    0     0    7     2 --"
test,1562948830640882944,53,"   53   204    0     6 -- |    0     0    8     2 --"
test,1562948832633657856,53,"   53   205    0    10 -- |    0     0    8     2 --"
test,1562948834626532096,53,"   53   206    0     5 -- |    0     0    6     2 --"
test,1562948836635273984,53,"   53   207    0     6 -- |    0     0    7     2 --"
test,1562948837660630016,53,"   53   208    0     9 -- |    0     0   10     2 --"
test,1562948840636662016,53,"   53   209    0     9 -- |    0     0    8     2 --"
test,1562948842629538048,53,"   53   210    0     9 -- |    0     0    8     2 --"
test,1562948844638142976,53,"   53   211    0    10 -- |    0     0    9     2 --"
test,1562948846631004160,53,"   53   212    0     8 -- |    0     0    9     2 --"
test,1562948848639740928,53,"   53   213    0     9 -- |    0     0    8     2 --"
test,1562948850632461056,53,"   53   214    0     5 -- |    0     0    6     2 --"
test,1562948852625212928,53,"   53   215    0     7 -- |    0     0    1     2 --"
test,1562948854633964032,53,"   53   216    0     8 -- |    0     0    7     2 --"
test,1562948856626838016,53,"   53   217    0     8 -- |    0     0    6     2 --"
test,1562948858635454976,53,"   53   218    0     4 -- |    0     0    7     2 --"
test,1562948860628421120,53,"   53   219    0     8 -- |    0     0    8     2 --"
test,1562948862637064960,53,"   53   220    0     8 -- |    0     0    5     2 --"
test,1562948864629924096,53,"   53   221    0    10 -- |    0     0    6     2 --"
test,1562948865652719872,53,"   53   222    0     7 -- |    0     0   10     2 --"
test,1562948868631311872,53,"   53   223    0     8 -- |    0     0    6     2 --"
test,1562948870640003072,53,"   53   224    0    10 -- |    0     0    9     2 --"
test,1562948872632812032,53,"   53   225    0     9 -- |    0     0    8     2 --"
test,1562948874625533184,53,"   53   226    0     4 -- |    0     0    5     2 --"
test,1562948876634304000,53,"   53   227    0    10 -- |    0     0    9     2 --"
test,1562948877655281920,53,"   53   228    0     9 -- |    0     0   10     2 --"
test,1562948880635832064,53,"   53   229    0    10 -- |    0     0    6     2 --"
test,1562948882628510976,53,"   53   230    0    10 -- |    0     0    6     2 --"
test,1562948883651384064,53,"   53   231    0    10 -- |    0     0   10     2 --"
test,1562948886629903104,53,"   53   232    0     8 -- |    0     0    9     2 --"
test,1562948887657231104,53,"   53   233    0     5 -- |    0     0   10     2 --"
test,1562948890631520000,53,"   53   234    0     8 -- |    0     0    9     2 --"
test,1562948891653915904,53,"   53   235    0     9 -- |    0     0   10     2 --"
test,1562948894633015040,53,"   53   236    0    10 -- |    0     0    9     2 --"
test,1562948895660224000,53,"   53   237    0    10 -- |    0     0   10     2 --"
test,1562948897648657152,53,"   53   238    0    10 -- |    0     0   10     2 --"
test,1562948899657278976,53,"   53   239    0     9 -- |    0     0   10     2 --"
test,1562948902635665920,53,"   53   240    0     7 -- |    0     0    9     2 --"
test,1562948903659343104,53,"   53   241    0     9 -- |    0     0    9     2 --"
test,1562948905649765120,53,"   53   242    0     9 -- |    0     0   10     2 --"
test,1562948908629807872,53,"   53   243    0     9 -- |    0     0    5     2 --"
test,1562948909650465024,53,"   53   244    0     6 -- |    0     0   10     2 --"
test,1562948911645204992,53,"   53   245    0    10 -- |    0     0   10     2 --"
test,1562948914623883008,53,"   53   246    0     9 -- |    0     0    9     2 --"
test,1562948916632641024,53,"   53   247    0     9 -- |    0     0    9     2 --"
test,1562948918625410048,53,"   53   248    0     9 -- |    0     0    8     2 --"
test,1562948920634084096,53,"   53   249    0     7 -- |    0     0    7     2 --"
test,1562948922626953984,53,"   53   250    0     9 -- |    0     0    9     2 --"
test,1562948924635462912,53,"   53   251    0     8 -- |    0     0    9     2 --"
test,1562948926628155904,53,"   53   252    0     9 -- |    0     0    5     2 --"
test,1562948928636759040,53,"   53   253    0    10 -- |    0     0    9     2 --"
test,1562948930629667072,53,"   53   254    0    10 -- |    0     0    8     2 --"
test,1562948932622289920,53,"   53   255    0     8 -- |    0     0    7     2 --"
test,1562948934631015936,53,"   53   256    0    10 -- |    0     0    8     2 --"
test,1562948936623740928,53,"   53   257    0    10 -- |    0     0    8     2 --"
test,1562948937644026880,53,"   53   258    0    10 -- |    0     0   10     2 --"
test,1562948940625381120,53,"   53   259    0     9 -- |    0     0    6     2 --"
test,1562948942633788160,53,"   53   260    0     6 -- |    0     0    7     2 --"
test,1562948943654188032,53,"   53   261    0     7 -- |    0     0   10     2 --"
test,1562948946635235072,53,"   53   262    0     8 -- |    0     0    8     2 --"
test,1562948948628137216,53,"   53   263    0     9 -- |    0     0    7     2 --"
test,1562948950620847104,53,"   53   264    0     9 -- |    0     0    8     2 --"
test,1562948952629526016,53,"   53   265    0     8 -- |    0     0    9     2 --"
test,1562948953653618944,53,"   53   266    0     7 -- |    0     0   10     2 --"
test,1562948956630913024,53,"   53   267    0     9 -- |    0     0    7     2 --"
test,1562948957653070080,53,"   53   268    0     9 -- |    0     0   10     2 --"
test,1562948960633452800,53,"   53   269    0     8 -- |    0     0    7     2 --"
test,1562948962625068800,53,"   53   270    0     9 -- |    0     0    7     2 --"
test,1562948964633766912,53,"   53   271    0    10 -- |    0     0    8     2 --"
test,1562948966626522112,53,"   53   272    0     7 -- |    0     0    7     2 --"
test,1562948968619364864,53,"   53   273    0     8 -- |    0     0    9     2 --"
test,1562948970627916032,53,"   53   274    0     7 -- |    0     0    8     2 --"
test,1562948971655579136,53,"   53   275    0     8 -- |    0     0   10     2 --"
test,1562948974629560064,53,"   53   276    0    10 -- |    0     0    7     2 --"
test,1562948975655278080,53,"   53   277    0     9 -- |    0     0   10     2 --"
test,1562948978630786816,53,"   53   278    0     8 -- |    0     0    7     2 --"
test,1562948980623517952,53,"   53   279    0    10 -- |    0     0    8     2 --"
test,1562948981649189888,53,"   53   280    0     9 -- |    0     0   10     2 --"
test,1562948984624915968,53,"   53   281    0    10 -- |    0     0    8     2 --"
test,1562948986633627904,53,"   53   282    0     9 -- |    0     0    7     2 --"
test,1562948988626324992,53,"   53   283    0    10 -- |    0     0    9     2 --"
test,1562948990619229184,53,"   53   284    0    10 -- |    0     0    8     2 --"
test,1562948992627984896,53,"   53   285    0     5 -- |    0     0    8     2 --"
test,1562948994620600064,53,"   53   286    0     7 -- |    0     0    8     2 --"
test,1562948996629246976,53,"   53   287    0     8 -- |    0     0    8     2 --"
test,1562948998622088960,53,"   53   288    0     8 -- |    0     0    7     2 --"
