name,time,nodeid,value
test,1562947200502492928,56,"   56   289    0    10 42767  |    1     0    9    56 41231 "
test,1562947202509001984,56,"   56   290    0    10 42767  |    1     0    9    56 41231 "
test,1562947244843259136,56,=8`vxB;Yz0``>000`0``0|000`0```0c0000`0``0|000`0```0c0000`0``1|000`0``#>000`000c0000`   56    11    0    10 -- |    1     0    9    56 --
test,1562947246855181056,56,"   56    12    0    10 -- |    1     0    9    56 --"
test,1562947248858149888,56,"   56    13    0    10 -- |    1     0    9    56 --"
test,1562947250846354944,56,"   56    14    0    10 -- |    1     0    9    56 --"
test,1562947252860584960,56,"   56    15    0    10 -- |    1     0    9    56 --"
test,1562947254842497024,56,"   56    16    0    10 -- |    1     0    9    56 --"
test,1562947256848324096,56,"   56    17    0    10 -- |    1     0    9    56 --"
test,1562947258859208192,56,"   56    18    0    10 -- |    1     0    9    56 --"
test,1562947260845490944,56,"   56    19    0    10 -- |    1     0    9    56 --"
test,1562947262851782912,56,"   56    20    0    10 -- |    1     0    9    56 --"
test,1562947264841603072,56,"   56    21    0    10 -- |    1     0    9    56 --"
test,1562947266851234048,56,"   56    22    0    10 -- |    1     0    9    56 --"
test,1562947268854477824,56,"   56    23    0    10 -- |    1     0    9    56 --"
test,1562947270844216064,56,"   56    24    0    10 -- |    1     0    9    56 --"
test,1562947272851546880,56,"   56    25    0    10 -- |    1     0    9    56 --"
test,1562947274840534016,56,"   56    26    0    10 -- |    1     0    9    56 --"
test,1562947276847798016,56,"   56    27    0    10 -- |    1     0    9    56 --"
test,1562947278853317888,56,"   56    28    0    10 -- |    1     0    9    56 --"
test,1562947280843619072,56,"   56    29    0    10 -- |    1     0    9    56 --"
test,1562947282852225024,56,"   56    30    0    10 -- |    1     0    9    56 --"
test,1562947284839772928,56,"   56    31    0    10 -- |    1     0    9    56 --"
test,1562947286850213888,56,"   56    32    0    10 -- |    1     0    9    56 --"
test,1562947288851983104,56,"   56    33    0    10 -- |    1     0    9    56 --"
test,1562947290842381056,56,"   56    34    0    10 -- |    1     0    9    56 --"
test,1562947292848525056,56,"   56    35    0    10 -- |    1     0    9    56 --"
test,1562947294867371008,56,"   56    36    0    10 -- |    1     0    9    56 --"
test,1562947296845519104,56,"   56    37    0    10 -- |    1     0    9    56 --"
test,1562947298852787968,56,"   56    38    0    10 -- |    1     0    9    56 --"
test,1562947300841651968,56,"   56    39    0    10 -- |    1     0    9    56 --"
test,1562947302848704000,56,"   56    40    0    10 -- |    1     0    9    56 --"
test,1562947304855428864,56,"   56    41    0    10 -- |    1     0    9    56 --"
test,1562947306845155072,56,"   56    42    0    10 -- |    1     0    9    56 --"
test,1562947308850894080,56,"   56    43    0    10 -- |    1     0    9    56 --"
test,1562947310840521216,56,"   56    44    0    10 -- |    1     0    9    56 --"
test,1562947312846796032,56,"   56    45    0    10 -- |    1     0    9    56 --"
test,1562947314854310144,56,"   56    46    0    10 -- |    1     0    9    56 --"
test,1562947316843663872,56,"   56    47    0    10 -- |    1     0    9    56 --"
test,1562947318854163968,56,"   56    48    0    10 -- |    1     0    9    56 --"
test,1562947320839814912,56,"   56    49    0    10 -- |    1     0    9    56 --"
test,1562947322848075008,56,"   56    50    0    10 -- |    1     0    9    56 --"
test,1562947324859673856,56,"   56    51    0    10 -- |    1     0    9    56 --"
test,1562947326842565120,56,"   56    52    0    10 -- |    1     0    9    56 --"
test,1562947328849931008,56,"   56    53    0    10 -- |    1     0    9    56 --"
test,1562947330838846976,56,"   56    54    0    10 -- |    1     0    9    56 --"
test,1562947332846043136,56,"   56    55    0    10 -- |    1     0    9    56 --"
test,1562947334878578944,56,"   56    56    0    10 -- |    1     0    9    56 --"
test,1562947336841577984,56,"   56    57    0    10 -- |    1     0    9    56 --"
test,1562947338848246016,56,"   56    58    0    10 -- |    1     0    9    56 --"
test,1562947340855417856,56,"   56    59    0    10 -- |    1     0    9    56 --"
test,1562947342846349056,56,"   56    60    0    10 -- |    1     0    9    56 --"
test,1562947344862768896,56,"   56    61    0    10 -- |    1     0    9    56 --"
test,1562947346841207040,56,"   56    62    0    10 -- |    1     0    9    56 --"
test,1562947348848534016,56,"   56    63    0    10 -- |    1     0    9    56 --"
test,1562947350837120000,56,"   56    64    0    10 -- |    1     0    9    56 --"
test,1562947352844017920,56,"   56    65    0    10 -- |    1     0    9    56 --"
test,1562947354864366080,56,"   56    66    0    10 -- |    1     0    9    56 --"
test,1562947356839869952,56,"   56    67    0    10 -- |    1     0    9    56 --"
test,1562947358846546944,56,"   56    68    0    10 -- |    1     0    9    56 --"
test,1562947360852143104,56,"   56    69    0    10 -- |    1     0    9    56 --"
test,1562947362844166144,56,"   56    70    0    10 -- |    1     0    9    56 --"
test,1562947366839011840,56,"   56    72    0    10 -- |    1     0    9    56 --"
test,1562947368845346048,56,"   56    73    0    10 -- |    1     0    9    56 --"
test,1562947370851826944,56,"   56    74    0    10 -- |    1     0    9    56 --"
test,1562947372841885184,56,"   56    75    0    10 -- |    1     0    9    56 --"
test,1562947376838066176,56,"   56    77    0    10 -- |    1     0    9    56 --"
test,1562947378845617920,56,"   56    78    0    10 -- |    1     0    9    56 --"
test,1562947380855546880,56,"   56    79    0    10 -- |    1     0    9    56 --"
test,1562947382841458176,56,"   56    80    0    10 -- |    1     0    9    56 --"
test,1562947384847565056,56,"   56    81    0    10 -- |    1     0    9    56 --"
test,1562947386837276928,56,"   56    82    0    10 -- |    1     0    9    56 --"
test,1562947388843617024,56,"   56    83    0    10 -- |    1     0    9    56 --"
test,1562947390851836928,56,"   56    84    0    10 -- |    1     0    9    56 --"
test,1562947392840056832,56,"   56    85    0    10 -- |    1     0    9    56 --"
test,1562947394849381888,56,"   56    86    0    10 -- |    1     0    9    56 --"
test,1562947396857070080,56,"   56    87    0    10 -- |    1     0    9    56 --"
test,1562947398844140032,56,"   56    88    0    10 -- |    1     0    9    56 --"
test,1562947400849415936,56,"   56    89    0    10 -- |    1     0    9    56 --"
test,1562947402839193088,56,"   56    90    0    10 -- |    1     0    9    56 --"
test,1562947404846304000,56,"   56    91    0    10 -- |    1     0    9    56 --"
test,1562947406835581184,56,"   56    92    0    10 -- |    1     0    9    56 --"
test,1562947408842077952,56,"   56    93    0    10 -- |    1     0    9    56 --"
test,1562947410850075904,56,"   56    94    0    10 -- |    1     0    9    56 --"
test,1562947412838063872,56,"   56    95    0    10 -- |    1     0    9    56 --"
test,1562947414846671104,56,"   56    96    0    10 -- |    1     0    9    56 --"
test,1562947416851219968,56,"   56    97    0    10 -- |    1     0    9    56 --"
test,1562947418841107968,56,"   56    98    0    10 -- |    1     0    9    56 --"
test,1562947420856889856,56,"   56    99    0    10 -- |    1     0    9    56 --"
test,1562947422837282048,56,"   56   100    0    10 -- |    1     0    9    56 --"
test,1562947424844576000,56,"   56   101    0    10 -- |    1     0    9    56 --"
test,1562947426854646016,56,"   56   102    0    10 -- |    1     0    9    56 --"
test,1562947428840061952,56,"   56   103    0    10 -- |    1     0    9    56 --"
test,1562947430850449152,56,"   56   104    0    10 -- |    1     0    9    56 --"
test,1562947432836381952,56,"   56   105    0    10 -- |    1     0    9    56 --"
test,1562947434842833152,56,"   56   106    0    10 -- |    1     0    9    56 --"
test,1562947436852105984,56,"   56   107    0    10 -- |    1     0    9    56 --"
test,1562947438840446976,56,"   56   108    0    10 -- |    1     0    9    56 --"
test,1562947440846621952,56,"   56   109    0    10 -- |    1     0    9    56 --"
test,1562947442835931136,56,"   56   110    0    10 -- |    1     0    9    56 --"
test,1562947444843416832,56,"   56   111    0    10 -- |    1     0    9    56 --"
test,1562947446852663040,56,"   56   112    0    10 -- |    1     0    9    56 --"
test,1562947448838882816,56,"   56   113    0    10 -- |    1     0    9    56 --"
test,1562947450845702912,56,"   56   114    0    10 -- |    1     0    9    56 --"
test,1562947452834678784,56,"   56   115    0    10 -- |    1     0    9    56 --"
test,1562947454842416896,56,"   56   116    0    10 -- |    1     0    9    56 --"
test,1562947456852292096,56,"   56   117    0    10 -- |    1     0    9    56 --"
test,1562947458837402112,56,"   56   118    0    10 -- |    1     0    9    56 --"
test,1562947460844082176,56,"   56   119    0    10 -- |    1     0    9    56 --"
test,1562947462833822976,56,"   56   120    0    10 -- |    1     0    9    56 --"
test,1562947464840122880,56,"   56   121    0    10 -- |    1     0    9    56 --"
test,1562947466847155968,56,"   56   122    0    10 -- |    1     0    9    56 --"
test,1562947468836817152,56,"   56   123    0    10 -- |    1     0    9    56 --"
test,1562947470846784000,56,"   56   124    0    10 -- |    1     0    9    56 --"
test,1562947472832852992,56,"   56   125    0    10 -- |    1     0    9    56 --"
test,1562947474839500032,56,"   56   126    0    10 -- |    1     0    9    56 --"
test,1562947476852786944,56,"   56   127    0    10 -- |    1     0    9    56 --"
test,1562947478835606016,56,"   56   128    0    10 -- |    1     0    9    56 --"
test,1562947480842353152,56,"   56   129    0    10 -- |    1     0    9    56 --"
test,1562947482848071936,56,"   56   130    0    10 -- |    1     0    9    56 --"
test,1562947484838385152,56,"   56   131    0    10 -- |    1     0    9    56 --"
test,1562947486847759104,56,"   56   132    0    10 -- |    1     0    9    56 --"
test,1562947488834931968,56,"   56   133    0    10 -- |    1     0    9    56 --"
test,1562947490845161984,56,"   56   134    0    10 -- |    1     0    9    56 --"
test,1562947492855878144,56,"   56   135    0    10 -- |    1     0    9    56 --"
test,1562947494837583104,56,"   56   136    0    10 -- |    1     0    9    56 --"
test,1562947496856587776,56,"   56   137    0    10 -- |    1     0    9    56 --"
test,1562947498833836032,56,"   56   138    0    10 -- |    1     0    9    56 --"
test,1562947500844864000,56,"   56   139    0    10 -- |    1     0    9    56 --"
test,1562947502852065024,56,"   56   140    0    10 -- |    1     0    9    56 --"
test,1562947504836564992,56,"   56   141    0    10 -- |    1     0    9    56 --"
test,1562947506849412864,56,"   56   142    0    10 -- |    1     0    9    56 --"
test,1562947508833137920,56,"   56   143    0    10 -- |    1     0    9    56 --"
test,1562947510839247104,56,"   56   144    0    10 -- |    1     0    9    56 --"
test,1562947512847939072,56,"   56   145    0    10 -- |    1     0    9    56 --"
test,1562947514836025856,56,"   56   146    0    10 -- |    1     0    9    56 --"
test,1562947516861996032,56,"   56   147    0    10 -- |    1     0    9    56 --"
test,1562947518832126976,56,"   56   148    0    10 -- |    1     0    9    56 --"
test,1562947520839656192,56,"   56   149    0    10 -- |    1     0    9    56 --"
test,1562947522848391168,56,"   56   150    0    10 -- |    1     0    9    56 --"
test,1562947524835643136,56,"   56   151    0    10 -- |    1     0    9    56 --"
test,1562947526841592064,56,"   56   152    0    10 -- |    1     0    9    56 --"
test,1562947528849255936,56,"   56   153    0    10 -- |    1     0    9    56 --"
test,1562947530838130944,56,"   56   154    0    10 -- |    1     0    9    56 --"
test,1562947532844633088,56,"   56   155    0    10 -- |    1     0    9    56 --"
test,1562947534833937920,56,"   56   156    0    10 -- |    1     0    9    56 --"
test,1562947536867819008,56,"   56   157    0    10 -- |    1     0    9    56 --"
test,1562947538830467072,56,"   56   158    0    10 -- |    1     0    9    56 --"
test,1562947540836992000,56,"   56   159    0    10 -- |    1     0    9    56 --"
test,1562947542844449024,56,"   56   160    0    10 -- |    1     0    9    56 --"
test,1562947544833069056,56,"   56   161    0    10 -- |    1     0    9    56 --"
test,1562947546848201984,56,"   56   162    0    10 -- |    1     0    9    56 --"
test,1562947548845443072,56,"   56   163    0    10 -- |    1     0    9    56 --"
test,1562947550836671232,56,"   56   164    0    10 -- |    1     0    9    56 --"
test,1562947552843676160,56,"   56   165    0    10 -- |    1     0    9    56 --"
test,1562947554832429824,56,"   56   166    0    10 -- |    1     0    9    56 --"
test,1562947556838630912,56,"   56   167    0    10 -- |    1     0    9    56 --"
test,1562947558845696000,56,"   56   168    0    10 -- |    1     0    9    56 --"
test,1562947560835767040,56,"   56   169    0    10 -- |    1     0    9    56 --"
test,1562947562841798144,56,"   56   170    0    10 -- |    1     0    9    56 --"
test,1562947564831356160,56,"   56   171    0    10 -- |    1     0    9    56 --"
test,1562947566839193088,56,"   56   172    0    10 -- |    1     0    9    56 --"
test,1562947568846284032,56,"   56   173    0    10 -- |    1     0    9    56 --"
test,1562947570834883072,56,"   56   174    0    10 -- |    1     0    9    56 --"
test,1562947572842097152,56,"   56   175    0    10 -- |    1     0    9    56 --"
test,1562947574830362112,56,"   56   176    0    10 -- |    1     0    9    56 --"
test,1562947576837285888,56,"   56   177    0    10 -- |    1     0    9    56 --"
test,1562947578843808000,56,"   56   178    0    10 -- |    1     0    9    56 --"
test,1562947580833368064,56,"   56   179    0    10 -- |    1     0    9    56 --"
test,1562947582840320000,56,"   56   180    0    10 -- |    1     0    9    56 --"
test,1562947584829658880,56,"   56   181    0    10 -- |    1     0    9    56 --"
test,1562947586836270080,56,"   56   182    0    10 -- |    1     0    9    56 --"
test,1562947588843097856,56,"   56   183    0    10 -- |    1     0    9    56 --"
test,1562947590832472064,56,"   56   184    0    10 -- |    1     0    9    56 --"
test,1562947592839557888,56,"   56   185    0    10 -- |    1     0    9    56 --"
test,1562947594828707840,56,"   56   186    0    10 -- |    1     0    9    56 --"
test,1562947596837304064,56,"   56   187    0    10 -- |    1     0    9    56 --"
test,1562947598855297024,56,"   56   188    0    10 -- |    1     0    9    56 --"
test,1562947600835078912,56,"   56   189    0    10 -- |    1     0    9    56 --"
test,1562947602841768960,56,"   56   190    0    10 -- |    1     0    9    56 --"
test,1562947604848105984,56,"   56   191    0    10 -- |    1     0    9    56 --"
test,1562947606835084800,56,"   56   192    0    10 -- |    1     0    9    56 --"
test,1562947608842504960,56,"   56   193    0    10 -- |    1     0    9    56 --"
test,1562947610830859776,56,"   56   194    0    10 -- |    1     0    9    56 --"
test,1562947612839654912,56,"   56   195    0    10 -- |    1     0    9    56 --"
test,1562947614844115968,56,"   56   196    0    10 -- |    1     0    9    56 --"
test,1562947616834145024,56,"   56   197    0    10 -- |    1     0    9    56 --"
test,1562947618843480064,56,"   56   198    0    10 -- |    1     0    9    56 --"
test,1562947620829626112,56,"   56   199    0    10 -- |    1     0    9    56 --"
test,1562947622837611008,56,"   56   200    0    10 -- |    1     0    9    56 --"
test,1562947624842022912,56,"   56   201    0    10 -- |    1     0    9    56 --"
test,1562947626832429056,56,"   56   202    0    10 -- |    1     0    9    56 --"
test,1562947628841993984,56,"   56   203    0    10 -- |    1     0    9    56 --"
test,1562947630829089024,56,"   56   204    0    10 -- |    1     0    9    56 --"
test,1562947632835043840,56,"   56   205    0    10 -- |    1     0    9    56 --"
test,1562947634845513984,56,"   56   206    0    10 -- |    1     0    9    56 --"
test,1562947636831491840,56,"   56   207    0    10 -- |    1     0    9    56 --"
test,1562947638840190976,56,"   56   208    0    10 -- |    1     0    9    56 --"
test,1562947640827984128,56,"   56   209    0    10 -- |    1     0    9    56 --"
test,1562947642835206912,56,"   56   210    0    10 -- |    1     0    9    56 --"
test,1562947644841767936,56,"   56   211    0    10 -- |    1     0    9    56 --"
test,1562947646830894080,56,"   56   212    0    10 -- |    1     0    9    56 --"
test,1562947648839278080,56,"   56   213    0    10 -- |    1     0    9    56 --"
test,1562947650827162112,56,"   56   214    0    10 -- |    1     0    9    56 --"
test,1562947652833936896,56,"   56   215    0    10 -- |    1     0    9    56 --"
test,1562947654842717952,56,"   56   216    0    10 -- |    1     0    9    56 --"
test,1562947656830163968,56,"   56   217    0    10 -- |    1     0    9    56 --"
test,1562947658841957120,56,"   56   218    0    10 -- |    1     0    9    56 --"
test,1562947660826224128,56,"   56   219    0    10 -- |    1     0    9    56 --"
test,1562947662832875008,56,"   56   220    0    10 -- |    1     0    9    56 --"
test,1562947664841530112,56,"   56   221    0    10 -- |    1     0    9    56 --"
test,1562947666828929024,56,"   56   222    0    10 -- |    1     0    9    56 --"
test,1562947668839142144,56,"   56   223    0    10 -- |    1     0    9    56 --"
test,1562947670841995008,56,"   56   224    0    10 -- |    1     0    9    56 --"
test,1562947672833849856,56,"   56   225    0    10 -- |    1     0    9    56 --"
test,1562947674840049152,56,"   56   226    0    10 -- |    1     0    9    56 --"
test,1562947676845117184,56,"   56   227    0    10 -- |    1     0    9    56 --"
test,1562947678836111104,56,"   56   228    0    10 -- |    1     0    9    56 --"
test,1562947680843503104,56,"   56   229    0    10 -- |    1     0    9    56 --"
test,1562947682833682176,56,"   56   230    0    10 -- |    1     0    9    56 --"
test,1562947684838572032,56,"   56   231    0    10 -- |    1     0    9    56 --"
test,1562947686827164928,56,"   56   232    0    10 -- |    1     0    9    56 --"
test,1562947688854993152,56,"   56   233    0    10 -- |    1     0    9    56 --"
test,1562947690844690944,56,"   56   234    0    10 -- |    1     0    9    56 --"
test,1562947692837702912,56,"   56   235    0    10 -- |    1     0    9    56 --"
test,1562947694836747008,56,"   56   236    0    10 -- |    1     0    9    56 --"
test,1562947696826446080,56,"   56   237    0    10 -- |    1     0    9    56 --"
test,1562947698861331968,56,"   56   238    0    10 -- |    1     0    9    56 --"
test,1562947700844963072,56,"   56   239    0    10 -- |    1     0    9    56 --"
test,1562947702831446784,56,"   56   240    0    10 -- |    1     0    9    56 --"
test,1562947704836940032,56,"   56   241    0    10 -- |    1     0    9    56 --"
test,1562947706825496064,56,"   56   242    0    10 -- |    1     0    9    56 --"
test,1562947710840601856,56,"   56   244    0    10 -- |    1     0    9    56 --"
test,1562947712828111872,56,"   56   245    0    10 -- |    1     0    9    56 --"
test,1562947714838565120,56,"   56   246    0    10 -- |    1     0    9    56 --"
test,1562947716824461056,56,"   56   247    0    10 -- |    1     0    9    56 --"
test,1562947718831479040,56,"   56   248    0    10 -- |    1     0    9    56 --"
test,1562947720838332928,56,"   56   249    0    10 -- |    1     0    9    56 --"
test,1562947722827334912,56,"   56   250    0    10 -- |    1     0    9    56 --"
test,1562947724833427968,56,"   56   251    0    10 -- |    1     0    9    56 --"
test,1562947726823843072,56,"   56   252    0    10 -- |    1     0    9    56 --"
test,1562947728830737152,56,"   56   253    0    10 -- |    1     0    9    56 --"
test,1562947730841070848,56,"   56   254    0    10 -- |    1     0    9    56 --"
test,1562947732826394112,56,"   56   255    0    10 -- |    1     0    9    56 --"
test,1562947734833308928,56,"   56   256    0    10 -- |    1     0    9    56 --"
test,1562947736842034944,56,"   56   257    0    10 -- |    1     0    9    56 --"
test,1562947738829443840,56,"   56   258    0    10 -- |    1     0    9    56 --"
test,1562947740839955968,56,"   56   259    0    10 -- |    1     0    9    56 --"
test,1562947742826042880,56,"   56   260    0    10 -- |    1     0    9    56 --"
test,1562947744832022784,56,"   56   261    0    10 -- |    1     0    9    56 --"
test,1562947746841293056,56,"   56   262    0    10 -- |    1     0    9    56 --"
test,1562947748829259008,56,"   56   263    0    10 -- |    1     0    9    56 --"
test,1562947750835438080,56,"   56   264    0    10 -- |    1     0    9    56 --"
test,1562947752824670976,56,"   56   265    0    10 -- |    1     0    9    56 --"
test,1562947754833650176,56,"   56   266    0    10 -- |    1     0    9    56 --"
test,1562947756839821056,56,"   56   267    0    10 -- |    1     0    9    56 --"
test,1562947758827310080,56,"   56   268    0    10 -- |    1     0    9    56 --"
test,1562947760837809152,56,"   56   269    0    10 -- |    1     0    9    56 --"
test,1562947762823780096,56,"   56   270    0    10 -- |    1     0    9    56 --"
test,1562947764835915008,56,"   56   271    0    10 -- |    1     0    9    56 --"
test,1562947766837106944,56,"   56   272    0    10 -- |    1     0    9    56 --"
test,1562947768826561024,56,"   56   273    0    10 -- |    1     0    9    56 --"
test,1562947770833831936,56,"   56   274    0    10 -- |    1     0    9    56 --"
test,1562947772839310848,56,"   56   275    0    10 -- |    1     0    9    56 --"
test,1562947774829523968,56,"   56   276    0    10 -- |    1     0    9    56 --"
test,1562947776838031104,56,"   56   277    0    10 -- |    1     0    9    56 --"
test,1562947778826011904,56,"   56   278    0    10 -- |    1     0    9    56 --"
test,1562947780835553792,56,"   56   279    0    10 -- |    1     0    9    56 --"
test,1562947782822107904,56,"   56   280    0    10 -- |    1     0    9    56 --"
test,1562947784829154048,56,"   56   281    0    10 -- |    1     0    9    56 --"
test,1562947786838449920,56,"   56   282    0    10 -- |    1     0    9    56 --"
test,1562947788824944128,56,"   56   283    0    10 -- |    1     0    9    56 --"
test,1562947790831738880,56,"   56   284    0    10 -- |    1     0    9    56 --"
test,1562947792821227008,56,"   56   285    0    10 -- |    1     0    9    56 --"
test,1562947794827611904,56,"   56   286    0    10 -- |    1     0    9    56 --"
test,1562947796834520064,56,"   56   287    0    10 -- |    1     0    9    56 --"
test,1562947798823949056,56,"   56   288    0    10 -- |    1     0    9    56 --"
