name,time,nodeid,value
test,1562947200508244992,9,"    9   289    0    10 42767  |    0     0   10    56 41231 "
test,1562947202515746048,9,"    9   290    0    10 42767  |    0     0   10    56 41231 "
test,1562947204505484032,9,"    9   291    0    10 42767  |    0     0   10    56 41231 "
test,1562947243372984832,9,=8`vxG:q000c000`000c000`000c000`00c000`00c0
test,1562947243387276800,9,0
test,1562947244860203008,9,0`0000c000`00c000`000c000`    9    11    0    10 -- |    0     0   10    56 --
test,1562947246842710016,9,"    9    12    0    10 -- |    0     0   10    56 --"
test,1562947248852179968,9,"    9    13    0    10 -- |    0     0   10    56 --"
test,1562947250855616000,9,"    9    14    0    10 -- |    0     0   10    56 --"
test,1562947252845582080,9,"    9    15    0    10 -- |    0     0   10    56 --"
test,1562947254853324800,9,"    9    16    0    10 -- |    0     0   10    56 --"
test,1562947256841643008,9,"    9    17    0    10 -- |    0     0   10    56 --"
test,1562947258852534016,9,"    9    18    0    10 -- |    0     0   10    56 --"
test,1562947260855020032,9,"    9    19    0    10 -- |    0     0   10    56 --"
test,1562947262844347904,9,"    9    20    0    10 -- |    0     0   10    56 --"
test,1562947264854228992,9,"    9    21    0    10 -- |    0     0   10    56 --"
test,1562947266857681152,9,"    9    22    0    10 -- |    0     0   10    56 --"
test,1562947268847341056,9,"    9    23    0    10 -- |    0     0   10    56 --"
test,1562947270862704128,9,"    9    24    0    10 -- |    0     0   10    56 --"
test,1562947272843437056,9,"    9    25    0    10 -- |    0     0   10    56 --"
test,1562947274849628928,9,"    9    26    0    10 -- |    0     0   10    56 --"
test,1562947276859908096,9,"    9    27    0    10 -- |    0     0   10    56 --"
test,1562947278846637056,9,"    9    28    0    10 -- |    0     0   10    56 --"
test,1562947280853902080,9,"    9    29    0    10 -- |    0     0   10    56 --"
test,1562947282842256896,9,"    9    30    0    10 -- |    0     0   10    56 --"
test,1562947284850040832,9,"    9    31    0    10 -- |    0     0   10    56 --"
test,1562947286855823104,9,"    9    32    0    10 -- |    0     0   10    56 --"
test,1562947288845668096,9,"    9    33    0    10 -- |    0     0   10    56 --"
test,1562947290852787968,9,"    9    34    0    10 -- |    0     0   10    56 --"
test,1562947292841458176,9,"    9    35    0    10 -- |    0     0   10    56 --"
test,1562947294847760896,9,"    9    36    0    10 -- |    0     0   10    56 --"
test,1562947296853720064,9,"    9    37    0    10 -- |    0     0   10    56 --"
test,1562947298844105984,9,"    9    38    0    10 -- |    0     0   10    56 --"
test,1562947300851388928,9,"    9    39    0    10 -- |    0     0   10    56 --"
test,1562947302840382208,9,"    9    40    0    10 -- |    0     0   10    56 --"
test,1562947304848790784,9,"    9    41    0    10 -- |    0     0   10    56 --"
test,1562947306855695872,9,"    9    42    0    10 -- |    0     0   10    56 --"
test,1562947308843480064,9,"    9    43    0    10 -- |    0     0   10    56 --"
test,1562947310850667008,9,"    9    44    0    10 -- |    0     0   10    56 --"
test,1562947312861767168,9,"    9    45    0    10 -- |    0     0   10    56 --"
test,1562947314846740992,9,"    9    46    0    10 -- |    0     0   10    56 --"
test,1562947316853739008,9,"    9    47    0    10 -- |    0     0   10    56 --"
test,1562947318843656960,9,"    9    48    0    10 -- |    0     0   10    56 --"
test,1562947320849772032,9,"    9    49    0    10 -- |    0     0   10    56 --"
test,1562947322854914048,9,"    9    50    0    10 -- |    0     0   10    56 --"
test,1562947324845251072,9,"    9    51    0    10 -- |    0     0   10    56 --"
test,1562947326853734144,9,"    9    52    0    10 -- |    0     0   10    56 --"
test,1562947328841645056,9,"    9    53    0    10 -- |    0     0   10    56 --"
test,1562947330849711872,9,"    9    54    0    10 -- |    0     0   10    56 --"
test,1562947332860398080,9,"    9    55    0    10 -- |    0     0   10    56 --"
test,1562947334873869824,9,"    9    56    0    10 -- |    0     0   10    56 --"
test,1562947336854702848,9,"    9    57    0    10 -- |    0     0   10    56 --"
test,1562947338840058112,9,"    9    58    0    10 -- |    0     0   10    56 --"
test,1562947340846853888,9,"    9    59    0    10 -- |    0     0   10    56 --"
test,1562947342854801920,9,"    9    60    0    10 -- |    0     0   10    56 --"
test,1562947344843544064,9,"    9    61    0    10 -- |    0     0   10    56 --"
test,1562947346854949888,9,"    9    62    0    10 -- |    0     0   10    56 --"
test,1562947348838970880,9,"    9    63    0    10 -- |    0     0   10    56 --"
test,1562947350846353152,9,"    9    64    0    10 -- |    0     0   10    56 --"
test,1562947352855570176,9,"    9    65    0    10 -- |    0     0   10    56 --"
test,1562947354842451200,9,"    9    66    0    10 -- |    0     0   10    56 --"
test,1562947356847910912,9,"    9    67    0    10 -- |    0     0   10    56 --"
test,1562947358838205184,9,"    9    68    0    10 -- |    0     0   10    56 --"
test,1562947360844177920,9,"    9    69    0    10 -- |    0     0   10    56 --"
test,1562947362853169920,9,"    9    70    0    10 -- |    0     0   10    56 --"
test,1562947364840955136,9,"    9    71    0    10 -- |    0     0   10    56 --"
test,1562947366848804864,9,"    9    72    0    10 -- |    0     0   10    56 --"
test,1562947368859834880,9,"    9    73    0    10 -- |    0     0   10    56 --"
test,1562947370844512000,9,"    9    74    0    10 -- |    0     0   10    56 --"
test,1562947372852870912,9,"    9    75    0    10 -- |    0     0   10    56 --"
test,1562947374839622144,9,"    9    76    0    10 -- |    0     0   10    56 --"
test,1562947376848425984,9,"    9    77    0    10 -- |    0     0   10    56 --"
test,1562947378853912064,9,"    9    78    0    10 -- |    0     0   10    56 --"
test,1562947380842631936,9,"    9    79    0    10 -- |    0     0   10    56 --"
test,1562947382850338048,9,"    9    80    0    10 -- |    0     0   10    56 --"
test,1562947384838598912,9,"    9    81    0    10 -- |    0     0   10    56 --"
test,1562947386846686976,9,"    9    82    0    10 -- |    0     0   10    56 --"
test,1562947388853147136,9,"    9    83    0    10 -- |    0     0   10    56 --"
test,1562947390842221056,9,"    9    84    0    10 -- |    0     0   10    56 --"
test,1562947392849952000,9,"    9    85    0    10 -- |    0     0   10    56 --"
test,1562947394838160896,9,"    9    86    0    10 -- |    0     0   10    56 --"
test,1562947396844166912,9,"    9    87    0    10 -- |    0     0   10    56 --"
test,1562947398851789824,9,"    9    88    0    10 -- |    0     0   10    56 --"
test,1562947400840903168,9,"    9    89    0    10 -- |    0     0   10    56 --"
test,1562947402847040768,9,"    9    90    0    10 -- |    0     0   10    56 --"
test,1562947404836740096,9,"    9    91    0    10 -- |    0     0   10    56 --"
test,1562947406847435008,9,"    9    92    0    10 -- |    0     0   10    56 --"
test,1562947408850852864,9,"    9    93    0    10 -- |    0     0   10    56 --"
test,1562947410839553024,9,"    9    94    0    10 -- |    0     0   10    56 --"
test,1562947412847349760,9,"    9    95    0    10 -- |    0     0   10    56 --"
test,1562947414856421888,9,"    9    96    0    10 -- |    0     0   10    56 --"
test,1562947416842479104,9,"    9    97    0    10 -- |    0     0   10    56 --"
test,1562947418849952000,9,"    9    98    0    10 -- |    0     0   10    56 --"
test,1562947420838376960,9,"    9    99    0    10 -- |    0     0   10    56 --"
test,1562947422845078016,9,"    9   100    0    10 -- |    0     0   10    56 --"
test,1562947424853828864,9,"    9   101    0    10 -- |    0     0   10    56 --"
test,1562947426842211072,9,"    9   102    0    10 -- |    0     0   10    56 --"
test,1562947428847603200,9,"    9   103    0    10 -- |    0     0   10    56 --"
test,1562947430837438208,9,"    9   104    0    10 -- |    0     0   10    56 --"
test,1562947432853305088,9,"    9   105    0    10 -- |    0     0   10    56 --"
test,1562947434851564032,9,"    9   106    0    10 -- |    0     0   10    56 --"
test,1562947436839942912,9,"    9   107    0    10 -- |    0     0   10    56 --"
test,1562947438847307008,9,"    9   108    0    10 -- |    0     0   10    56 --"
test,1562947440836371968,9,"    9   109    0    10 -- |    0     0   10    56 --"
test,1562947442843288832,9,"    9   110    0    10 -- |    0     0   10    56 --"
test,1562947444849742848,9,"    9   111    0    10 -- |    0     0   10    56 --"
test,1562947446840007936,9,"    9   112    0    10 -- |    0     0   10    56 --"
test,1562947448851748864,9,"    9   113    0    10 -- |    0     0   10    56 --"
test,1562947450835511808,9,"    9   114    0    10 -- |    0     0   10    56 --"
test,1562947452842444800,9,"    9   115    0    10 -- |    0     0   10    56 --"
test,1562947454848936960,9,"    9   116    0    10 -- |    0     0   10    56 --"
test,1562947456839585024,9,"    9   117    0    10 -- |    0     0   10    56 --"
test,1562947458844764928,9,"    9   118    0    10 -- |    0     0   10    56 --"
test,1562947460854680064,9,"    9   119    0    10 -- |    0     0   10    56 --"
test,1562947462841344000,9,"    9   120    0    10 -- |    0     0   10    56 --"
test,1562947464848564992,9,"    9   121    0    10 -- |    0     0   10    56 --"
test,1562947466838481920,9,"    9   122    0    10 -- |    0     0   10    56 --"
test,1562947468851613952,9,"    9   123    0    10 -- |    0     0   10    56 --"
test,1562947470851230976,9,"    9   124    0    10 -- |    0     0   10    56 --"
test,1562947472840281088,9,"    9   125    0    10 -- |    0     0   10    56 --"
test,1562947474850500096,9,"    9   126    0    10 -- |    0     0   10    56 --"
test,1562947476836688896,9,"    9   127    0    10 -- |    0     0   10    56 --"
test,1562947478842144000,9,"    9   128    0    10 -- |    0     0   10    56 --"
test,1562947480855251200,9,"    9   129    0    10 -- |    0     0   10    56 --"
test,1562947482838778112,9,"    9   130    0    10 -- |    0     0   10    56 --"
test,1562947484845811968,9,"    9   131    0    10 -- |    0     0   10    56 --"
test,1562947486835078912,9,"    9   132    0    10 -- |    0     0   10    56 --"
test,1562947488841593856,9,"    9   133    0    10 -- |    0     0   10    56 --"
test,1562947490849630976,9,"    9   134    0    10 -- |    0     0   10    56 --"
test,1562947492838650880,9,"    9   135    0    10 -- |    0     0   10    56 --"
test,1562947494845774848,9,"    9   136    0    10 -- |    0     0   10    56 --"
test,1562947496834612992,9,"    9   137    0    10 -- |    0     0   10    56 --"
test,1562947498840477952,9,"    9   138    0    10 -- |    0     0   10    56 --"
test,1562947500850892032,9,"    9   139    0    10 -- |    0     0   10    56 --"
test,1562947502837042944,9,"    9   140    0    10 -- |    0     0   10    56 --"
test,1562947504843087872,9,"    9   141    0    10 -- |    0     0   10    56 --"
test,1562947506852137216,9,"    9   142    0    10 -- |    0     0   10    56 --"
test,1562947508839899136,9,"    9   143    0    10 -- |    0     0   10    56 --"
test,1562947510848332032,9,"    9   144    0    10 -- |    0     0   10    56 --"
test,1562947512836093952,9,"    9   145    0    10 -- |    0     0   10    56 --"
test,1562947514844135936,9,"    9   146    0    10 -- |    0     0   10    56 --"
test,1562947516851678976,9,"    9   147    0    10 -- |    0     0   10    56 --"
test,1562947518838329088,9,"    9   148    0    10 -- |    0     0   10    56 --"
test,1562947520846169856,9,"    9   149    0    10 -- |    0     0   10    56 --"
test,1562947522835608064,9,"    9   150    0    10 -- |    0     0   10    56 --"
test,1562947524842260992,9,"    9   151    0    10 -- |    0     0   10    56 --"
test,1562947526850471936,9,"    9   152    0    10 -- |    0     0   10    56 --"
test,1562947528837660160,9,"    9   153    0    10 -- |    0     0   10    56 --"
test,1562947530844441856,9,"    9   154    0    10 -- |    0     0   10    56 --"
test,1562947532835539968,9,"    9   155    0    10 -- |    0     0   10    56 --"
test,1562947534842148096,9,"    9   156    0    10 -- |    0     0   10    56 --"
test,1562947536862621184,9,"    9   157    0    10 -- |    0     0   10    56 --"
test,1562947538840982016,9,"    9   158    0    10 -- |    0     0   10    56 --"
test,1562947540846147072,9,"    9   159    0    10 -- |    0     0   10    56 --"
test,1562947542832962048,9,"    9   160    0    10 -- |    0     0   10    56 --"
test,1562947544839531008,9,"    9   161    0    10 -- |    0     0   10    56 --"
test,1562947546857721088,9,"    9   162    0    10 -- |    0     0   10    56 --"
test,1562947548836070912,9,"    9   163    0    10 -- |    0     0   10    56 --"
test,1562947550843813888,9,"    9   164    0    10 -- |    0     0   10    56 --"
test,1562947552832026112,9,"    9   165    0    10 -- |    0     0   10    56 --"
test,1562947554841605888,9,"    9   166    0    10 -- |    0     0   10    56 --"
test,1562947556852401920,9,"    9   167    0    10 -- |    0     0   10    56 --"
test,1562947558834909952,9,"    9   168    0    10 -- |    0     0   10    56 --"
test,1562947560841784832,9,"    9   169    0    10 -- |    0     0   10    56 --"
test,1562947562830934016,9,"    9   170    0    10 -- |    0     0   10    56 --"
test,1562947564839415040,9,"    9   171    0    10 -- |    0     0   10    56 --"
test,1562947568835428864,9,"    9   173    0    10 -- |    0     0   10    56 --"
test,1562947570842364160,9,"    9   174    0    10 -- |    0     0   10    56 --"
test,1562947572847443968,9,"    9   175    0    10 -- |    0     0   10    56 --"
test,1562947574836796928,9,"    9   176    0    10 -- |    0     0   10    56 --"
test,1562947576884711936,9,"    9   177    0    10 -- |    0     0   10    56 --"
test,1562947578833321984,9,"    9   178    0    10 -- |    0     0   10    56 --"
test,1562947580840337920,9,"    9   179    0    10 -- |    0     0   10    56 --"
test,1562947582846992128,9,"    9   180    0    10 -- |    0     0   10    56 --"
test,1562947584835817984,9,"    9   181    0    10 -- |    0     0   10    56 --"
test,1562947588832723968,9,"    9   183    0    10 -- |    0     0   10    56 --"
test,1562947590839068928,9,"    9   184    0    10 -- |    0     0   10    56 --"
test,1562947592845266944,9,"    9   185    0    10 -- |    0     0   10    56 --"
test,1562947594835360000,9,"    9   186    0    10 -- |    0     0   10    56 --"
test,1562947596845846016,9,"    9   187    0    10 -- |    0     0   10    56 --"
test,1562947598831401984,9,"    9   188    0    10 -- |    0     0   10    56 --"
test,1562947600840464128,9,"    9   189    0    10 -- |    0     0   10    56 --"
test,1562947602851511040,9,"    9   190    0    10 -- |    0     0   10    56 --"
test,1562947604833796864,9,"    9   191    0    10 -- |    0     0   10    56 --"
test,1562947606840655104,9,"    9   192    0    10 -- |    0     0   10    56 --"
test,1562947608830121984,9,"    9   193    0    10 -- |    0     0   10    56 --"
test,1562947610837647872,9,"    9   194    0    10 -- |    0     0   10    56 --"
test,1562947612846214912,9,"    9   195    0    10 -- |    0     0   10    56 --"
test,1562947614832532992,9,"    9   196    0    10 -- |    0     0   10    56 --"
test,1562947616839104768,9,"    9   197    0    10 -- |    0     0   10    56 --"
test,1562947618829116160,9,"    9   198    0    10 -- |    0     0   10    56 --"
test,1562947620835536128,9,"    9   199    0    10 -- |    0     0   10    56 --"
test,1562947622843720960,9,"    9   200    0    10 -- |    0     0   10    56 --"
test,1562947624832420096,9,"    9   201    0    10 -- |    0     0   10    56 --"
test,1562947626839702016,9,"    9   202    0    10 -- |    0     0   10    56 --"
test,1562947628846728192,9,"    9   203    0    10 -- |    0     0   10    56 --"
test,1562947630834958080,9,"    9   204    0    10 -- |    0     0   10    56 --"
test,1562947632853362944,9,"    9   205    0    10 -- |    0     0   10    56 --"
test,1562947634830696192,9,"    9   206    0    10 -- |    0     0   10    56 --"
test,1562947636838800896,9,"    9   207    0    10 -- |    0     0   10    56 --"
test,1562947638846052864,9,"    9   208    0    10 -- |    0     0   10    56 --"
test,1562947640836783872,9,"    9   209    0    10 -- |    0     0   10    56 --"
test,1562947642840653056,9,"    9   210    0    10 -- |    0     0   10    56 --"
test,1562947644830194944,9,"    9   211    0    10 -- |    0     0   10    56 --"
test,1562947646837850112,9,"    9   212    0    10 -- |    0     0   10    56 --"
test,1562947648845118976,9,"    9   213    0    10 -- |    0     0   10    56 --"
test,1562947650832850944,9,"    9   214    0    10 -- |    0     0   10    56 --"
test,1562947652840340992,9,"    9   215    0    10 -- |    0     0   10    56 --"
test,1562947654828978944,9,"    9   216    0    10 -- |    0     0   10    56 --"
test,1562947656839526912,9,"    9   217    0    10 -- |    0     0   10    56 --"
test,1562947658849922816,9,"    9   218    0    10 -- |    0     0   10    56 --"
test,1562947660831766016,9,"    9   219    0    10 -- |    0     0   10    56 --"
test,1562947662839937024,9,"    9   220    0    10 -- |    0     0   10    56 --"
test,1562947664828005120,9,"    9   221    0    10 -- |    0     0   10    56 --"
test,1562947666834334976,9,"    9   222    0    10 -- |    0     0   10    56 --"
test,1562947668841736192,9,"    9   223    0    10 -- |    0     0   10    56 --"
test,1562947670830753024,9,"    9   224    0    10 -- |    0     0   10    56 --"
test,1562947672838181888,9,"    9   225    0    10 -- |    0     0   10    56 --"
test,1562947674827006976,9,"    9   226    0    10 -- |    0     0   10    56 --"
test,1562947676833575936,9,"    9   227    0    10 -- |    0     0   10    56 --"
test,1562947678840656896,9,"    9   228    0    10 -- |    0     0   10    56 --"
test,1562947680829863936,9,"    9   229    0    10 -- |    0     0   10    56 --"
test,1562947682836817920,9,"    9   230    0    10 -- |    0     0   10    56 --"
test,1562947684843352064,9,"    9   231    0    10 -- |    0     0   10    56 --"
test,1562947686832300032,9,"    9   232    0    10 -- |    0     0   10    56 --"
test,1562947688841304064,9,"    9   233    0    10 -- |    0     0   10    56 --"
test,1562947690828659968,9,"    9   234    0    10 -- |    0     0   10    56 --"
test,1562947692836546048,9,"    9   235    0    10 -- |    0     0   10    56 --"
test,1562947694845079040,9,"    9   236    0    10 -- |    0     0   10    56 --"
test,1562947696833713920,9,"    9   237    0    10 -- |    0     0   10    56 --"
test,1562947700828043008,9,"    9   239    0    10 -- |    0     0   10    56 --"
test,1562947702834803968,9,"    9   240    0    10 -- |    0     0   10    56 --"
test,1562947704848331008,9,"    9   241    0    10 -- |    0     0   10    56 --"
test,1562947706831404800,9,"    9   242    0    10 -- |    0     0   10    56 --"
test,1562947710827014912,9,"    9   244    0    10 -- |    0     0   10    56 --"
test,1562947712834716160,9,"    9   245    0    10 -- |    0     0   10    56 --"
test,1562947714839245056,9,"    9   246    0    10 -- |    0     0   10    56 --"
test,1562947716830151936,9,"    9   247    0    10 -- |    0     0   10    56 --"
test,1562947718859003136,9,"    9   248    0    10 -- |    0     0   10    56 --"
test,1562947720826345984,9,"    9   249    0    10 -- |    0     0   10    56 --"
test,1562947722833074944,9,"    9   250    0    10 -- |    0     0   10    56 --"
test,1562947724839376896,9,"    9   251    0    10 -- |    0     0   10    56 --"
test,1562947726829081088,9,"    9   252    0    10 -- |    0     0   10    56 --"
test,1562947730825339136,9,"    9   254    0    10 -- |    0     0   10    56 --"
test,1562947732831265024,9,"    9   255    0    10 -- |    0     0   10    56 --"
test,1562947734838789888,9,"    9   256    0    10 -- |    0     0   10    56 --"
test,1562947736828057088,9,"    9   257    0    10 -- |    0     0   10    56 --"
test,1562947738837698048,9,"    9   258    0    10 -- |    0     0   10    56 --"
test,1562947740842454784,9,"    9   259    0    10 -- |    0     0   10    56 --"
test,1562947742832293120,9,"    9   260    0    10 -- |    0     0   10    56 --"
test,1562947744838476800,9,"    9   261    0    10 -- |    0     0   10    56 --"
test,1562947746827056896,9,"    9   262    0    10 -- |    0     0   10    56 --"
test,1562947748833876992,9,"    9   263    0    10 -- |    0     0   10    56 --"
test,1562947750840601088,9,"    9   264    0    10 -- |    0     0   10    56 --"
test,1562947752832603904,9,"    9   265    0    10 -- |    0     0   10    56 --"
test,1562947754836486144,9,"    9   266    0    10 -- |    0     0   10    56 --"
test,1562947756825906944,9,"    9   267    0    10 -- |    0     0   10    56 --"
test,1562947758833657856,9,"    9   268    0    10 -- |    0     0   10    56 --"
test,1562947760839188992,9,"    9   269    0    10 -- |    0     0   10    56 --"
test,1562947762828839168,9,"    9   270    0    10 -- |    0     0   10    56 --"
test,1562947764835709184,9,"    9   271    0    10 -- |    0     0   10    56 --"
test,1562947766824896000,9,"    9   272    0    10 -- |    0     0   10    56 --"
test,1562947768832169984,9,"    9   273    0    10 -- |    0     0   10    56 --"
test,1562947770838945024,9,"    9   274    0    10 -- |    0     0   10    56 --"
test,1562947772827467008,9,"    9   275    0    10 -- |    0     0   10    56 --"
test,1562947774835374080,9,"    9   276    0    10 -- |    0     0   10    56 --"
test,1562947776823908096,9,"    9   277    0    10 -- |    0     0   10    56 --"
test,1562947778830491136,9,"    9   278    0    10 -- |    0     0   10    56 --"
test,1562947780845720064,9,"    9   279    0    10 -- |    0     0   10    56 --"
test,1562947782829340928,9,"    9   280    0    10 -- |    0     0   10    56 --"
test,1562947784842822144,9,"    9   281    0    10 -- |    0     0   10    56 --"
test,1562947786823100928,9,"    9   282    0    10 -- |    0     0   10    56 --"
test,1562947788832701952,9,"    9   283    0    10 -- |    0     0   10    56 --"
test,1562947790842482176,9,"    9   284    0    10 -- |    0     0   10    56 --"
test,1562947792825736960,9,"    9   285    0    10 -- |    0     0   10    56 --"
test,1562947794816008960,9,"    9   286    0    10 -- |    0     0    0     0     0 "
test,1562947796838576128,9,"    9   287    0    10 -- |    0     0   10    56 --"
test,1562947798828762112,9,"    9   288    0    10 -- |    0     0   10    56 --"
