name,time,nodeid,value
test,1562949047224293120,29,=8`vxB;Yz000a`0000a``|`   29    12    0    10 42767  |    0     0    0     0     0 
test,1562949048256028928,29,"   29    13    0    10 42767  |    0     0   10    65 41999 "
test,1562949051229903872,29,"   29    14    0    10 42767  |    0     0    0     0     0 "
test,1562949053215972864,29,"   29    15    0    10 42767  |    0     0    0     0     0 "
test,1562949054265750016,29,"   29    16    0    10 42767  |    0     0   10    65 41999 "
test,1562949056258338816,29,"   29    17    0    10 42767  |    0     0   10    65 41999 "
test,1562949059225448960,29,"   29    18    0    10 42767  |    0     0    0     0     0 "
test,1562949060258435072,29,"   29    19    0    10 42767  |    0     0   10    65 41999 "
test,1562949062261516032,29,"   29    20    0    10 42767  |    0     0   10    65 41999 "
test,1562949064264849920,29,"   29    21    0    10 42767  |    0     0   10    65 41999 "
test,1562949067224132096,29,"   29    22    0    10 42767  |    0     0    0     0     0 "
test,1562949069224473088,29,"   29    23    0    10 42767  |    0     0    0     0     0 "
test,1562949070257911040,29,"   29    24    0    10 42767  |    0     0   10    65 41999 "
test,1562949073214685952,29,"   29    25    0    10 42767  |    0     0    0     0     0 "
test,1562949074263962880,29,"   29    26    0    10 42767  |    0     0   10    65 41999 "
test,1562949076258562048,29,"   29    27    0    10 42767  |    0     0   10    65 41999 "
test,1562949078254363904,29,"   29    28    0    10 42767  |    0     0   10    65 41999 "
test,1562949081226970880,29,"   29    29    0    10 42767  |    0     0    0     0     0 "
test,1562949082260300032,29,"   29    30    0    10 42767  |    0     0   10    65 41999 "
test,1562949084263219200,29,"   29    31    0    10 42767  |    0     0   10    65 41999 "
test,1562949086272154112,29,"   29    32    0    10 42767  |    0     0   10    65 41999 "
test,1562949088253490944,29,"   29    33    0    10 42767  |    0     0   10    65 41999 "
test,1562949091226903808,29,"   29    34    0    10 42767  |    0     0    0     0     0 "
test,1562949093213463040,29,"   29    35    0    10 42767  |    0     0    0     0     0 "
test,1562949094262584832,29,"   29    36    0    10 42767  |    0     0   10    65 41999 "
test,1562949097220019200,29,"   29    37    0    10 42767  |    0     0    0     0     0 "
test,1562949098253174016,29,"   29    38    0    10 42767  |    0     0   10    65 41999 "
test,1562949100255876096,29,"   29    39    0    10 42767  |    0     0   10    65 41999 "
test,1562949103212847872,29,"   29    40    0    10 42767  |    0     0    0     0     0 "
test,1562949105215897088,29,"   29    41    0    10 42767  |    0     0    0     0     0 "
test,1562949107219599872,29,"   29    42    0    10 42767  |    0     0    0     0     0 "
test,1562949108252473088,29,"   29    43    0    10 42767  |    0     0   10    65 41999 "
test,1562949111225039104,29,"   29    44    0    10 42767  |    0     0    0     0     0 "
test,1562949112258403072,29,"   29    45    0    10 42767  |    0     0   10    65 41999 "
test,1562949114261485056,29,"   29    46    0    10 42767  |    0     0   10    65 41999 "
test,1562949116273016832,29,"   29    47    0    10 42767  |    0     0   10    65 41999 "
test,1562949119222494976,29,"   29    48    0    10 42767  |    0     0    0     0     0 "
test,1562949120254887168,29,"   29    49    0    10 42767  |    0     0   10    65 41999 "
test,1562949122257884928,29,"   29    50    0    10 42767  |    0     0   10    65 41999 "
test,1562949125214809856,29,"   29    51    0    10 42767  |    0     0    0     0     0 "
test,1562949126265675008,29,"   29    52    0    10 42767  |    0     0   10    65 41999 "
test,1562949128251173888,29,"   29    53    0    10 42767  |    0     0   10    65 41999 "
test,1562949130254668032,29,"   29    54    0    10 42767  |    0     0   10    65 41999 "
test,1562949132257249024,29,"   29    55    0    10 42767  |    0     0   10    65 41999 "
test,1562949135214089984,29,"   29    56    0    10 42767  |    0     0    0     0     0 "
test,1562949136249892096,29,"   29    57    0    10 42767  |    0     0   10    65 41999 "
test,1562949138266181120,29,"   29    58    0    10 42767  |    0     0   10    65 41999 "
test,1562949140253937920,29,"   29    59    0    10 42767  |    0     0   10    65 41999 "
test,1562949142256710912,29,"   29    60    0    10 42767  |    0     0   10    65 41999 "
test,1562949144259598848,29,"   29    61    0    10 42767  |    0     0   10    65 41999 "
test,1562949147221838080,29,"   29    62    0    10 42767  |    0     0    0     0     0 "
test,1562949148249815040,29,"   29    63    0    10 42767  |    0     0   10    65 41999 "
test,1562949150253783040,29,"   29    64    0    10 42767  |    0     0   10    65 41999 "
test,1562949152256200192,29,"   29    65    0    10 42767  |    0     0   10    65 41999 "
test,1562949154258959104,29,"   29    66    0    10 42767  |    0     0   10    65 41999 "
test,1562949157219206144,29,"   29    67    0    10 42767  |    0     0    0     0     0 "
test,1562949158249356032,29,"   29    68    0    10 42767  |    0     0   10    65 41999 "
test,1562949160252259072,29,"   29    69    0    10 42767  |    0     0   10    65 41999 "
test,1562949163225081088,29,"   29    70    0    10 42767  |    0     0    0     0     0 "
test,1562949165212280064,29,"   29    71    0    10 42767  |    0     0    0     0     0 "
test,1562949166261468928,29,"   29    72    0    10 42767  |    0     0   10    65 41999 "
test,1562949169218638848,29,"   29    73    0    10 42767  |    0     0    0     0     0 "
test,1562949171221618944,29,"   29    74    0    10 42767  |    0     0    0     0     0 "
test,1562949173224420096,29,"   29    75    0    10 42767  |    0     0    0     0     0 "
test,1562949174257786112,29,"   29    76    0    10 42767  |    0     0   10    65 41999 "
test,1562949176261086976,29,"   29    77    0    10 42767  |    0     0   10    65 41999 "
test,1562949179217835776,29,"   29    78    0    10 42767  |    0     0    0     0     0 "
test,1562949180251095040,29,"   29    79    0    10 42767  |    0     0   10    65 41999 "
test,1562949182254272000,29,"   29    80    0    10 42767  |    0     0   10    65 41999 "
test,1562949185211042048,29,"   29    81    0    10 42767  |    0     0    0     0     0 "
test,1562949186260521984,29,"   29    82    0    10 42767  |    0     0   10    65 41999 "
test,1562949188247411968,29,"   29    83    0    10 42767  |    0     0   10    65 41999 "
test,1562949190250385152,29,"   29    84    0    10 42767  |    0     0   10    65 41999 "
test,1562949192253479936,29,"   29    85    0    10 42767  |    0     0   10    65 41999 "
test,1562949195210417920,29,"   29    86    0    10 42767  |    0     0    0     0     0 "
test,1562949196259543040,29,"   29    87    0    10 42767  |    0     0   10    65 41999 "
test,1562949198246781952,29,"   29    88    0    10 42767  |    0     0   10    65 41999 "
test,1562949200249893888,29,"   29    89    0    10 42767  |    0     0   10    65 41999 "
test,1562949203222518016,29,"   29    90    0    10 42767  |    0     0    0     0     0 "
test,1562949205210660864,29,"   29    91    0    10 42767  |    0     0    0     0     0 "
test,1562949206258948096,29,"   29    92    0    10 42767  |    0     0   10    65 41999 "
test,1562949209216736000,29,"    0     0    0     0     0  |    0     0    0     0     0 "
test,1562949210249265920,29,"   29    94    0    10 42767  |    0     0   10    65 41999 "
test,1562949213222971904,29,"   29    95    0    10 42767  |    0     0    0     0     0 "
test,1562949215209389056,29,"   29    96    0    10 42767  |    0     0    0     0     0 "
test,1562949216258496000,29,"   29    97    0    10 42767  |    0     0   10    65 41999 "
test,1562949219215780096,29,"   29    98    0    10 42767  |    0     0    0     0     0 "
test,1562949221218590976,29,"   29    99    0    10 42767  |    0     0    0     0     0 "
test,1562949223221617920,29,"   29   100    0    10 42767  |    0     0    0     0     0 "
test,1562949224254898176,29,"   29   101    0    10 42767  |    0     0   10    65 41999 "
test,1562949226258054144,29,"   29   102    0    10 42767  |    0     0   10    65 41999 "
test,1562949228250149120,29,"   29   103    0    10 42767  |    0     0   10    65 41999 "
test,1562949230248142080,29,"   29   104    0    10 42767  |    0     0   10    65 41999 "
test,1562949232251360768,29,"   29   105    0    10 42767  |    0     0   10    65 41999 "
test,1562949234254360832,29,"   29   106    0    10 42767  |    0     0   10    65 41999 "
test,1562949236257267968,29,"   29   107    0    10 42767  |    0     0   10    65 41999 "
test,1562949238260354048,29,"   29   108    0    10 42767  |    0     0   10    65 41999 "
test,1562949240247400960,29,"   29   109    0    10 42767  |    0     0   10    65 41999 "
test,1562949243221081856,29,"   29   110    0    10 42767  |    0     0    0     0     0 "
test,1562949244221814016,29,"   29   111    0    10 42767  |    0     0    0     0     0 "
test,1562949246256596992,29,"   29   112    0    10 42767  |    0     0   10    65 41999 "
test,1562949249214108928,29,"   29   113    0    10 42767  |    0     0    0     0     0 "
test,1562949250246802944,29,"   29   114    0    10 42767  |    0     0   10    65 41999 "
test,1562949253219577088,29,"   29   115    0    10 42767  |    0     0    0     0     0 "
test,1562949255206856960,29,"   29   116    0    10 42767  |    0     0    0     0     0 "
test,1562949257210019072,29,"   29   117    0    10 42767  |    0     0    0     0     0 "
test,1562949258250437120,29,"   29   118    0    10 42767  |    0     0   10    65 41999 "
test,1562949260246294016,29,"   29   119    0    10 42767  |    0     0   10    65 41999 "
test,1562949262249277184,29,"   29   120    0    10 42767  |    0     0   10    65 41999 "
test,1562949264252407040,29,"   29   121    0    10 42767  |    0     0   10    65 41999 "
test,1562949266255459072,29,"   29   122    0    10 42767  |    0     0   10    65 41999 "
test,1562949269212894976,29,"   29   123    0    10 42767  |    0     0    0     0     0 "
test,1562949271215316992,29,"   29   124    0    10 42767  |    0     0    0     0     0 "
test,1562949272248668928,29,"   29   125    0    10 42767  |    0     0   10    65 41999 "
test,1562949274251673088,29,"   29   126    0    10 42767  |    0     0   10    65 41999 "
test,1562949276238856960,29,"   29   127    0    10 42767  |    0     0   10    65 41999 "
test,1562949278244335872,29,"   29   128    0    10 42767  |    0     0   10    65 41999 "
test,1562949281214909184,29,"   29   129    0    10 42767  |    0     0    0     0     0 "
test,1562949282248260864,29,"   29   130    0    10 42767  |    0     0   10    65 41999 "
test,1562949284251164928,29,"   29   131    0    10 42767  |    0     0   10    65 41999 "
test,1562949286254216960,29,"   29   132    0    10 42767  |    0     0   10    65 41999 "
test,1562949288261184000,29,"   29   133    0    10 42767  |    0     0   10    65 41999 "
test,1562949290244532224,29,"   29   134    0    10 42767  |    0     0   10    65 41999 "
test,1562949293217580032,29,"   29   135    0    10 42767  |    0     0    0     0     0 "
test,1562949294250590208,29,"   29   136    0    10 42767  |    0     0   10    65 41999 "
test,1562949296253704192,29,"   29   137    0    10 42767  |    0     0   10    65 41999 "
test,1562949298258567936,29,"   29   138    0    10 42767  |    0     0   10    65 41999 "
test,1562949300243724032,29,"   29   139    0    10 42767  |    0     0   10    65 41999 "
test,1562949302246795776,29,"   29   140    0    10 42767  |    0     0   10    65 41999 "
test,1562949304250082048,29,"   29   141    0    10 42767  |    0     0   10    65 41999 "
test,1562949307206854144,29,"   29   142    0    10 42767  |    0     0    0     0     0 "
test,1562949309211778048,29,"   29   143    0    10 42767  |    0     0    0     0     0 "
test,1562949310243584000,29,"   29   144    0    10 42767  |    0     0   10    65 41999 "
test,1562949313216001024,29,"   29   145    0    10 42767  |    0     0    0     0     0 "
test,1562949314249594880,29,"   29   146    0    10 42767  |    0     0   10    65 41999 "
test,1562949316252371200,29,"   29   147    0    10 42767  |    0     0   10    65 41999 "
test,1562949318239670016,29,"   29   148    0    10 42767  |    0     0   10    65 41999 "
test,1562949320243273984,29,"   29   149    0    10 42767  |    0     0   10    65 41999 "
test,1562949322246093056,29,"   29   150    0    10 42767  |    0     0   10    65 41999 "
test,1562949325202522112,29,"   29   151    0    10 42767  |    0     0    0     0     0 "
test,1562949327205715968,29,"   29   152    0    10 42767  |    0     0    0     0     0 "
test,1562949328238898944,29,"   29   153    0    10 42767  |    0     0   10    65 41999 "
test,1562949331215375872,29,"   29   154    0    10 42767  |    0     0    0     0     0 "
test,1562949332245229056,29,"   29   155    0    10 42767  |    0     0   10    65 41999 "
test,1562949334248583936,29,"   29   156    0    10 42767  |    0     0   10    65 41999 "
test,1562949336251169792,29,"   29   157    0    10 42767  |    0     0   10    65 41999 "
test,1562949338238356224,29,"   29   158    0    10 42767  |    0     0   10    65 41999 "
test,1562949340241537024,29,"   29   159    0    10 42767  |    0     0   10    65 41999 "
test,1562949342244496128,29,"   29   160    0    10 42767  |    0     0   10    65 41999 "
test,1562949344247844096,29,"   29   161    0    10 42767  |    0     0   10    65 41999 "
test,1562949346250582016,29,"   29   162    0    10 42767  |    0     0   10    65 41999 "
test,1562949349211500800,29,"   29   163    0    10 42767  |    0     0    0     0     0 "
test,1562949350240860928,29,"   29   164    0    10 42767  |    0     0   10    65 41999 "
test,1562949353214972928,29,"   29   165    0    10 42767  |    0     0    0     0     0 "
test,1562949355200726016,29,"   29   166    0    10 42767  |    0     0    0     0     0 "
test,1562949357203855104,29,"   29   167    0    10 42767  |    0     0    0     0     0 "
test,1562949358237212928,29,"   29   168    0    10 42767  |    0     0   10    65 41999 "
test,1562949361210340096,29,"   29   169    0    10 42767  |    0     0    0     0     0 "
test,1562949363214523904,29,"   29   170    0    10 42767  |    0     0    0     0     0 "
test,1562949364246514176,29,"   29   171    0    10 42767  |    0     0   10    65 41999 "
test,1562949367203234048,29,"   29   172    0    10 42767  |    0     0    0     0     0 "
test,1562949369206356992,29,"   29   173    0    10 42767  |    0     0    0     0     0 "
test,1562949371209609984,29,"   29   174    0    10 42767  |    0     0    0     0     0 "
test,1562949373212464128,29,"   29   175    0    10 42767  |    0     0    0     0     0 "
test,1562949375199595008,29,"   29   176    0    10 42767  |    0     0    0     0     0 "
test,1562949376248925952,29,"   29   177    0    10 42767  |    0     0   10    65 41999 "
test,1562949379205810944,29,"   29   178    0    10 42767  |    0     0    0     0     0 "
test,1562949381210061056,29,"   29   179    0    10 42767  |    0     0    0     0     0 "
test,1562949382242109952,29,"   29   180    0    10 42767  |    0     0   10    65 41999 "
test,1562949384245321984,29,"   29   181    0    10 42767  |    0     0   10    65 41999 "
test,1562949387202511104,29,"   29   182    0    10 42767  |    0     0    0     0     0 "
test,1562949391208657152,29,"   29   184    0    10 42767  |    0     0    0     0     0 "
test,1562949393211823104,29,"   29   185    0    10 42767  |    0     0    0     0     0 "
test,1562949395215166976,29,"   29   186    0    10 42767  |    0     0    0     0     0 "
test,1562949396248000000,29,"   29   187    0    10 42767  |    0     0   10    65 41999 "
test,1562949399205307904,29,"   29   188    0    10 42767  |    0     0    0     0     0 "
test,1562949400238419968,29,"   29   189    0    10 42767  |    0     0   10    65 41999 "
test,1562949402241035008,29,"   29   190    0    10 42767  |    0     0   10    65 41999 "
test,1562949404244142080,29,"   29   191    0    10 42767  |    0     0   10    65 41999 "
test,1562949407201456128,29,"   29   192    0    10 42767  |    0     0    0     0     0 "
test,1562949409204189952,29,"   29   193    0    10 42767  |    0     0    0     0     0 "
test,1562949411207226880,29,"   29   194    0    10 42767  |    0     0    0     0     0 "
test,1562949412240487936,29,"   29   195    0    10 42767  |    0     0   10    65 41999 "
test,1562949415214268928,29,"   29   196    0    10 42767  |    0     0    0     0     0 "
test,1562949417200480000,29,"   29   197    0    10 42767  |    0     0    0     0     0 "
test,1562949419204814848,29,"   29   198    0    10 42767  |    0     0    0     0     0 "
test,1562949421207433984,29,"   29   199    0    10 42767  |    0     0    0     0     0 "
test,1562949423209733120,29,"   29   200    0    10 42767  |    0     0    0     0     0 "
test,1562949425213360128,29,"   29   201    0    10 42767  |    0     0    0     0     0 "
test,1562949427200217088,29,"   29   202    0    10 42767  |    0     0    0     0     0 "
test,1562949429203904000,29,"   29   203    0    10 42767  |    0     0    0     0     0 "
test,1562949431206490880,29,"   29   204    0    10 42767  |    0     0    0     0     0 "
test,1562949432240029952,29,"   29   205    0    10 42767  |    0     0   10    65 41999 "
test,1562949434242417152,29,"   29   206    0    10 42767  |    0     0   10    65 41999 "
test,1562949437199414016,29,"   29   207    0    10 42767  |    0     0    0     0     0 "
test,1562949439202512896,29,"   29   208    0    10 42767  |    0     0    0     0     0 "
test,1562949443208807936,29,"   29   210    0    10 42767  |    0     0    0     0     0 "
test,1562949444241884928,29,"   29   211    0    10 42767  |    0     0   10    65 41999 "
test,1562949447198914048,29,"   29   212    0    10 42767  |    0     0    0     0     0 "
test,1562949448247979008,29,"   29   213    0    10 42767  |    0     0   10    65 41999 "
test,1562949451206372864,29,"   29   214    0    10 42767  |    0     0    0     0     0 "
test,1562949453208439040,29,"   29   215    0    10 42767  |    0     0    0     0     0 "
test,1562949454241825024,29,"   29   216    0    10 42767  |    0     0   10    65 41999 "
test,1562949456245774080,29,"   29   217    0    10 42767  |    0     0   10    65 41999 "
test,1562949458247649024,29,"   29   218    0    10 42767  |    0     0   10    65 41999 "
test,1562949460235951872,29,"   29   219    0    10 42767  |    0     0   10    65 41999 "
test,1562949462238088960,29,"   29   220    0    10 42767  |    0     0   10    65 41999 "
test,1562949465211169024,29,"   29   221    0    10 42767  |    0     0    0     0     0 "
test,1562949466243916032,29,"   29   222    0    10 42767  |    0     0   10    65 41999 "
test,1562949469201106944,29,"   29   223    0    10 42767  |    0     0    0     0     0 "
test,1562949470239856896,29,"   29   224    0    10 42767  |    0     0   10    65 41999 "
test,1562949472237083904,29,"   29   225    0    10 42767  |    0     0   10    65 41999 "
test,1562949474240286208,29,"   29   226    0    10 42767  |    0     0   10    65 41999 "
test,1562949476243120896,29,"   29   227    0    10 42767  |    0     0   10    65 41999 "
test,1562949478246362880,29,"   29   228    0    10 42767  |    0     0   10    65 41999 "
test,1562949482237214976,29,"   29   230    0    10 42767  |    0     0   10    65 41999 "
test,1562949485209619968,29,"   29   231    0    10 42767  |    0     0    0     0     0 "
test,1562949487196585984,29,"   29   232    0    10 42767  |    0     0    0     0     0 "
test,1562949488245839104,29,"   29   233    0    10 42767  |    0     0   10    65 41999 "
test,1562949490240660992,29,"   29   234    0    10 42767  |    0     0   10    65 41999 "
test,1562949493208000000,29,"   29   235    0    10 42767  |    0     0    0     0     0 "
test,1562949494239104000,29,"   29   236    0    10 42767  |    0     0   10    65 41999 "
test,1562949497195918080,29,"   29   237    0    10 42767  |    0     0    0     0     0 "
test,1562949499199055872,29,"   29   238    0    10 42767  |    0     0    0     0     0 "
test,1562949500232372992,29,"   29   239    0    10 42767  |    0     0   10    65 41999 "
test,1562949502235627776,29,"   29   240    0    10 42767  |    0     0   10    65 41999 "
test,1562949504238935040,29,"   29   241    0    10 42767  |    0     0   10    65 41999 "
test,1562949506241591808,29,"   29   242    0    10 42767  |    0     0   10    65 41999 "
test,1562949509198454016,29,"   29   243    0    10 42767  |    0     0    0     0     0 "
test,1562949510252978944,29,"   29   244    0    10 42767  |    0     0   10    65 41999 "
test,1562949513204814080,29,"   29   245    0    10 42767  |    0     0    0     0     0 "
test,1562949514238127872,29,"   29   246    0    10 42767  |    0     0   10    65 41999 "
test,1562949516241036032,29,"   29   247    0    10 42767  |    0     0   10    65 41999 "
test,1562949518244196864,29,"   29   248    0    10 42767  |    0     0   10    65 41999 "
test,1562949521202675968,29,"   29   249    0    10 42767  |    0     0    0     0     0 "
test,1562949522234736896,29,"   29   250    0    10 42767  |    0     0   10    65 41999 "
test,1562949525207273984,29,"   29   251    0    10 42767  |    0     0    0     0     0 "
test,1562949527194855936,29,"   29   252    0    10 42767  |    0     0    0     0     0 "
test,1562949529198245120,29,"   29   253    0    10 42767  |    0     0    0     0     0 "
test,1562949530246562048,29,"   29   254    0    10 42767  |    0     0   10    65 41999 "
test,1562949533204111104,29,"   29   255    0    10 42767  |    0     0    0     0     0 "
test,1562949534236877056,29,"   29   256    0    10 42767  |    0     0   10    65 41999 "
test,1562949536240039168,29,"   29   257    0    10 42767  |    0     0   10    65 41999 "
test,1562949539197071104,29,"   29   258    0    10 42767  |    0     0    0     0     0 "
test,1562949540246092032,29,"   29   259    0    10 42767  |    0     0   10    65 41999 "
test,1562949542233284096,29,"   29   260    0    10 42767  |    0     0   10    65 41999 "
test,1562949545206414848,29,"   29   261    0    10 42767  |    0     0    0     0     0 "
test,1562949546239331072,29,"   29   262    0    10 42767  |    0     0   10    65 41999 "
test,1562949549196294144,29,"   29   263    0    10 42767  |    0     0    0     0     0 "
test,1562949551199345152,29,"   29   264    0    10 42767  |    0     0    0     0     0 "
test,1562949553202701056,29,"   29   265    0    10 42767  |    0     0    0     0     0 "
test,1562949554203968000,29,"   29   266    0    10 42767  |    0     0    0     0     0 "
test,1562949557192705024,29,"   29   267    0    10 42767  |    0     0    0     0     0 "
test,1562949559196257024,29,"   29   268    0    10 42767  |    0     0    0     0     0 "
test,1562949561198950144,29,"   29   269    0    10 42767  |    0     0    0     0     0 "
test,1562949563202368000,29,"   29   270    0    10 42767  |    0     0    0     0     0 "
test,1562949564235244032,29,"   29   271    0    10 42767  |    0     0   10    65 41999 "
test,1562949566238366976,29,"   29   272    0    10 42767  |    0     0   10    65 41999 "
test,1562949569195641088,29,"   29   273    0    10 42767  |    0     0    0     0     0 "
test,1562949570244657920,29,"   29   274    0    10 42767  |    0     0   10    65 41999 "
test,1562949573201498112,29,"   29   275    0    10 42767  |    0     0    0     0     0 "
test,1562949575207184128,29,"   29   276    0    10 42767  |    0     0    0     0     0 "
test,1562949577191559168,29,"   29   277    0    10 42767  |    0     0    0     0     0 "
test,1562949579194972160,29,"   29   278    0    10 42767  |    0     0    0     0     0 "
test,1562949580243869952,29,"   29   279    0    10 42767  |    0     0   10    65 41999 "
test,1562949583201427968,29,"   29   280    0    10 42767  |    0     0    0     0     0 "
test,1562949585205224960,29,"   29   281    0    10 42767  |    0     0    0     0     0 "
test,1562949587190987008,29,"   29   282    0    10 42767  |    0     0    0     0     0 "
test,1562949589194694912,29,"   29   283    0    10 42767  |    0     0    0     0     0 "
test,1562949590227747840,29,"   29   284    0    10 42767  |    0     0   10    65 41999 "
test,1562949593200689152,29,"   29   285    0    10 42767  |    0     0    0     0     0 "
test,1562949594233630976,29,"   29   286    0    10 42767  |    0     0   10    65 41999 "
test,1562949597190464000,29,"   29   287    0    10 42767  |    0     0    0     0     0 "
test,1562949599193480960,29,"   29   288    0    10 42767  |    0     0    0     0     0 "
