name,time,nodeid,value
test,1562946001750032896,40,"   40   288    0    10 42767  |    0     0    9    30 41231 "
test,1562946043671521024,40,=8`vxB;Yz000c00000`0c00000c000   40     6    0    10 -- |    0     0   10    35 --
test,1562946045674102016,40,"   40     7    0    10 -- |    0     0   10    35 --"
test,1562946047659478784,40,"   40     8    0    10 -- |    0     0   10    35 --"
test,1562946049661485824,40,"   40     9    0    10 -- |    0     0   10    35 --"
test,1562946051664943872,40,"   40    10    0     9 -- |    0     0   10    35 --"
test,1562946053671990016,40,"   40    11    0    10 -- |    0     0   10    35 --"
test,1562946055654080000,40,"   40    12    0     9 -- |    0     0   10    35 --"
test,1562946057660100864,40,"   40    13    0    10 -- |    0     0   10    35 --"
test,1562946059660201984,40,"   40    14    0    10 -- |    0     0   10    35 --"
test,1562946061663446784,40,"   40    15    0    10 -- |    0     0   10    35 --"
test,1562946063667566080,40,"   40    16    0     9 -- |    0     0   10    35 --"
test,1562946065670139136,40,"   40    17    0     9 -- |    0     0   10    35 --"
test,1562946067656503808,40,"   40    18    0    10 -- |    0     0   10    35 --"
test,1562946069659853824,40,"   40    19    0    10 -- |    0     0   10    35 --"
test,1562946072648154880,40,"   40    20    0    10 -- |    0     0    9    35 --"
test,1562946073666673920,40,"   40    21    0    10 -- |    0     0   10    35 --"
test,1562946075669626880,40,"   40    22    0    10 -- |    0     0   10    35 --"
test,1562946077655709952,40,"   40    23    0    10 -- |    0     0   10    35 --"
test,1562946079658982144,40,"   40    24    0    10 -- |    0     0   10    35 --"
test,1562946081663656960,40,"   40    25    0    10 -- |    0     0   10    35 --"
test,1562946083669559040,40,"   40    26    0    10 -- |    0     0   10    35 --"
test,1562946085671885056,40,"   40    27    0    10 -- |    0     0   10    35 --"
test,1562946087654413824,40,"   40    28    0    10 -- |    0     0   10    35 --"
test,1562946089657974016,40,"   40    29    0    10 -- |    0     0   10    35 --"
test,1562946091663198976,40,"   40    30    0    10 -- |    0     0   10    35 --"
test,1562946093664985856,40,"   40    31    0    10 -- |    0     0   10    35 --"
test,1562946095673180160,40,"   40    32    0    10 -- |    0     0   10    35 --"
test,1562946097653351168,40,"   40    33    0    10 -- |    0     0   10    35 --"
test,1562946099656819200,40,"   40    34    0    10 -- |    0     0   10    35 --"
test,1562946101659709952,40,"   40    35    0    10 -- |    0     0   10    35 --"
test,1562946105665497088,40,"   40    37    0    10 -- |    0     0   10    35 --"
test,1562946107669763072,40,"   40    38    0     9 -- |    0     0   10    35 --"
test,1562946109655617024,40,"   40    39    0    10 -- |    0     0   10    35 --"
test,1562946111660540160,40,"   40    40    0    10 -- |    0     0   10    35 --"
test,1562946115667979008,40,"   40    42    0    10 -- |    0     0   10    35 --"
test,1562946117672239104,40,"   40    43    0    10 -- |    0     0   10    30 --"
test,1562946119654859008,40,"   40    44    0    10 -- |    0     0   10    35 --"
test,1562946121661690880,40,"   40    45    0    10 -- |    0     0   10    35 --"
test,1562946123687741952,40,"   40    46    0    10 -- |    0     0   10    35 --"
test,1562946125664883968,40,"   40    47    0     9 -- |    0     0   10    35 --"
test,1562946127672709888,40,"   40    48    0     7 -- |    0     0   10    35 --"
test,1562946129653817856,40,"   40    49    0    10 -- |    0     0   10    35 --"
test,1562946132642329856,40,"   40    50    0    10 -- |    0     0    9    35 --"
test,1562946133661214208,40,"   40    51    0    10 -- |    0     0   10    35 --"
test,1562946135664024064,40,"   40    52    0    10 -- |    0     0   10    35 --"
test,1562946137671403776,40,"   40    53    0    10 -- |    0     0   10    35 --"
test,1562946139653054976,40,"   40    54    0     9 -- |    0     0   10    35 --"
test,1562946141656966912,40,"   40    55    0    10 -- |    0     0   10    35 --"
test,1562946143659643904,40,"   40    56    0    10 -- |    0     0   10    35 --"
test,1562946145663902976,40,"   40    57    0    10 -- |    0     0   10    35 --"
test,1562946147667223040,40,"   40    58    0    10 -- |    0     0   10    35 --"
test,1562946149653072128,40,"   40    59    0     9 -- |    0     0   10    35 --"
test,1562946152640849152,40,"   40    60    0    10 -- |    0     0    8    35 --"
test,1562946153660890112,40,"   40    61    0    10 -- |    0     0   10    35 --"
test,1562946155666244864,40,"   40    62    0     9 -- |    0     0   10    35 --"
test,1562946158649708032,40,"   40    63    0    10 -- |    0     0    9    35 --"
test,1562946159668067840,40,"   40    64    0    10 -- |    0     0   10    35 --"
test,1562946161654413824,40,"   40    65    0    10 -- |    0     0   10    35 --"
test,1562946163658742016,40,"   40    66    0    10 -- |    0     0   10    35 --"
test,1562946165661072128,40,"   40    67    0    10 -- |    0     0   10    35 --"
test,1562946168648876800,40,"   40    68    0    10 -- |    0     0    9    35 --"
test,1562946169670438144,40,"   40    69    0    10 -- |    0     0   10    35 --"
test,1562946171655601152,40,"   40    70    0    10 -- |    0     0   10    35 --"
test,1562946173656698112,40,"   40    71    0    10 -- |    0     0   10    35 --"
test,1562946175662731776,40,"   40    72    0    10 -- |    0     0   10    35 --"
test,1562946177665883136,40,"   40    73    0    10 -- |    0     0   10    35 --"
test,1562946179649549056,40,"   40    74    0    10 -- |    0     0   10    35 --"
test,1562946181654257152,40,"   40    75    0    10 -- |    0     0   10    35 --"
test,1562946184641440000,40,"   40    76    0    10 -- |    0     0    9    35 --"
test,1562946185662477056,40,"   40    77    0    10 -- |    0     0   10    35 --"
test,1562946187669388032,40,"   40    78    0     9 -- |    0     0   10    35 --"
test,1562946189665807104,40,"   40    79    0    10 -- |    0     0   10    35 --"
test,1562946191652142080,40,"   40    80    0    10 -- |    0     0   10    35 --"
test,1562946193654769920,40,"   40    81    0     9 -- |    0     0   10    35 --"
test,1562946195659537152,40,"   40    82    0    10 -- |    0     0   10    35 --"
test,1562946198646364928,40,"   40    83    0    10 -- |    0     0    9    35 --"
test,1562946199672544000,40,"   40    84    0    10 -- |    0     0   10    35 --"
test,1562946201650820864,40,"   40    85    0    10 -- |    0     0   10    35 --"
test,1562946203654007808,40,"   40    86    0    10 -- |    0     0   10    35 --"
test,1562946205657046016,40,"   40    87    0     9 -- |    0     0   10    35 --"
test,1562946207661124864,40,"   40    88    0    10 -- |    0     0   10    35 --"
test,1562946210648406016,40,"   40    89    0    10 -- |    0     0    9    35 --"
test,1562946211650892032,40,"   40    90    0    10 -- |    0     0   10    35 --"
test,1562946213652950016,40,"   40    91    0     9 -- |    0     0   10    35 --"
test,1562946215659826944,40,"   40    92    0     9 -- |    0     0   10    35 --"
test,1562946217659868928,40,"    0     0    0     0     0  |    0     0   10    35 --"
test,1562946219662112000,40,"   40    94    0    10 -- |    0     0   10    35 --"
test,1562946221665935104,40,"   40    95    0    10 -- |    0     0   10    35 --"
test,1562946223652886016,40,"   40    96    0    10 -- |    0     0   10    35 --"
test,1562946226640860160,40,"   40    97    0    10 -- |    0     0    8    35 --"
test,1562946227659485184,40,"   40    98    0    10 -- |    0     0   10    35 --"
test,1562946229663110912,40,"   40    99    0    10 -- |    0     0   10    35 --"
test,1562946231648216064,40,"   40   100    0    10 -- |    0     0   10    35 --"
test,1562946233651278848,40,"   40   101    0    10 -- |    0     0   10    35 --"
test,1562946235656969984,40,"   40   102    0    10 -- |    0     0   10    35 --"
test,1562946237662905856,40,"   40   103    0    10 -- |    0     0   10    35 --"
test,1562946239663965952,40,"   40   104    0    10 -- |    0     0   10    35 --"
test,1562946241668581120,40,"   40   105    0    10 -- |    0     0   10    35 --"
test,1562946243650644992,40,"   40   106    0    10 -- |    0     0   10    35 --"
test,1562946245658589952,40,"   40   107    0    10 -- |    0     0   10    35 --"
test,1562946247656382208,40,"   40   108    0     7 -- |    0     0   10    35 --"
test,1562946250644969984,40,"   40   109    0     9 -- |    0     0    9    35 --"
test,1562946251667538944,40,"   40   110    0     1 -- |    0     0   10    35 --"
test,1562946253650274048,40,"   40   111    0    10 -- |    0     0   10    35 --"
test,1562946255657680896,40,"   40   112    0    10 -- |    0     0   10    35 --"
test,1562946257661143040,40,"   40   113    0    10 -- |    0     0   10    35 --"
test,1562946259665339904,40,"   40   114    0     9 -- |    0     0   10    35 --"
test,1562946261662881024,40,"   40   115    0    10 -- |    0     0   10    35 --"
test,1562946264634257152,40,"   40   116    0    10 -- |    0     0    9    35 --"
test,1562946267659273984,40,"   40   118    0    10 -- |    0     0   10    35 --"
test,1562946269658451968,40,"   40   119    0    10 -- |    0     0   10    35 --"
test,1562946271661241088,40,"   40   120    0    10 -- |    0     0   10    35 --"
test,1562946273647648000,40,"   40   121    0     9 -- |    0     0   10    35 --"
test,1562946275679104000,40,"   40   122    0    10 -- |    0     0   10    35 --"
test,1562946277656250112,40,"   40   123    0    10 -- |    0     0   10    35 --"
test,1562946279664084992,40,"   40   124    0     9 -- |    0     0   10    35 --"
test,1562946281667076096,40,"   40   125    0    10 -- |    0     0   10    35 --"
test,1562946283648126976,40,"   40   126    0    10 -- |    0     0   10    35 --"
test,1562946285649971968,40,"   40   127    0    10 -- |    0     0   10    35 --"
test,1562946287654086144,40,"   40   128    0     9 -- |    0     0   10    35 --"
test,1562946289659622912,40,"   40   129    0    10 -- |    0     0   10    35 --"
test,1562946291659678976,40,"   40   130    0    10 -- |    0     0   10    35 --"
test,1562946293646477824,40,"   40   131    0    10 -- |    0     0   10    35 --"
test,1562946295649136896,40,"   40   132    0    10 -- |    0     0   10    35 --"
test,1562946297653387008,40,"   40   133    0    10 -- |    0     0   10    30 --"
test,1562946299656593920,40,"   40   134    0    10 -- |    0     0   10    35 --"
test,1562946301659548928,40,"   40   135    0    10 -- |    0     0   10    35 --"
test,1562946303665852160,40,"   40   136    0    10 -- |    0     0   10    35 --"
test,1562946305648374016,40,"   40   137    0    10 -- |    0     0   10    35 --"
test,1562946307652347136,40,"   40   138    0    10 -- |    0     0   10    35 --"
test,1562946309655806976,40,"   40   139    0    10 -- |    0     0   10    35 --"
test,1562946311662153984,40,"   40   140    0    10 -- |    0     0   10    35 --"
test,1562946313663960064,40,"   40   141    0    10 -- |    0     0   10    35 --"
test,1562946316633172992,40,"   40   142    0    10 -- |    0     0    9    35 --"
test,1562946317651465984,40,"   40   143    0    10 -- |    0     0   10    35 --"
test,1562946319654377984,40,"   40   144    0     9 -- |    0     0   10    35 --"
test,1562946321659920896,40,"   40   145    0    10 -- |    0     0   10    35 --"
test,1562946323661678080,40,"   40   146    0    10 -- |    0     0   10    35 --"
test,1562946325646574848,40,"   40   147    0    10 -- |    0     0   10    35 --"
test,1562946327649825024,40,"   40   148    0    10 -- |    0     0   10    35 --"
test,1562946329653212160,40,"   40   149    0    10 -- |    0     0   10    35 --"
test,1562946331656816896,40,"   40   150    0    10 -- |    0     0   10    35 --"
test,1562946333666651904,40,"   40   151    0    10 -- |    0     0   10    35 --"
test,1562946336631493120,40,"   40   152    0    10 -- |    0     0    9    35 --"
test,1562946337652276992,40,"   40   153    0     9 -- |    0     0   10    35 --"
test,1562946339654937856,40,"   40   154    0    10 -- |    0     0   10    35 --"
test,1562946342640249088,40,"   40   155    0    10 -- |    0     0    9    35 --"
test,1562946343660915968,40,"   40   156    0    10 -- |    0     0   10    35 --"
test,1562946345644855040,40,"   40   157    0     9 -- |    0     0   10    35 --"
test,1562946347648945920,40,"   40   158    0    10 -- |    0     0   10    35 --"
test,1562946349653089024,40,"   40   159    0    10 -- |    0     0   10    35 --"
test,1562946351654788096,40,"   40   160    0    10 -- |    0     0   10    35 --"
test,1562946353660568832,40,"   40   161    0    10 -- |    0     0   10    35 --"
test,1562946356629885952,40,"   40   162    0    10 -- |    0     0    8    35 --"
test,1562946357647421952,40,"   40   163    0    10 -- |    0     0   10    35 --"
test,1562946359651791104,40,"   40   164    0    10 -- |    0     0   10    35 --"
test,1562946361654379008,40,"   40   165    0     8 -- |    0     0   10    35 --"
test,1562946363657056000,40,"   40   166    0    10 -- |    0     0   10    35 --"
test,1562946365643120128,40,"   40   167    0    10 -- |    0     0   10    35 --"
test,1562946367646867968,40,"   40   168    0    10 -- |    0     0   10    35 --"
test,1562946370634710016,40,"   40   169    0    10 -- |    0     0    8    35 --"
test,1562946371653325056,40,"   40   170    0    10 -- |    0     0   10    35 --"
test,1562946373656677120,40,"   40   171    0    10 -- |    0     0   10    35 --"
test,1562946375661342976,40,"   40   172    0    10 -- |    0     0   10    35 --"
test,1562946377647686912,40,"   40   173    0    10 -- |    0     0   10    35 --"
test,1562946379648942848,40,"   40   174    0    10 -- |    0     0   10    35 --"
test,1562946381653336064,40,"   40   175    0     9 -- |    0     0   10    35 --"
test,1562946383655353088,40,"   40   176    0    10 -- |    0     0   10    35 --"
test,1562946385658801920,40,"   40   177    0    10 -- |    0     0   10    35 --"
test,1562946387644596992,40,"   40   178    0    10 -- |    0     0   10    35 --"
test,1562946389649347072,40,"   40   179    0    10 -- |    0     0   10    35 --"
test,1562946391652513024,40,"   40   180    0    10 -- |    0     0   10    35 --"
test,1562946393658326016,40,"   40   181    0    10 -- |    0     0   10    35 --"
test,1562946395660365056,40,"   40   182    0    10 -- |    0     0   10    35 --"
test,1562946397644175104,40,"   40   183    0    10 -- |    0     0   10    35 --"
test,1562946399647578112,40,"   40   184    0    10 -- |    0     0   10    35 --"
test,1562946401656104960,40,"   40   185    0     9 -- |    0     0   10    35 --"
test,1562946403655455232,40,"   40   186    0    10 -- |    0     0   10    35 --"
test,1562946405657381888,40,"   40   187    0    10 -- |    0     0   10    35 --"
test,1562946407669302016,40,"   40   188    0    10 -- |    0     0   10    35 --"
test,1562946409646147840,40,"   40   189    0    10 -- |    0     0   10    35 --"
test,1562946411649747968,40,"   40   190    0    10 -- |    0     0   10    35 --"
test,1562946414637350144,40,"   40   191    0    10 -- |    0     0    9    35 --"
test,1562946415659758080,40,"   40   192    0    10 -- |    0     0   10    35 --"
test,1562946417660947200,40,"   40   193    0    10 -- |    0     0   10    35 --"
test,1562946419645275136,40,"   40   194    0    10 -- |    0     0   10    35 --"
test,1562946421650896128,40,"   40   195    0    10 -- |    0     0   10    35 --"
test,1562946423655097088,40,"   40   196    0    10 -- |    0     0   10    35 --"
test,1562946425653815040,40,"   40   197    0    10 -- |    0     0   10    35 --"
test,1562946427641138944,40,"   40   198    0    10 -- |    0     0   10    35 --"
test,1562946429644623872,40,"   40   199    0    10 -- |    0     0   10    35 --"
test,1562946431647212032,40,"   40   200    0    10 -- |    0     0   10    35 --"
test,1562946433653872896,40,"   40   201    0    10 -- |    0     0   10    35 --"
test,1562946436639272960,40,"   40   202    0    10 -- |    0     0    9    35 --"
test,1562946437666063104,40,"   40   203    0    10 -- |    0     0   10    35 --"
test,1562946439643508992,40,"   40   204    0    10 -- |    0     0   10    35 --"
test,1562946441646609152,40,"   40   205    0    10 -- |    0     0   10    35 --"
test,1562946443650000128,40,"   40   206    0    10 -- |    0     0   10    35 --"
test,1562946445653650944,40,"   40   207    0    10 -- |    0     0   10    35 --"
test,1562946448640922112,40,"   40   208    0    10 -- |    0     0    9    35 --"
test,1562946449642563072,40,"   40   209    0    10 -- |    0     0   10    35 --"
test,1562946451645558016,40,"   40   210    0    10 -- |    0     0   10    35 --"
test,1562946453653254144,40,"   40   211    0    10 -- |    0     0   10    35 --"
test,1562946455652243968,40,"   40   212    0    10 -- |    0     0   10    35 --"
test,1562946457675427840,40,"   40   213    0    10 -- |    0     0   10    30 --"
test,1562946459641635840,40,"   40   214    0    10 -- |    0     0   10    35 --"
test,1562946461645044992,40,"   40   215    0    10 -- |    0     0   10    30 --"
test,1562946463648189184,40,"   40   216    0     8 -- |    0     0   10    35 --"
test,1562946465652605184,40,"   40   217    0    10 -- |    0     0   10    35 --"
test,1562946467677015040,40,"   40   218    0    10 -- |    0     0   10    35 --"
test,1562946469661183232,40,"   40   219    0    10 -- |    0     0   10    35 --"
test,1562946471643644928,40,"   40   220    0    10 -- |    0     0   10    35 --"
test,1562946473648896000,40,"   40   221    0    10 -- |    0     0   10    35 --"
test,1562946476635099904,40,"   40   222    0    10 -- |    0     0    8    35 --"
test,1562946479639990016,40,"   40   224    0    10 -- |    0     0   10    35 --"
test,1562946482628326912,40,"   40   225    0    10 -- |    0     0    8    35 --"
test,1562946483652275968,40,"   40   226    0    10 -- |    0     0   10    35 --"
test,1562946485649419008,40,"   40   227    0    10 -- |    0     0   10    35 --"
test,1562946489657007872,40,"   40   229    0    10 -- |    0     0   10    35 --"
test,1562946491641926912,40,"   40   230    0    10 -- |    0     0   10    35 --"
test,1562946493646359040,40,"   40   231    0    10 -- |    0     0   10    35 --"
test,1562946495649297920,40,"   40   232    0    10 -- |    0     0   10    35 --"
test,1562946497650896128,40,"   40   233    0    10 -- |    0     0   10    35 --"
test,1562946500623876096,40,"   40   234    0     8 -- |    0     0    8    35 --"
test,1562946501641248000,40,"   40   235    0    10 -- |    0     0   10    35 --"
test,1562946503643954944,40,"   40   236    0    10 -- |    0     0   10    35 --"
test,1562946505650124032,40,"   40   237    0    10 -- |    0     0   10    35 --"
test,1562946507652306176,40,"   40   238    0    10 -- |    0     0   10    35 --"
test,1562946509653691904,40,"   40   239    0    10 -- |    0     0   10    35 --"
test,1562946511640088064,40,"   40   240    0    10 -- |    0     0   10    35 --"
test,1562946513644619008,40,"   40   241    0    10 -- |    0     0   10    35 --"
test,1562946515648919040,40,"   40   242    0    10 -- |    0     0   10    35 --"
test,1562946517655335936,40,"   40   243    0    10 -- |    0     0   10    35 --"
test,1562946519655853056,40,"   40   244    0    10 -- |    0     0   10    35 --"
test,1562946522624833024,40,"   40   245    0     9 -- |    0     0    9    35 --"
test,1562946523642565888,40,"   40   246    0    10 -- |    0     0   10    35 --"
test,1562946525647115008,40,"   40   247    0    10 -- |    0     0   10    35 --"
test,1562946527648358144,40,"   40   248    0    10 -- |    0     0   10    35 --"
test,1562946529657347840,40,"   40   249    0    10 -- |    0     0   10    35 --"
test,1562946531638636032,40,"   40   250    0    10 -- |    0     0   10    35 --"
test,1562946533641827072,40,"   40   251    0    10 -- |    0     0   10    35 --"
test,1562946535653702144,40,"   40   252    0    10 -- |    0     0   10    35 --"
test,1562946537649224960,40,"   40   253    0    10 -- |    0     0   10    35 --"
test,1562946539651945216,40,"   40   254    0    10 -- |    0     0   10    35 --"
test,1562946541655307008,40,"   40   255    0    10 -- |    0     0   10    35 --"
test,1562946543641019136,40,"   40   256    0    10 -- |    0     0   10    35 --"
test,1562946545643951872,40,"   40   257    0    10 -- |    0     0   10    35 --"
test,1562946547651676928,40,"   40   258    0    10 -- |    0     0   10    35 --"
test,1562946549651188992,40,"   40   259    0    10 -- |    0     0   10    35 --"
test,1562946551660029952,40,"   40   260    0    10 -- |    0     0   10    35 --"
test,1562946553640299008,40,"   40   261    0    10 -- |    0     0   10    35 --"
test,1562946555643171072,40,"   40   262    0    10 -- |    0     0   10    35 --"
test,1562946557646880000,40,"   40   263    0    10 -- |    0     0   10    35 --"
test,1562946559649890816,40,"   40   264    0    10 -- |    0     0   10    35 --"
test,1562946561652740096,40,"   40   265    0    10 -- |    0     0   10    35 --"
test,1562946563640674048,40,"   40   266    0    10 -- |    0     0   10    35 --"
test,1562946565642728192,40,"   40   267    0    10 -- |    0     0   10    35 --"
test,1562946567645661184,40,"   40   268    0    10 -- |    0     0   10    35 --"
test,1562946569665977088,40,"   40   269    0    10 -- |    0     0   10    35 --"
test,1562946571653511168,40,"   40   270    0    10 -- |    0     0   10    35 --"
test,1562946573638003968,40,"   40   271    0    10 -- |    0     0   10    35 --"
test,1562946575641558016,40,"   40   272    0    10 -- |    0     0   10    35 --"
test,1562946578629574912,40,"   40   273    0    10 -- |    0     0    9    35 --"
test,1562946579675744000,40,"   40   274    0    10 -- |    0     0   10    35 --"
test,1562946581650896128,40,"   40   275    0    10 -- |    0     0   10    35 --"
test,1562946583637628160,40,"   40   276    0    10 -- |    0     0   10    35 --"
test,1562946585642178048,40,"   40   277    0     9 -- |    0     0   10    35 --"
test,1562946587643086080,40,"   40   278    0    10 -- |    0     0   10    35 --"
test,1562946592634712064,40,"   40   280    0    10 -- |    0     0    9    35 --"
test,1562946593636188928,40,"   40   281    0    10 -- |    0     0   10    35 --"
test,1562946595639524864,40,"   40   282    0     9 -- |    0     0   10    35 --"
test,1562946597643737088,40,"   40   283    0    10 -- |    0     0   10    35 --"
