name,time,nodeid,value
test,1562946000896760832,5,"    5   288    0    10 42767  |    0     0   10    35 41999 "
test,1562946002774818816,5,"    5   289    0    10 42767  |    0     0   10    35 41999 "
test,1562946043667917056,5,=8`vxG:q000c000000c000000c000    5     6    0    10 -- |    0     0   10    30 --
test,1562946045654552064,5,"    5     7    0    10 -- |    0     0   10    30 --"
test,1562946047661175040,5,"    5     8    0    10 -- |    0     0   10    30 --"
test,1562946049667602176,5,"    5     9    0    10 -- |    0     0   10    30 --"
test,1562946051654926080,5,"    5    10    0    10 -- |    0     0   10    30 --"
test,1562946053662902016,5,"    5    11    0    10 -- |    0     0   10    30 --"
test,1562946055677832960,5,"    5    12    0    10 -- |    0     0   10    30 --"
test,1562946057655553024,5,"    5    13    0    10 -- |    0     0   10    30 --"
test,1562946059663207936,5,"    5    14    0    10 -- |    0     0   10    30 --"
test,1562946061669586944,5,"    5    15    0    10 -- |    0     0   10    30 --"
test,1562946063656371200,5,"    5    16    0    10 -- |    0     0   10    30 --"
test,1562946065662755072,5,"    5    17    0    10 -- |    0     0   10    30 --"
test,1562946067669657856,5,"    5    18    0    10 -- |    0     0   10    30 --"
test,1562946069656934144,5,"    5    19    0    10 -- |    0     0   10    30 --"
test,1562946071664345088,5,"    5    20    0    10 -- |    0     0   10    30 --"
test,1562946073671277056,5,"    5    21    0    10 -- |    0     0   10    30 --"
test,1562946075657982976,5,"    5    22    0    10 -- |    0     0   10    30 --"
test,1562946077662957056,5,"    5    23    0    10 -- |    0     0   10    30 --"
test,1562946079669357056,5,"    5    24    0    10 -- |    0     0   10    30 --"
test,1562946081658808832,5,"    5    25    0    10 -- |    0     0   10    30 --"
test,1562946083666220800,5,"    5    26    0    10 -- |    0     0   10    30 --"
test,1562946085669785856,5,"    5    27    0    10 -- |    0     0   10    30 --"
test,1562946087658926080,5,"    5    28    0    10 -- |    0     0   10    30 --"
test,1562946089664350976,5,"    5    29    0    10 -- |    0     0   10    30 --"
test,1562946091669855232,5,"    5    30    0    10 -- |    0     0   10    30 --"
test,1562946093659230976,5,"    5    31    0    10 -- |    0     0   10    30 --"
test,1562946095665508096,5,"    5    32    0    10 -- |    0     0   10    30 --"
test,1562946097653979136,5,"    5    33    0    10 -- |    0     0   10    30 --"
test,1562946099659598080,5,"    5    34    0    10 -- |    0     0   10    30 --"
test,1562946101665980928,5,"    5    35    0    10 -- |    0     0   10    30 --"
test,1562946103655648000,5,"    5    36    0    10 -- |    0     0   10    30 --"
test,1562946105669473792,5,"    5    37    0    10 -- |    0     0   10    30 --"
test,1562946107666644224,5,"    5    38    0    10 -- |    0     0   10    30 --"
test,1562946109654836992,5,"    5    39    0    10 -- |    0     0   10    30 --"
test,1562946111667046912,5,"    5    40    0    10 -- |    0     0   10    30 --"
test,1562946115655934208,5,"    5    42    0    10 -- |    0     0   10    30 --"
test,1562946117661329920,5,"    5    43    0    10 -- |    0     0   10    30 --"
test,1562946119667877888,5,"    5    44    0    10 -- |    0     0   10    30 --"
test,1562946121657246976,5,"    5    45    0    10 -- |    0     0   10    30 --"
test,1562946123687154944,5,"    5    46    0    10 -- |    0     0   10    30 --"
test,1562946125671032832,5,"    5    47    0    10 -- |    0     0   10    30 --"
test,1562946127658009088,5,"    5    48    0    10 -- |    0     0   10    30 --"
test,1562946129666158848,5,"    5    49    0    10 -- |    0     0   10    30 --"
test,1562946131651639040,5,"    5    50    0    10 -- |    0     0   10    30 --"
test,1562946133657100032,5,"    5    51    0    10 -- |    0     0   10    30 --"
test,1562946135668622080,5,"    5    52    0    10 -- |    0     0   10    30 --"
test,1562946137652271104,5,"    5    53    0    10 -- |    0     0   10    30 --"
test,1562946139659631104,5,"    5    54    0    10 -- |    0     0   10    30 --"
test,1562946141664392960,5,"    5    55    0    10 -- |    0     0   10    30 --"
test,1562946143653556224,5,"    5    56    0    10 -- |    0     0   10    30 --"
test,1562946145659198976,5,"    5    57    0    10 -- |    0     0   10    30 --"
test,1562946147647707904,5,"    5    58    0    10 -- |    0     0    0     0     0 "
test,1562946149654536960,5,"    5    59    0    10 -- |    0     0   10    30 --"
test,1562946151659513088,5,"    5    60    0    10 -- |    0     0   10    30 --"
test,1562946153665769984,5,"    5    61    0    10 -- |    0     0   10    30 --"
test,1562946155653899008,5,"    5    62    0    10 -- |    0     0   10    30 --"
test,1562946157665360896,5,"    5    63    0    10 -- |    0     0   10    30 --"
test,1562946159670833152,5,"    5    64    0    10 -- |    0     0   10    30 --"
test,1562946161655504896,5,"    5    65    0    10 -- |    0     0   10    30 --"
test,1562946163660845056,5,"    5    66    0    10 -- |    0     0   10    30 --"
test,1562946165668467968,5,"    5    67    0    10 -- |    0     0   10    30 --"
test,1562946167656692992,5,"    5    68    0    10 -- |    0     0   10    30 --"
test,1562946169664748032,5,"    5    69    0    10 -- |    0     0   10    30 --"
test,1562946171650060800,5,"    5    70    0    10 -- |    0     0   10    30 --"
test,1562946173655522048,5,"    5    71    0    10 -- |    0     0   10    30 --"
test,1562946175670507008,5,"    5    72    0    10 -- |    0     0   10    30 --"
test,1562946177650938880,5,"    5    73    0    10 -- |    0     0   10    30 --"
test,1562946179658242048,5,"    5    74    0    10 -- |    0     0   10    30 --"
test,1562946181663995136,5,"    5    75    0    10 -- |    0     0   10    30 --"
test,1562946183651571968,5,"    5    76    0    10 -- |    0     0   10    30 --"
test,1562946185659662080,5,"    5    77    0    10 -- |    0     0   10    30 --"
test,1562946187663433984,5,"    5    78    0    10 -- |    0     0   10    30 --"
test,1562946189652019968,5,"    5    79    0    10 -- |    0     0   10    30 --"
test,1562946191657996032,5,"    5    80    0    10 -- |    0     0   10    30 --"
test,1562946193666866944,5,"    5    81    0    10 -- |    0     0   10    30 --"
test,1562946195653196032,5,"    5    82    0    10 -- |    0     0   10    30 --"
test,1562946197664943104,5,"    5    83    0    10 -- |    0     0   10    30 --"
test,1562946199669327872,5,"    5    84    0    10 -- |    0     0   10    30 --"
test,1562946201654145024,5,"    5    85    0    10 -- |    0     0   10    30 --"
test,1562946203659550976,5,"    5    86    0    10 -- |    0     0   10    30 --"
test,1562946205667377920,5,"    5    87    0    10 -- |    0     0   10    30 --"
test,1562946207654177792,5,"    5    88    0    10 -- |    0     0   10    30 --"
test,1562946209661969920,5,"    5    89    0    10 -- |    0     0   10    30 --"
test,1562946211648365056,5,"    5    90    0    10 -- |    0     0   10    30 --"
test,1562946213654210048,5,"    5    91    0    10 -- |    0     0   10    30 --"
test,1562946215659485184,5,"    5    92    0    10 -- |    0     0   10    30 --"
test,1562946217648937984,5,"    0     0    0     0     0  |    0     0   10    30 --"
test,1562946219654707968,5,"    5    94    0    10 -- |    0     0   10    30 --"
test,1562946221660965888,5,"    5    95    0    10 -- |    0     0   10    30 --"
test,1562946223649931008,5,"    5    96    0    10 -- |    0     0   10    30 --"
test,1562946225662072832,5,"    5    97    0    10 -- |    0     0   10    30 --"
test,1562946227661510912,5,"    5    98    0    10 -- |    0     0   10    30 --"
test,1562946229650240000,5,"    5    99    0    10 -- |    0     0   10    30 --"
test,1562946231657479168,5,"    5   100    0    10 -- |    0     0   10    30 --"
test,1562946233662336000,5,"    5   101    0    10 -- |    0     0   10    35 --"
test,1562946235657731072,5,"    5   102    0    10 -- |    0     0   10    30 --"
test,1562946237656701184,5,"    5   103    0    10 -- |    0     0   10    30 --"
test,1562946239662564096,5,"    5   104    0    10 -- |    0     0   10    30 --"
test,1562946241652856064,5,"    5   105    0    10 -- |    0     0   10    30 --"
test,1562946243657364992,5,"    5   106    0    10 -- |    0     0   10    30 --"
test,1562946245664689152,5,"    5   107    0    10 -- |    0     0   10    30 --"
test,1562946247651842048,5,"    5   108    0    10 -- |    0     0   10    30 --"
test,1562946249659714048,5,"    5   109    0    10 -- |    0     0   10    30 --"
test,1562946251665488128,5,"    5   110    0    10 -- |    0     0   10    30 --"
test,1562946253654130944,5,"    5   111    0    10 -- |    0     0   10    30 --"
test,1562946255666107904,5,"    5   112    0    10 -- |    0     0   10    30 --"
test,1562946257647352064,5,"    5   113    0    10 -- |    0     0   10    30 --"
test,1562946259653256960,5,"    5   114    0    10 -- |    0     0   10    30 --"
test,1562946261661238784,5,"    5   115    0    10 -- |    0     0   10    30 --"
test,1562946263647869952,5,"    5   116    0    10 -- |    0     0   10    30 --"
test,1562946265682932992,5,"    5   117    0    10 -- |    0     0   10    30 --"
test,1562946267661415936,5,"    5   118    0    10 -- |    0     0   10    30 --"
test,1562946269649249024,5,"    5   119    0    10 -- |    0     0   10    30 --"
test,1562946271655716864,5,"    5   120    0    10 -- |    0     0   10    30 --"
test,1562946273660861952,5,"    5   121    0    10 -- |    0     0   10    30 --"
test,1562946275648979968,5,"    5   122    0    10 -- |    0     0   10    30 --"
test,1562946277655525888,5,"    5   123    0    10 -- |    0     0   10    30 --"
test,1562946279661120000,5,"    5   124    0    10 -- |    0     0   10    30 --"
test,1562946281650572032,5,"    5   125    0    10 -- |    0     0   10    30 --"
test,1562946283657836800,5,"    5   126    0    10 -- |    0     0   10    30 --"
test,1562946285672606976,5,"    5   127    0    10 -- |    0     0   10    30 --"
test,1562946287650417920,5,"    5   128    0    10 -- |    0     0   10    30 --"
test,1562946289656709888,5,"    5   129    0    10 -- |    0     0   10    30 --"
test,1562946291664984064,5,"    5   130    0    10 -- |    0     0   10    30 --"
test,1562946293650983936,5,"    5   131    0    10 -- |    0     0   10    30 --"
test,1562946297645797888,5,"    5   133    0    10 -- |    0     0   10    30 --"
test,1562946299651287040,5,"    5   134    0    10 -- |    0     0   10    30 --"
test,1562946301659352064,5,"    5   135    0    10 -- |    0     0   10    30 --"
test,1562946303646321152,5,"    5   136    0    10 -- |    0     0   10    30 --"
test,1562946305652410112,5,"    5   137    0    10 -- |    0     0   10    30 --"
test,1562946307661964032,5,"    5   138    0    10 -- |    0     0   10    30 --"
test,1562946309646948096,5,"    5   139    0    10 -- |    0     0   10    30 --"
test,1562946311652398080,5,"    5   140    0    10 -- |    0     0   10    30 --"
test,1562946313659482880,5,"    5   141    0    10 -- |    0     0   10    30 --"
test,1562946315649709824,5,"    5   142    0    10 -- |    0     0   10    30 --"
test,1562946317655965184,5,"    5   143    0    10 -- |    0     0   10    30 --"
test,1562946319660011008,5,"    5   144    0    10 -- |    0     0   10    35 --"
test,1562946321648305920,5,"    5   145    0    10 -- |    0     0   10    30 --"
test,1562946323660006144,5,"    5   146    0    10 -- |    0     0   10    30 --"
test,1562946325658798848,5,"    5   147    0    10 -- |    0     0   10    30 --"
test,1562946327649189120,5,"    5   148    0    10 -- |    0     0   10    30 --"
test,1562946329656414976,5,"    5   149    0    10 -- |    0     0   10    30 --"
test,1562946331662619136,5,"    5   150    0    10 -- |    0     0   10    30 --"
test,1562946333649646080,5,"    5   151    0    10 -- |    0     0   10    30 --"
test,1562946335655469824,5,"    5   152    0    10 -- |    0     0   10    30 --"
test,1562946337644162816,5,"    5   153    0    10 -- |    0     0   10    30 --"
test,1562946339652410112,5,"    5   154    0    10 -- |    0     0   10    30 --"
test,1562946341658121984,5,"    5   155    0    10 -- |    0     0   10    30 --"
test,1562946343644710144,5,"    5   156    0    10 -- |    0     0   10    30 --"
test,1562946345650123008,5,"    5   157    0    10 -- |    0     0   10    30 --"
test,1562946347657721088,5,"    5   158    0    10 -- |    0     0   10    30 --"
test,1562946349645186816,5,"    5   159    0    10 -- |    0     0   10    30 --"
test,1562946351650834944,5,"    5   160    0    10 -- |    0     0   10    30 --"
test,1562946353656101888,5,"    5   161    0    10 -- |    0     0   10    30 --"
test,1562946355645705984,5,"    5   162    0    10 -- |    0     0   10    30 --"
test,1562946357652913152,5,"    5   163    0    10 -- |    0     0   10    30 --"
test,1562946359658013184,5,"    5   164    0    10 -- |    0     0   10    30 --"
test,1562946361646452992,5,"    5   165    0    10 -- |    0     0   10    30 --"
test,1562946363652934912,5,"    5   166    0    10 -- |    0     0   10    30 --"
test,1562946365660150016,5,"    5   167    0    10 -- |    0     0   10    30 --"
test,1562946367648375040,5,"    5   168    0    10 -- |    0     0   10    30 --"
test,1562946369653427968,5,"    5   169    0    10 -- |    0     0   10    30 --"
test,1562946371658660864,5,"    5   170    0    10 -- |    0     0   10    30 --"
test,1562946373647433984,5,"    5   171    0    10 -- |    0     0   10    30 --"
test,1562946375654536960,5,"    5   172    0    10 -- |    0     0   10    30 --"
test,1562946377659539968,5,"    5   173    0    10 -- |    0     0   10    30 --"
test,1562946379648480000,5,"    5   174    0    10 -- |    0     0   10    30 --"
test,1562946381655572992,5,"    5   175    0    10 -- |    0     0   10    30 --"
test,1562946383642877952,5,"    5   176    0    10 -- |    0     0   10    30 --"
test,1562946385649279232,5,"    5   177    0    10 -- |    0     0   10    30 --"
test,1562946387659804160,5,"    5   178    0    10 -- |    0     0   10    30 --"
test,1562946389643971840,5,"    5   179    0    10 -- |    0     0   10    30 --"
test,1562946391649437952,5,"    5   180    0    10 -- |    0     0   10    30 --"
test,1562946393654915072,5,"    5   181    0    10 -- |    0     0   10    30 --"
test,1562946395644264960,5,"    5   182    0    10 -- |    0     0   10    30 --"
test,1562946397651382016,5,"    5   183    0    10 -- |    0     0   10    30 --"
test,1562946399661308928,5,"    5   184    0    10 -- |    0     0   10    30 --"
test,1562946401644476928,5,"    5   185    0    10 -- |    0     0   10    30 --"
test,1562946403651282944,5,"    5   186    0    10 -- |    0     0   10    30 --"
test,1562946405661091072,5,"    5   187    0    10 -- |    0     0   10    30 --"
test,1562946407645632000,5,"    5   188    0    10 -- |    0     0   10    30 --"
test,1562946409651736064,5,"    5   189    0    10 -- |    0     0   10    30 --"
test,1562946411656045824,5,"    5   190    0    10 -- |    0     0   10    30 --"
test,1562946413645649920,5,"    5   191    0    10 -- |    0     0   10    30 --"
test,1562946415650980864,5,"    5   192    0    10 -- |    0     0   10    30 --"
test,1562946417659149824,5,"    5   193    0    10 -- |    0     0   10    30 --"
test,1562946419647553024,5,"    5   194    0    10 -- |    0     0   10    30 --"
test,1562946421653389824,5,"    5   195    0    10 -- |    0     0   10    30 --"
test,1562946423657110016,5,"    5   196    0    10 -- |    0     0   10    30 --"
test,1562946425647948032,5,"    5   197    0    10 -- |    0     0   10    30 --"
test,1562946429641822976,5,"    5   199    0    10 -- |    0     0   10    30 --"
test,1562946431647516928,5,"    5   200    0    10 -- |    0     0   10    30 --"
test,1562946433653399040,5,"    5   201    0    10 -- |    0     0   10    30 --"
test,1562946435642344960,5,"    5   202    0    10 -- |    0     0   10    30 --"
test,1562946437664225024,5,"    5   203    0    10 -- |    0     0   10    30 --"
test,1562946439656114944,5,"    5   204    0    10 -- |    0     0   10    30 --"
test,1562946441642769152,5,"    5   205    0    10 -- |    0     0   10    30 --"
test,1562946443650195968,5,"    5   206    0    10 -- |    0     0   10    30 --"
test,1562946445655172096,5,"    5   207    0    10 -- |    0     0   10    30 --"
test,1562946447644131840,5,"    5   208    0    10 -- |    0     0   10    30 --"
test,1562946449650974976,5,"    5   209    0    10 -- |    0     0   10    30 --"
test,1562946451659212032,5,"    5   210    0    10 -- |    0     0   10    30 --"
test,1562946453644638976,5,"    5   211    0    10 -- |    0     0   10    30 --"
test,1562946455651247104,5,"    5   212    0    10 -- |    0     0   10    30 --"
test,1562946459645165056,5,"    5   214    0    10 -- |    0     0   10    30 --"
test,1562946461653508864,5,"    5   215    0    10 -- |    0     0   10    30 --"
test,1562946463639440896,5,"    5   216    0    10 -- |    0     0   10    30 --"
test,1562946465645912832,5,"    5   217    0    10 -- |    0     0   10    30 --"
test,1562946467681512960,5,"    5   218    0    10 -- |    0     0   10    30 --"
test,1562946469640144128,5,"    5   219    0    10 -- |    0     0   10    30 --"
test,1562946471647123200,5,"    5   220    0    10 -- |    0     0   10    30 --"
test,1562946473653100032,5,"    5   221    0    10 -- |    0     0   10    30 --"
test,1562946475640640000,5,"    5   222    0    10 -- |    0     0   10    30 --"
test,1562946477646692096,5,"    5   223    0    10 -- |    0     0   10    30 --"
test,1562946479654660864,5,"    5   224    0    10 -- |    0     0   10    30 --"
test,1562946481642721792,5,"    5   225    0    10 -- |    0     0   10    30 --"
test,1562946483655544064,5,"    5   226    0    10 -- |    0     0   10    30 --"
test,1562946485652188928,5,"    5   227    0    10 -- |    0     0   10    30 --"
test,1562946487641814016,5,"    5   228    0    10 -- |    0     0   10    30 --"
test,1562946489651556096,5,"    5   229    0    10 -- |    0     0   10    30 --"
test,1562946491652598016,5,"    5   230    0    10 -- |    0     0   10    30 --"
test,1562946493646540032,5,"    5   231    0    10 -- |    0     0   10    30 --"
test,1562946495649094144,5,"    5   232    0    10 -- |    0     0   10    30 --"
test,1562946499643064064,5,"    5   234    0    10 -- |    0     0   10    30 --"
test,1562946501648235008,5,"    5   235    0    10 -- |    0     0   10    30 --"
test,1562946503653772032,5,"    5   236    0    10 -- |    0     0   10    30 --"
test,1562946505643747072,5,"    5   237    0    10 -- |    0     0   10    30 --"
test,1562946507649413120,5,"    5   238    0    10 -- |    0     0   10    30 --"
test,1562946509638540032,5,"    5   239    0    10 -- |    0     0   10    30 --"
test,1562946511646582016,5,"    5   240    0    10 -- |    0     0   10    30 --"
test,1562946513649871104,5,"    5   241    0    10 -- |    0     0   10    30 --"
test,1562946515639831040,5,"    5   242    0    10 -- |    0     0   10    30 --"
test,1562946517644558080,5,"    5   243    0    10 -- |    0     0   10    30 --"
test,1562946519653412096,5,"    5   244    0    10 -- |    0     0   10    30 --"
test,1562946521639522048,5,"    5   245    0    10 -- |    0     0   10    30 --"
test,1562946523645466112,5,"    5   246    0    10 -- |    0     0   10    30 --"
test,1562946525659062016,5,"    5   247    0    10 -- |    0     0   10    30 --"
test,1562946527641105920,5,"    5   248    0    10 -- |    0     0   10    30 --"
test,1562946529647943936,5,"    5   249    0    10 -- |    0     0   10    30 --"
test,1562946531655666176,5,"    5   250    0    10 -- |    0     0   10    30 --"
test,1562946533640719872,5,"    5   251    0    10 -- |    0     0   10    30 --"
test,1562946535649789184,5,"    5   252    0    10 -- |    0     0   10    30 --"
test,1562946537654055168,5,"    5   253    0    10 -- |    0     0   10    30 --"
test,1562946539644033792,5,"    5   254    0    10 -- |    0     0   10    30 --"
test,1562946541647579904,5,"    5   255    0    10 -- |    0     0   10    30 --"
test,1562946543656312832,5,"    5   256    0    10 -- |    0     0   10    30 --"
test,1562946545642270208,5,"    5   257    0    10 -- |    0     0   10    30 --"
test,1562946547648389120,5,"    5   258    0    10 -- |    0     0   10    30 --"
test,1562946549658912000,5,"    5   259    0    10 -- |    0     0   10    30 --"
test,1562946551644051968,5,"    5   260    0    10 -- |    0     0   10    30 --"
test,1562946553647618048,5,"    5   261    0    10 -- |    0     0   10    30 --"
test,1562946555637460992,5,"    5   262    0    10 -- |    0     0   10    30 --"
test,1562946557646352896,5,"    5   263    0    10 -- |    0     0   10    30 --"
test,1562946559656068096,5,"    5   264    0    10 -- |    0     0   10    30 --"
test,1562946561638994944,5,"    5   265    0    10 -- |    0     0   10    30 --"
test,1562946563644493056,5,"    5   266    0    10 -- |    0     0   10    30 --"
test,1562946565651117056,5,"    5   267    0    10 -- |    0     0   10    30 --"
test,1562946567639426048,5,"    5   268    0    10 -- |    0     0   10    30 --"
test,1562946569651483904,5,"    5   269    0    10 -- |    0     0   10    30 --"
test,1562946571651740928,5,"    5   270    0    10 -- |    0     0   10    30 --"
test,1562946573639340032,5,"    5   271    0    10 -- |    0     0   10    30 --"
test,1562946575646272000,5,"    5   272    0    10 -- |    0     0   10    30 --"
test,1562946577652295168,5,"    5   273    0    10 -- |    0     0   10    30 --"
test,1562946579664963072,5,"    5   274    0    10 -- |    0     0   10    30 --"
test,1562946581646845184,5,"    5   275    0    10 -- |    0     0   10    30 --"
test,1562946583652836096,5,"    5   276    0    10 -- |    0     0   10    30 --"
test,1562946585641138944,5,"    5   277    0    10 -- |    0     0   10    30 --"
test,1562946587647203840,5,"    5   278    0    10 -- |    0     0   10    30 --"
test,1562946591643523840,5,"    5   280    0    10 -- |    0     0   10    30 --"
test,1562946593649936896,5,"    5   281    0    10 -- |    0     0   10    30 --"
test,1562946595635657984,5,"    5   282    0    10 -- |    0     0   10    30 --"
test,1562946597641329920,5,"    5   283    0    10 -- |    0     0   10    30 --"
