name,time,nodeid,value
test,1562946000765988096,51,"   51   288    0    10 42767  |    0     0   10    30 41231 "
test,1562946002758230016,51,"   51   289    0     9 42767  |    0     0   10    30 41231 "
test,1562946042655024896,51,=8`vxB;Yz0p``00a`0|00   51     5    0    10 -- |    0     0    7    35 --
test,1562946043670813952,51,"   51     6    0    10 -- |    0     0   10    35 --"
test,1562946046649099008,51,"   51     7    0    10 -- |    0     0    6    35 --"
test,1562946047670723072,51,"   51     8    0    10 -- |    0     0   10    30 --"
test,1562946049666187008,51,"   51     9    0    10 -- |    0     0   10    35 --"
test,1562946051670233088,51,"   51    10    0    10 -- |    0     0   10    35 --"
test,1562946053667000064,51,"   51    11    0    10 -- |    0     0   10    35 --"
test,1562946055672521216,51,"   51    12    0     7 -- |    0     0   10    35 --"
test,1562946058649990912,51,"   51    13    0     9 -- |    0     0    6    35 --"
test,1562946059654033920,51,"   51    14    0    10 -- |    0     0   10    35 --"
test,1562946061662662144,51,"   51    15    0    10 -- |    0     0   10    35 --"
test,1562946063679919104,51,"   51    16    0    10 -- |    0     0   10    35 --"
test,1562946065664954880,51,"   51    17    0    10 -- |    0     0   10    30 --"
test,1562946068642836992,51,"   51    18    0    10 -- |    0     0    7    35 --"
test,1562946069667406080,51,"   51    19    0    10 -- |    0     0   10    35 --"
test,1562946071655057920,51,"   51    20    0    10 -- |    0     0   10    35 --"
test,1562946073663597056,51,"   51    21    0    10 -- |    0     0   10    35 --"
test,1562946075655067904,51,"   51    22    0    10 -- |    0     0   10    35 --"
test,1562946078651377920,51,"   51    23    0    10 -- |    0     0    8    35 --"
test,1562946080643933952,51,"   51    24    0    10 -- |    0     0    5    35 --"
test,1562946081670831872,51,"   51    25    0    10 -- |    0     0   10    35 --"
test,1562946084643901184,51,"   51    26    0    10 -- |    0     0    6    35 --"
test,1562946085666479104,51,"   51    27    0    10 -- |    0     0   10    35 --"
test,1562946088644262912,51,"   51    28    0     9 -- |    0     0    9    35 --"
test,1562946089668536832,51,"   51    29    0    10 -- |    0     0   10    35 --"
test,1562946092644567040,51,"   51    30    0    10 -- |    0     0    5    35 --"
test,1562946094652677120,51,"   51    31    0    10 -- |    0     0    8    35 --"
test,1562946095657538816,51,"   51    32    0    10 -- |    0     0   10    35 --"
test,1562946097665875968,51,"   51    33    0    10 -- |    0     0   10    35 --"
test,1562946099658246912,51,"   51    34    0    10 -- |    0     0   10    35 --"
test,1562946101666270976,51,"   51    35    0    10 -- |    0     0   10    35 --"
test,1562946104645487104,51,"   51    36    0    10 -- |    0     0    9    35 --"
test,1562946106637656064,51,"   51    37    0    10 -- |    0     0    8    35 --"
test,1562946107658132992,51,"   51    38    0    10 -- |    0     0   10    35 --"
test,1562946109666558976,51,"   51    39    0    10 -- |    0     0   10    35 --"
test,1562946111659493888,51,"   51    40    0    10 -- |    0     0   10    35 --"
test,1562946113697156864,51,"   51    41    0    10 -- |    0     0   10    35 --"
test,1562946115666800896,51,"   51    42    0    10 -- |    0     0   10    35 --"
test,1562946117667053824,51,"   51    43    0    10 -- |    0     0   10    30 --"
test,1562946119658301952,51,"   51    44    0     9 -- |    0     0   10    35 --"
test,1562946121670411008,51,"   51    45    0    10 -- |    0     0   10    30 --"
test,1562946124646969088,51,"   51    46    0    10 -- |    0     0    8    35 --"
test,1562946125675468032,51,"   51    47    0    10 -- |    0     0   10    35 --"
test,1562946127660226048,51,"   51    48    0    10 -- |    0     0   10    35 --"
test,1562946129668114944,51,"   51    49    0    10 -- |    0     0   10    35 --"
test,1562946132647404032,51,"   51    50    0    10 -- |    0     0    8    35 --"
test,1562946133651515904,51,"   51    51    0    10 -- |    0     0   10    35 --"
test,1562946135667475968,51,"   51    52    0    10 -- |    0     0   10    35 --"
test,1562946137651736064,51,"   51    53    0    10 -- |    0     0   10    35 --"
test,1562946140648109056,51,"   51    54    0    10 -- |    0     0    9    35 --"
test,1562946142640155136,51,"   51    55    0    10 -- |    0     0    9    35 --"
test,1562946144648314880,51,"   51    56    0    10 -- |    0     0    7    35 --"
test,1562946145669668864,51,"   51    57    0    10 -- |    0     0   10    35 --"
test,1562946147663016960,51,"   51    58    0    10 -- |    0     0   10    35 --"
test,1562946149652616960,51,"   51    59    0    10 -- |    0     0   10    30 --"
test,1562946151662738944,51,"   51    60    0    10 -- |    0     0   10    30 --"
test,1562946154641213952,51,"   51    61    0    10 -- |    0     0    7    35 --"
test,1562946155664464896,51,"   51    62    0    10 -- |    0     0   10    35 --"
test,1562946157654177792,51,"   51    63    0    10 -- |    0     0   10    30 --"
test,1562946160649540864,51,"   51    64    0     6 -- |    0     0    9    35 --"
test,1562946161653664000,51,"   51    65    0    10 -- |    0     0   10    35 --"
test,1562946163663513856,51,"   51    66    0    10 -- |    0     0   10    35 --"
test,1562946165654063872,51,"   51    67    0    10 -- |    0     0   10    35 --"
test,1562946167666256896,51,"   51    68    0    10 -- |    0     0   10    30 --"
test,1562946169655172096,51,"   51    69    0    10 -- |    0     0   10    30 --"
test,1562946171663106816,51,"   51    70    0    10 -- |    0     0   10    35 --"
test,1562946173654768896,51,"   51    71    0    10 -- |    0     0   10    30 --"
test,1562946175663033088,51,"   51    72    0    10 -- |    0     0   10    30 --"
test,1562946177654653952,51,"   51    73    0    10 -- |    0     0   10    35 --"
test,1562946179663630080,51,"   51    74    0    10 -- |    0     0   10    35 --"
test,1562946181656630016,51,"   51    75    0    10 -- |    0     0   10    35 --"
test,1562946183665224960,51,"   51    76    0    10 -- |    0     0   10    35 --"
test,1562946185655411968,51,"   51    77    0    10 -- |    0     0   10    35 --"
test,1562946187664246016,51,"   51    78    0    10 -- |    0     0   10    35 --"
test,1562946189656642816,51,"   51    79    0    10 -- |    0     0   10    35 --"
test,1562946191666477824,51,"   51    80    0    10 -- |    0     0   10    35 --"
test,1562946195665865984,51,"   51    82    0     8 -- |    0     0   10    35 --"
test,1562946198643963136,51,"   51    83    0     7 -- |    0     0    6    35 --"
test,1562946200636182016,51,"   51    84    0    10 -- |    0     0    3    35 --"
test,1562946202644304896,51,"   51    85    0    10 -- |    0     0    8    35 --"
test,1562946203666336000,51,"   51    86    0    10 -- |    0     0   10    35 --"
test,1562946205658222848,51,"   51    87    0     7 -- |    0     0   10    35 --"
test,1562946208636847104,51,"   51    88    0    10 -- |    0     0    8    35 --"
test,1562946210645100032,51,"   51    89    0    10 -- |    0     0    6    35 --"
test,1562946212637163008,51,"   51    90    0    10 -- |    0     0    7    35 --"
test,1562946213657272064,51,"   51    91    0    10 -- |    0     0   10    35 --"
test,1562946216637633024,51,"   51    92    0    10 -- |    0     0    9    35 --"
test,1562946217658850816,51,"    0     0    0     0     0  |    0     0   10    35 --"
test,1562946219649794048,51,"   51    94    0     9 -- |    0     0   10    30 --"
test,1562946221659202048,51,"   51    95    0    10 -- |    0     0   10    35 --"
test,1562946224638201856,51,"   51    96    0    10 -- |    0     0    9    35 --"
test,1562946225660824064,51,"   51    97    0    10 -- |    0     0   10    35 --"
test,1562946228638576896,51,"   51    98    0    10 -- |    0     0    9    35 --"
test,1562946230646722048,51,"   51    99    0    10 -- |    0     0    8    35 --"
test,1562946231650682880,51,"   51   100    0    10 -- |    0     0   10    35 --"
test,1562946233661302016,51,"   51   101    0     8 -- |    0     0   10    35 --"
test,1562946236639208192,51,"   51   102    0    10 -- |    0     0    6    35 --"
test,1562946238647183872,51,"   51   103    0    10 -- |    0     0    8    35 --"
test,1562946239651625984,51,"   51   104    0    10 -- |    0     0   10    35 --"
test,1562946241659332096,51,"   51   105    0    10 -- |    0     0   10    35 --"
test,1562946243652314880,51,"   51   106    0     8 -- |    0     0   10    35 --"
test,1562946246647883776,51,"   51   107    0    10 -- |    0     0    6    35 --"
test,1562946248640075008,51,"   51   108    0     4 -- |    0     0    8    35 --"
test,1562946249660882944,51,"   51   109    0    10 -- |    0     0   10    35 --"
test,1562946251652827904,51,"   51   110    0    10 -- |    0     0   10    35 --"
test,1562946254632549120,51,"   51   111    0     9 -- |    0     0    6    35 --"
test,1562946256640909824,51,"   51   112    0    10 -- |    0     0    8    35 --"
test,1562946257661933824,51,"   51   113    0    10 -- |    0     0   10    35 --"
test,1562946259653465088,51,"   51   114    0    10 -- |    0     0   10    35 --"
test,1562946261662075136,51,"   51   115    0    10 -- |    0     0   10    35 --"
test,1562946263653831936,51,"   51   116    0    10 -- |    0     0   10    35 --"
test,1562946265684925952,51,"   51   117    0    10 -- |    0     0   10    30 --"
test,1562946267654076928,51,"   51   118    0     7 -- |    0     0   10    35 --"
test,1562946269668667904,51,"   51   119    0    10 -- |    0     0   10    35 --"
test,1562946271653928960,51,"   51   120    0    10 -- |    0     0   10    35 --"
test,1562946273666991104,51,"   51   121    0     9 -- |    0     0   10    35 --"
test,1562946275670914816,51,"   51   122    0    10 -- |    0     0   10    35 --"
test,1562946278634244864,51,"   51   123    0    10 -- |    0     0    9    35 --"
test,1562946279654995968,51,"   51   124    0    10 -- |    0     0   10    35 --"
test,1562946282634539008,51,"   51   125    0     9 -- |    0     0    9    35 --"
test,1562946283656611840,51,"   51   126    0    10 -- |    0     0   10    35 --"
test,1562946285666412032,51,"   51   127    0    10 -- |    0     0   10    35 --"
test,1562946288643106816,51,"   51   128    0    10 -- |    0     0    3    35 --"
test,1562946289647104000,51,"   51   129    0    10 -- |    0     0   10    35 --"
test,1562946291658298880,51,"   51   130    0    10 -- |    0     0   10    35 --"
test,1562946293665170944,51,"   51   131    0     4 -- |    0     0   10    35 --"
test,1562946297647618048,51,"   51   133    0     9 -- |    0     0   10    30 --"
test,1562946299657321984,51,"   51   134    0    10 -- |    0     0   10    35 --"
test,1562946301648260096,51,"   51   135    0    10 -- |    0     0   10    35 --"
test,1562946304644151808,51,"   51   136    0    10 -- |    0     0    8    35 --"
test,1562946306636523008,51,"   51   137    0    10 -- |    0     0    7    35 --"
test,1562946307660568064,51,"   51   138    0    10 -- |    0     0   10    35 --"
test,1562946310636635136,51,"   51   139    0    10 -- |    0     0    9    35 --"
test,1562946311659316992,51,"   51   140    0    10 -- |    0     0   10    35 --"
test,1562946313648916992,51,"   51   141    0    10 -- |    0     0   10    35 --"
test,1562946316645067008,51,"   51   142    0    10 -- |    0     0    8    35 --"
test,1562946317651676928,51,"   51   143    0    10 -- |    0     0   10    35 --"
test,1562946319658392832,51,"   51   144    0    10 -- |    0     0   10    35 --"
test,1562946321649799168,51,"   51   145    0    10 -- |    0     0   10    35 --"
test,1562946324629726976,51,"   51   146    0     9 -- |    0     0    9    35 --"
test,1562946325649936896,51,"   51   147    0    10 -- |    0     0   10    30 --"
test,1562946328630162944,51,"   51   148    0    10 -- |    0     0    9    35 --"
test,1562946329650929920,51,"   51   149    0    10 -- |    0     0   10    35 --"
test,1562946332630336000,51,"   51   150    0    10 -- |    0     0    8    35 --"
test,1562946334638556928,51,"   51   151    0    10 -- |    0     0    8    35 --"
test,1562946335662245888,51,"   51   152    0    10 -- |    0     0   10    35 --"
test,1562946337653608192,51,"   51   153    0     8 -- |    0     0   10    35 --"
test,1562946339660645888,51,"   51   154    0    10 -- |    0     0   10    35 --"
test,1562946341652171008,51,"   51   155    0    10 -- |    0     0   10    30 --"
test,1562946344631418880,51,"   51   156    0    10 -- |    0     0    7    35 --"
test,1562946345652468992,51,"   51   157    0    10 -- |    0     0   10    35 --"
test,1562946347660815872,51,"   51   158    0     9 -- |    0     0   10    35 --"
test,1562946350639750912,51,"   51   159    0    10 -- |    0     0    3    35 --"
test,1562946351663222016,51,"   51   160    0     7 -- |    0     0   10    35 --"
test,1562946353653464064,51,"   51   161    0    10 -- |    0     0   10    35 --"
test,1562946355644171008,51,"   51   162    0    10 -- |    0     0   10    30 --"
test,1562946357653256960,51,"   51   163    0    10 -- |    0     0   10    30 --"
test,1562946359664356096,51,"   51   164    0    10 -- |    0     0   10    35 --"
test,1562946362640593152,51,"   51   165    0    10 -- |    0     0    9    35 --"
test,1562946363644669952,51,"   51   166    0    10 -- |    0     0   10    35 --"
test,1562946366641144064,51,"   51   167    0    10 -- |    0     0    7    35 --"
test,1562946367646370048,51,"   51   168    0    10 -- |    0     0   10    35 --"
test,1562946369658091008,51,"   51   169    0    10 -- |    0     0   10    35 --"
test,1562946371645574144,51,"   51   170    0     6 -- |    0     0   10    35 --"
test,1562946373654763008,51,"   51   171    0    10 -- |    0     0   10    35 --"
test,1562946376640894976,51,"   51   172    0    10 -- |    0     0    6    35 --"
test,1562946377655229952,51,"   51   173    0    10 -- |    0     0   10    35 --"
test,1562946380634143232,51,"   51   174    0    10 -- |    0     0    4    35 --"
test,1562946381654938880,51,"   51   175    0    10 -- |    0     0   10    35 --"
test,1562946383646471936,51,"   51   176    0     9 -- |    0     0   10    35 --"
test,1562946386643470080,51,"   51   177    0    10 -- |    0     0    5    35 --"
test,1562946387647154944,51,"   51   178    0    10 -- |    0     0   10    30 --"
test,1562946389655651072,51,"   51   179    0    10 -- |    0     0   10    35 --"
test,1562946392635026944,51,"   51   180    0     8 -- |    0     0    8    30 --"
test,1562946393659563008,51,"   51   181    0     5 -- |    0     0   10    30 --"
test,1562946396635771136,51,"   51   182    0    10 -- |    0     0    9    35 --"
test,1562946397666157056,51,"   51   183    0    10 -- |    0     0   10    30 --"
test,1562946399647994112,51,"   51   184    0    10 -- |    0     0   10    35 --"
test,1562946401657069056,51,"   51   185    0    10 -- |    0     0   10    35 --"
test,1562946403648325888,51,"   51   186    0    10 -- |    0     0   10    35 --"
test,1562946405656627968,51,"   51   187    0    10 -- |    0     0   10    35 --"
test,1562946407649734912,51,"   51   188    0    10 -- |    0     0   10    35 --"
test,1562946409662342144,51,"   51   189    0    10 -- |    0     0   10    35 --"
test,1562946411648918016,51,"   51   190    0    10 -- |    0     0   10    35 --"
test,1562946413661549056,51,"   51   191    0    10 -- |    0     0   10    35 --"
test,1562946415649727232,51,"   51   192    0    10 -- |    0     0   10    35 --"
test,1562946417663732992,51,"   51   193    0    10 -- |    0     0   10    30 --"
test,1562946420636928000,51,"   51   194    0    10 -- |    0     0    8    35 --"
test,1562946421640983040,51,"   51   195    0     8 -- |    0     0   10    35 --"
test,1562946424637281792,51,"   51   196    0     7 -- |    0     0    9    30 --"
test,1562946425659539968,51,"   51   197    0    10 -- |    0     0   10    30 --"
test,1562946430629822976,51,"   51   199    0    10 -- |    0     0    9    35 --"
test,1562946431651176960,51,"   51   200    0    10 -- |    0     0   10    35 --"
test,1562946433642113024,51,"   51   201    0    10 -- |    0     0   10    35 --"
test,1562946436638385152,51,"   51   202    0     9 -- |    0     0    7    35 --"
test,1562946437642607872,51,"   51   203    0    10 -- |    0     0   10    35 --"
test,1562946439651716096,51,"   51   204    0     8 -- |    0     0   10    35 --"
test,1562946442630832896,51,"   51   205    0    10 -- |    0     0    6    35 --"
test,1562946443652385024,51,"   51   206    0    10 -- |    0     0   10    30 --"
test,1562946445643815936,51,"   51   207    0    10 -- |    0     0   10    35 --"
test,1562946447674594048,51,"   51   208    0    10 -- |    0     0   10    35 --"
test,1562946450631478016,51,"   51   209    0    10 -- |    0     0    9    35 --"
test,1562946451652672000,51,"   51   210    0    10 -- |    0     0   10    35 --"
test,1562946453644160000,51,"   51   211    0     8 -- |    0     0   10    35 --"
test,1562946456639759104,51,"   51   212    0    10 -- |    0     0    9    35 --"
test,1562946457644154112,51,"   51   213    0    10 -- |    0     0   10    30 --"
test,1562946460640160000,51,"   51   214    0     8 -- |    0     0    9    30 --"
test,1562946461644342784,51,"   51   215    0    10 -- |    0     0   10    30 --"
test,1562946463652254208,51,"   51   216    0    10 -- |    0     0   10    35 --"
test,1562946466632747776,51,"   51   217    0    10 -- |    0     0    9    35 --"
test,1562946468625116160,51,"   51   218    0    10 -- |    0     0    8    35 --"
test,1562946469650407936,51,"   51   219    0    10 -- |    0     0   10    35 --"
test,1562946471654191872,51,"   51   220    0     7 -- |    0     0   10    30 --"
test,1562946473646784000,51,"   51   221    0    10 -- |    0     0   10    30 --"
test,1562946476625432064,51,"   51   222    0    10 -- |    0     0    9    35 --"
test,1562946477647542016,51,"   51   223    0    10 -- |    0     0   10    35 --"
test,1562946479660921088,51,"   51   224    0    10 -- |    0     0   10    30 --"
test,1562946481654022912,51,"   51   225    0    10 -- |    0     0   10    35 --"
test,1562946483655354112,51,"   51   226    0    10 -- |    0     0   10    35 --"
test,1562946486634170112,51,"   51   227    0    10 -- |    0     0    9    35 --"
test,1562946488626574080,51,"   51   228    0    10 -- |    0     0    8    35 --"
test,1562946489647599104,51,"   51   229    0    10 -- |    0     0   10    35 --"
test,1562946492626781952,51,"   51   230    0    10 -- |    0     0    5    35 --"
test,1562946494634895104,51,"   51   231    0    10 -- |    0     0    8    35 --"
test,1562946496627266816,51,"   51   232    0     9 -- |    0     0    7    35 --"
test,1562946497649015808,51,"   51   233    0    10 -- |    0     0   10    30 --"
test,1562946499639492864,51,"   51   234    0    10 -- |    0     0   10    35 --"
test,1562946501655458816,51,"   51   235    0     8 -- |    0     0   10    35 --"
test,1562946504627726080,51,"   51   236    0    10 -- |    0     0    4    35 --"
test,1562946505647776000,51,"   51   237    0    10 -- |    0     0   10    30 --"
test,1562946507640253184,51,"   51   238    0    10 -- |    0     0   10    35 --"
test,1562946509648747008,51,"   51   239    0    10 -- |    0     0   10    35 --"
test,1562946512628349184,51,"   51   240    0    10 -- |    0     0    9    35 --"
test,1562946513657792000,51,"   51   241    0    10 -- |    0     0   10    35 --"
test,1562946515657520128,51,"   51   242    0    10 -- |    0     0   10    35 --"
test,1562946517650608128,51,"   51   243    0    10 -- |    0     0   10    35 --"
test,1562946520629088000,51,"   51   244    0    10 -- |    0     0    7    35 --"
test,1562946522637049856,51,"   51   245    0    10 -- |    0     0    8    35 --"
test,1562946524629428992,51,"   51   246    0    10 -- |    0     0    7    35 --"
test,1562946526637412096,51,"   51   247    0    10 -- |    0     0    8    35 --"
test,1562946527643865088,51,"   51   248    0    10 -- |    0     0   10    35 --"
test,1562946529652239104,51,"   51   249    0    10 -- |    0     0   10    35 --"
test,1562946531642435072,51,"   51   250    0    10 -- |    0     0   10    35 --"
test,1562946533652843008,51,"   51   251    0    10 -- |    0     0   10    35 --"
test,1562946535642533120,51,"   51   252    0    10 -- |    0     0   10    35 --"
test,1562946538622371072,51,"   51   253    0    10 -- |    0     0    5    30 --"
test,1562946539643287808,51,"   51   254    0    10 -- |    0     0   10    35 --"
test,1562946542622535936,51,"   51   255    0    10 -- |    0     0    8    35 --"
test,1562946543647684096,51,"   51   256    0    10 -- |    0     0   10    35 --"
test,1562946545656930816,51,"   51   257    0    10 -- |    0     0   10    35 --"
test,1562946548631098112,51,"   51   258    0    10 -- |    0     0    8    35 --"
test,1562946550623269120,51,"   51   259    0    10 -- |    0     0    9    35 --"
test,1562946551652748032,51,"   51   260    0    10 -- |    0     0   10    35 --"
test,1562946554623585024,51,"   51   261    0    10 -- |    0     0    6    35 --"
test,1562946555645085952,51,"   51   262    0    10 -- |    0     0   10    35 --"
test,1562946557652486144,51,"   51   263    0    10 -- |    0     0   10    30 --"
test,1562946560632080128,51,"   51   264    0    10 -- |    0     0    4    35 --"
test,1562946561656172032,51,"   51   265    0    10 -- |    0     0   10    35 --"
test,1562946564632399104,51,"   51   266    0    10 -- |    0     0    5    35 --"
test,1562946565636337152,51,"   51   267    0    10 -- |    0     0   10    35 --"
test,1562946567646486016,51,"   51   268    0    10 -- |    0     0   10    30 --"
test,1562946570624978176,51,"   51   269    0    10 -- |    0     0    8    35 --"
test,1562946571645600000,51,"   51   270    0     8 -- |    0     0   10    35 --"
test,1562946573654717952,51,"   51   271    0    10 -- |    0     0   10    35 --"
test,1562946576633244160,51,"   51   272    0    10 -- |    0     0    7    35 --"
test,1562946577654546944,51,"   51   273    0    10 -- |    0     0   10    35 --"
test,1562946579665331968,51,"   51   274    0    10 -- |    0     0   10    35 --"
test,1562946582625766144,51,"   51   275    0    10 -- |    0     0    8    35 --"
test,1562946583648099072,51,"   51   276    0    10 -- |    0     0   10    30 --"
test,1562946585638475776,51,"   51   277    0    10 -- |    0     0   10    35 --"
test,1562946587647790080,51,"   51   278    0    10 -- |    0     0   10    35 --"
test,1562946590626384128,51,"   51   279    0    10 -- |    0     0    9    35 --"
test,1562946591648333056,51,"   51   280    0    10 -- |    0     0   10    35 --"
test,1562946593638973952,51,"   51   281    0    10 -- |    0     0   10    35 --"
test,1562946595646658816,51,"   51   282    0    10 -- |    0     0   10    35 --"
test,1562946597640167936,51,"   51   283    0    10 -- |    0     0   10    35 --"
