name,time,nodeid,value
test,1562946001755055872,53,"   53   288    0    10 42767  |    0     0    0     0     0 "
test,1562946003747642112,53,"   53   289    0     9 42767  |    0     0    0     0     0 "
test,1562946042644399872,53,=8`vxB;Yz0a`k0000a`0`8x`00   53     5    0     9 -- |    0     0    7    35 --
test,1562946044652764160,53,"   53     6    0     9 -- |    0     0    8    35 --"
test,1562946046645536000,53,"   53     7    0     7 -- |    0     0    5    35 --"
test,1562946048654285824,53,"   53     8    0     9 -- |    0     0    8    35 --"
test,1562946050647008000,53,"   53     9    0    10 -- |    0     0    7    35 --"
test,1562946052639885056,53,"   53    10    0    10 -- |    0     0    7    35 --"
test,1562946054648585984,53,"   53    11    0    10 -- |    0     0    6    35 --"
test,1562946056641239808,53,"   53    12    0     8 -- |    0     0    8    35 --"
test,1562946058650233088,53,"   53    13    0     4 -- |    0     0    8    35 --"
test,1562946060642724864,53,"   53    14    0    10 -- |    0     0    8    35 --"
test,1562946062656275968,53,"   53    15    0     8 -- |    0     0    6    35 --"
test,1562946064644280832,53,"   53    16    0     6 -- |    0     0    9    35 --"
test,1562946066652846080,53,"   53    17    0     8 -- |    0     0    8    35 --"
test,1562946068645740032,53,"   53    18    0     8 -- |    0     0    9    35 --"
test,1562946070654249984,53,"   53    19    0     8 -- |    0     0    5    35 --"
test,1562946072647075840,53,"   53    20    0     9 -- |    0     0    9    35 --"
test,1562946074640001024,53,"   53    21    0     9 -- |    0     0    8    35 --"
test,1562946076648549120,53,"   53    22    0     8 -- |    0     0    8    35 --"
test,1562946078641298176,53,"   53    23    0     7 -- |    0     0    9    35 --"
test,1562946080650048000,53,"   53    24    0     6 -- |    0     0    8    35 --"
test,1562946082642777856,53,"   53    25    0     9 -- |    0     0    9    35 --"
test,1562946084651485952,53,"   53    26    0     9 -- |    0     0    9    35 --"
test,1562946086644260864,53,"   53    27    0     9 -- |    0     0    8    35 --"
test,1562946088653011200,53,"   53    28    0     7 -- |    0     0    8    35 --"
test,1562946090645742848,53,"   53    29    0     7 -- |    0     0    8    35 --"
test,1562946092638600960,53,"   53    30    0     8 -- |    0     0    9    35 --"
test,1562946094647320064,53,"   53    31    0     4 -- |    0     0    7    35 --"
test,1562946096639995136,53,"   53    32    0     6 -- |    0     0    9    35 --"
test,1562946098648658944,53,"   53    33    0     8 -- |    0     0    6    35 --"
test,1562946100641633024,53,"   53    34    0     9 -- |    0     0    8    35 --"
test,1562946101662543104,53,"   53    35    0     7 -- |    0     0   10    35 --"
test,1562946104643112960,53,"   53    36    0     9 -- |    0     0    9    35 --"
test,1562946105665746944,53,"   53    37    0     7 -- |    0     0   10    35 --"
test,1562946107673236992,53,"   53    38    0     6 -- |    0     0   10    35 --"
test,1562946109668669952,53,"   53    39    0     8 -- |    0     0   10    35 --"
test,1562946112645934080,53,"   53    40    0     9 -- |    0     0    9    35 --"
test,1562946114638809088,53,"   53    41    0    10 -- |    0     0    8    35 --"
test,1562946116647290112,53,"   53    42    0     8 -- |    0     0    8    35 --"
test,1562946118640062208,53,"   53    43    0     6 -- |    0     0    8    30 --"
test,1562946120648798976,53,"   53    44    0     7 -- |    0     0    8    35 --"
test,1562946121674035968,53,"   53    45    0     9 -- |    0     0   10    35 --"
test,1562946124650337024,53,"   53    46    0     5 -- |    0     0    6    35 --"
test,1562946125673754880,53,"   53    47    0     8 -- |    0     0   10    35 --"
test,1562946128651735040,53,"   53    48    0     8 -- |    0     0    9    35 --"
test,1562946130644591104,53,"   53    49    0    10 -- |    0     0    9    35 --"
test,1562946132637554944,53,"   53    50    0     9 -- |    0     0    6    35 --"
test,1562946135671886080,53,"   53    52    0     8 -- |    0     0   10    35 --"
test,1562946138647467008,53,"   53    53    0    10 -- |    0     0    6    35 --"
test,1562946140640188928,53,"   53    54    0    10 -- |    0     0    9    35 --"
test,1562946142648971008,53,"   53    55    0    10 -- |    0     0    9    35 --"
test,1562946144641867008,53,"   53    56    0    10 -- |    0     0    9    35 --"
test,1562946146650432000,53,"   53    57    0    10 -- |    0     0    9    35 --"
test,1562946148643196160,53,"   53    58    0     9 -- |    0     0    9    35 --"
test,1562946150635868928,53,"   53    59    0    10 -- |    0     0    6    35 --"
test,1562946152644664064,53,"   53    60    0     8 -- |    0     0    9    35 --"
test,1562946154637666048,53,"   53    61    0    10 -- |    0     0    9    35 --"
test,1562946156646104064,53,"   53    62    0     8 -- |    0     0    9    35 --"
test,1562946158638900992,53,"   53    63    0     9 -- |    0     0    9    35 --"
test,1562946160647641856,53,"   53    64    0     7 -- |    0     0    9    35 --"
test,1562946162640393984,53,"   53    65    0     8 -- |    0     0    8    35 --"
test,1562946164649241856,53,"   53    66    0     9 -- |    0     0    7    35 --"
test,1562946165654268928,53,"   53    67    0     9 -- |    0     0   10    35 --"
test,1562946168651057920,53,"   53    68    0     9 -- |    0     0    9    35 --"
test,1562946170643354880,53,"   53    69    0     8 -- |    0     0    8    35 --"
test,1562946172636105984,53,"   53    70    0     9 -- |    0     0    9    35 --"
test,1562946174645030912,53,"   53    71    0     8 -- |    0     0    8    35 --"
test,1562946176637712896,53,"   53    72    0     8 -- |    0     0    8    35 --"
test,1562946178646332928,53,"   53    73    0     9 -- |    0     0    9    35 --"
test,1562946180639066880,53,"   53    74    0     7 -- |    0     0    9    35 --"
test,1562946182647811840,53,"   53    75    0     7 -- |    0     0    9    35 --"
test,1562946184640676096,53,"   53    76    0     9 -- |    0     0    9    35 --"
test,1562946185665879040,53,"   53    77    0     9 -- |    0     0   10    35 --"
test,1562946187674097152,53,"   53    78    0     7 -- |    0     0   10    35 --"
test,1562946190634799104,53,"   53    79    0    10 -- |    0     0    9    35 --"
test,1562946192643522048,53,"   53    80    0     8 -- |    0     0    9    35 --"
test,1562946194636145152,53,"   53    81    0     8 -- |    0     0    7    35 --"
test,1562946196645097984,53,"   53    82    0     8 -- |    0     0    8    35 --"
test,1562946197667459072,53,"   53    83    0     8 -- |    0     0   10    35 --"
test,1562946200646492928,53,"   53    84    0     8 -- |    0     0    9    35 --"
test,1562946202639261952,53,"   53    85    0     9 -- |    0     0    9    35 --"
test,1562946204648854016,53,"   53    86    0     9 -- |    0     0    9    35 --"
test,1562946206640760064,53,"   53    87    0     8 -- |    0     0    6    35 --"
test,1562946208649331200,53,"   53    88    0     9 -- |    0     0    7    35 --"
test,1562946210642230016,53,"   53    89    0     8 -- |    0     0    7    35 --"
test,1562946212634970880,53,"   53    90    0     8 -- |    0     0    8    35 --"
test,1562946214646985984,53,"   53    91    0     7 -- |    0     0    8    35 --"
test,1562946216636507904,53,"   53    92    0     9 -- |    0     0    7    35 --"
test,1562946218645049088,53,"    0     0    0     0     0  |    0     0    9    35 --"
test,1562946220637819136,53,"   53    94    0     9 -- |    0     0    9    30 --"
test,1562946222646543872,53,"   53    95    0     7 -- |    0     0    9    35 --"
test,1562946224648257024,53,"   53    96    0    10 -- |    0     0    9    35 --"
test,1562946226648070144,53,"   53    97    0     5 -- |    0     0    9    35 --"
test,1562946228641068032,53,"   53    98    0     7 -- |    0     0    7    35 --"
test,1562946230633527040,53,"   53    99    0     8 -- |    0     0    7    35 --"
test,1562946232642256128,53,"   53   100    0     8 -- |    0     0    8    35 --"
test,1562946234635025152,53,"   53   101    0     6 -- |    0     0    9    35 --"
test,1562946236643769088,53,"   53   102    0     9 -- |    0     0    9    35 --"
test,1562946237665352192,53,"   53   103    0    10 -- |    0     0   10    35 --"
test,1562946240645236992,53,"   53   104    0     9 -- |    0     0    8    35 --"
test,1562946242638027008,53,"   53   105    0     4 -- |    0     0    8    35 --"
test,1562946244646734848,53,"   53   106    0     9 -- |    0     0    8    35 --"
test,1562946246639488000,53,"   53   107    0     9 -- |    0     0    8    35 --"
test,1562946248632221952,53,"   53   108    0     9 -- |    0     0    7    35 --"
test,1562946250640990976,53,"   53   109    0     6 -- |    0     0    6    35 --"
test,1562946252633739008,53,"   53   110    0     9 -- |    0     0    6    35 --"
test,1562946253659691008,53,"   53   111    0     8 -- |    0     0   10    35 --"
test,1562946256635294976,53,"   53   112    0     8 -- |    0     0    7    35 --"
test,1562946258643939072,53,"   53   113    0    10 -- |    0     0    8    35 --"
test,1562946260636867072,53,"   53   114    0    10 -- |    0     0    9    35 --"
test,1562946262645309952,53,"   53   115    0     8 -- |    0     0    9    35 --"
test,1562946264638238976,53,"   53   116    0    10 -- |    0     0    8    35 --"
test,1562946266646842880,53,"   53   117    0     9 -- |    0     0    8    35 --"
test,1562946268639656192,53,"   53   118    0     9 -- |    0     0    8    35 --"
test,1562946270632397056,53,"   53   119    0     8 -- |    0     0    9    35 --"
test,1562946272641025024,53,"   53   120    0     9 -- |    0     0    9    35 --"
test,1562946273662651904,53,"   53   121    0     8 -- |    0     0   10    35 --"
test,1562946275668695040,53,"   53   122    0     7 -- |    0     0   10    35 --"
test,1562946278635288064,53,"   53   123    0    10 -- |    0     0    9    35 --"
test,1562946280643969024,53,"   53   124    0     8 -- |    0     0    9    35 --"
test,1562946281665256960,53,"   53   125    0     7 -- |    0     0   10    35 --"
test,1562946284645472000,53,"   53   126    0     9 -- |    0     0    9    35 --"
test,1562946286638284800,53,"   53   127    0     8 -- |    0     0    6    35 --"
test,1562946287659432960,53,"   53   128    0     8 -- |    0     0   10    35 --"
test,1562946290639638016,53,"   53   129    0     8 -- |    0     0    9    35 --"
test,1562946292632671232,53,"   53   130    0     8 -- |    0     0    9    35 --"
test,1562946294641148928,53,"   53   131    0     9 -- |    0     0    9    35 --"
test,1562946298642605056,53,"   53   133    0     9 -- |    0     0    5    30 --"
test,1562946300635356928,53,"   53   134    0    10 -- |    0     0    9    35 --"
test,1562946301663191040,53,"   53   135    0     9 -- |    0     0   10    35 --"
test,1562946304636943104,53,"   53   136    0    10 -- |    0     0    9    35 --"
test,1562946306645584128,53,"   53   137    0     8 -- |    0     0    8    35 --"
test,1562946308638385920,53,"   53   138    0    10 -- |    0     0    9    35 --"
test,1562946310631119872,53,"   53   139    0     9 -- |    0     0    9    35 --"
test,1562946311652836096,53,"   53   140    0     7 -- |    0     0   10    35 --"
test,1562946314632497152,53,"   53   141    0     9 -- |    0     0    8    35 --"
test,1562946315653697024,53,"   53   142    0     7 -- |    0     0   10    35 --"
test,1562946318633931008,53,"   53   143    0    10 -- |    0     0    8    35 --"
test,1562946320642736896,53,"   53   144    0     8 -- |    0     0    4    35 --"
test,1562946322635504128,53,"   53   145    0     9 -- |    0     0    9    35 --"
test,1562946324644211968,53,"   53   146    0    10 -- |    0     0    9    35 --"
test,1562946326637038848,53,"   53   147    0     9 -- |    0     0    9    35 --"
test,1562946328629787904,53,"   53   148    0     9 -- |    0     0    9    35 --"
test,1562946330638443008,53,"   53   149    0    10 -- |    0     0    9    35 --"
test,1562946332631247104,53,"   53   150    0     9 -- |    0     0    8    35 --"
test,1562946333656635904,53,"   53   151    0     9 -- |    0     0   10    35 --"
test,1562946336632858880,53,"   53   152    0     8 -- |    0     0    9    35 --"
test,1562946338641422080,53,"   53   153    0     9 -- |    0     0    7    35 --"
test,1562946340634155008,53,"   53   154    0     9 -- |    0     0    9    35 --"
test,1562946342642859008,53,"   53   155    0     7 -- |    0     0    9    35 --"
test,1562946344635590912,53,"   53   156    0     9 -- |    0     0    8    35 --"
test,1562946346644393984,53,"   53   157    0     4 -- |    0     0    9    35 --"
test,1562946348637074944,53,"   53   158    0     8 -- |    0     0    9    35 --"
test,1562946349664058880,53,"   53   159    0     8 -- |    0     0   10    35 --"
test,1562946352638560000,53,"   53   160    0     9 -- |    0     0    9    35 --"
test,1562946354631367936,53,"   53   161    0     8 -- |    0     0    6    35 --"
test,1562946356640171008,53,"   53   162    0    10 -- |    0     0    8    35 --"
test,1562946358632868096,53,"   53   163    0    10 -- |    0     0    7    35 --"
test,1562946360641673216,53,"   53   164    0     7 -- |    0     0    8    35 --"
test,1562946361646050816,53,"   53   165    0     8 -- |    0     0   10    35 --"
test,1562946364642936064,53,"   53   166    0     8 -- |    0     0    7    35 --"
test,1562946366637711104,53,"   53   167    0    10 -- |    0     0    9    35 --"
test,1562946367665527040,53,"   53   168    0     5 -- |    0     0   10    35 --"
test,1562946370637294080,53,"   53   169    0     8 -- |    0     0    9    35 --"
test,1562946371663034880,53,"   53   170    0    10 -- |    0     0   10    35 --"
test,1562946374638876928,53,"   53   171    0     8 -- |    0     0    9    35 --"
test,1562946375665043968,53,"   53   172    0     9 -- |    0     0   10    35 --"
test,1562946378640444160,53,"   53   173    0     7 -- |    0     0    8    35 --"
test,1562946380633018880,53,"   53   174    0     6 -- |    0     0    9    35 --"
test,1562946382641780992,53,"   53   175    0     8 -- |    0     0    7    35 --"
test,1562946384634556160,53,"   53   176    0     9 -- |    0     0    9    35 --"
test,1562946386627249920,53,"   53   177    0     7 -- |    0     0    8    35 --"
test,1562946388636111104,53,"   53   178    0     9 -- |    0     0    7    35 --"
test,1562946390628842240,53,"   53   179    0     8 -- |    0     0    8    35 --"
test,1562946391649661952,53,"   53   180    0     8 -- |    0     0   10    35 --"
test,1562946394630230016,53,"   53   181    0     8 -- |    0     0    8    35 --"
test,1562946396652230144,53,"   53   182    0     9 -- |    0     0    8    35 --"
test,1562946397643495168,53,"   53   183    0     4 -- |    0     0    7    35 --"
test,1562946399653295104,53,"   53   184    0     7 -- |    0     0   10    35 --"
test,1562946401663930880,53,"   53   185    0     8 -- |    0     0   10    35 --"
test,1562946404641895168,53,"   53   186    0     8 -- |    0     0    9    35 --"
test,1562946406634674176,53,"   53   187    0     8 -- |    0     0    7    35 --"
test,1562946408627537920,53,"   53   188    0     8 -- |    0     0    7    35 --"
test,1562946410636169984,53,"   53   189    0     8 -- |    0     0    8    35 --"
test,1562946412628940032,53,"   53   190    0    10 -- |    0     0    7    35 --"
test,1562946414637665024,53,"   53   191    0    10 -- |    0     0    8    35 --"
test,1562946416630414080,53,"   53   192    0     8 -- |    0     0    9    35 --"
test,1562946418639138816,53,"   53   193    0     9 -- |    0     0    9    35 --"
test,1562946420631892992,53,"   53   194    0     8 -- |    0     0    8    35 --"
test,1562946422640652800,53,"   53   195    0     9 -- |    0     0    8    35 --"
test,1562946423646347008,53,"   53   196    0     8 -- |    0     0   10    35 --"
test,1562946426626051840,53,"   53   197    0    10 -- |    0     0    9    35 --"
test,1562946428634907904,53,"   53   198    0    10 -- |    0     0    8    35 --"
test,1562946430627621888,53,"   53   199    0     9 -- |    0     0    8    35 --"
test,1562946432636365056,53,"   53   200    0     6 -- |    0     0    8    35 --"
test,1562946434629103872,53,"   53   201    0     9 -- |    0     0    9    35 --"
test,1562946436637856000,53,"   53   202    0     8 -- |    0     0    9    35 --"
test,1562946438630712064,53,"   53   203    0    10 -- |    0     0    9    35 --"
test,1562946440639333888,53,"   53   204    0     7 -- |    0     0    9    35 --"
test,1562946442632015872,53,"   53   205    0     8 -- |    0     0    8    35 --"
test,1562946444640687104,53,"   53   206    0     8 -- |    0     0    7    35 --"
test,1562946446633553152,53,"   53   207    0     8 -- |    0     0    7    35 --"
test,1562946447673280000,53,"   53   208    0    10 -- |    0     0   10    35 --"
test,1562946450635159040,53,"   53   209    0     8 -- |    0     0    7    35 --"
test,1562946451656420096,53,"   53   210    0     8 -- |    0     0   10    35 --"
test,1562946454636684032,53,"   53   211    0     8 -- |    0     0    8    35 --"
test,1562946456629266944,53,"   53   212    0    10 -- |    0     0    9    35 --"
test,1562946458637902848,53,"   53   213    0     9 -- |    0     0    5    30 --"
test,1562946460630761984,53,"   53   214    0    10 -- |    0     0    9    35 --"
test,1562946461655142912,53,"   53   215    0    10 -- |    0     0   10    30 --"
test,1562946463661765120,53,"   53   216    0    10 -- |    0     0   10    35 --"
test,1562946465653420032,53,"   53   217    0     3 -- |    0     0   10    35 --"
test,1562946467645523968,53,"   53   218    0     7 -- |    0     0   10    35 --"
test,1562946469653990912,53,"   53   219    0     6 -- |    0     0   10    35 --"
test,1562946471647800064,53,"   53   220    0    10 -- |    0     0   10    35 --"
test,1562946474627835904,53,"   53   221    0    10 -- |    0     0    9    35 --"
test,1562946476636570880,53,"   53   222    0    10 -- |    0     0    4    35 --"
test,1562946477684908032,53,"   53   223    0     9 -- |    0     0   10    35 --"
test,1562946479651072000,53,"   53   224    0    10 -- |    0     0   10    35 --"
test,1562946482630899968,53,"   53   225    0    10 -- |    0     0    5    35 --"
test,1562946483651017984,53,"   53   226    0    10 -- |    0     0   10    35 --"
test,1562946486632384000,53,"   53   227    0    10 -- |    0     0    7    35 --"
test,1562946487655073792,53,"   53   228    0    10 -- |    0     0   10    35 --"
test,1562946490633896192,53,"   53   229    0    10 -- |    0     0    8    35 --"
test,1562946491655060992,53,"   53   230    0     8 -- |    0     0   10    35 --"
test,1562946493648140800,53,"   53   231    0     9 -- |    0     0   10    35 --"
test,1562946496628115968,53,"   53   232    0     8 -- |    0     0    8    35 --"
test,1562946498636631040,53,"   53   233    0     4 -- |    0     0    8    35 --"
test,1562946500629527040,53,"   53   234    0     8 -- |    0     0    8    35 --"
test,1562946501655756032,53,"   53   235    0     9 -- |    0     0   10    35 --"
test,1562946504630994176,53,"   53   236    0     7 -- |    0     0    8    35 --"
test,1562946505651174912,53,"   53   237    0     8 -- |    0     0   10    35 --"
test,1562946508632572928,53,"   53   238    0     7 -- |    0     0    9    35 --"
test,1562946510625222912,53,"   53   239    0     7 -- |    0     0    7    35 --"
test,1562946512633972992,53,"   53   240    0     6 -- |    0     0    7    35 --"
test,1562946514626707200,53,"   53   241    0     8 -- |    0     0    8    35 --"
test,1562946516635459840,53,"   53   242    0     8 -- |    0     0    8    35 --"
test,1562946518628320000,53,"   53   243    0     7 -- |    0     0    8    35 --"
test,1562946520637299968,53,"   53   244    0     5 -- |    0     0    8    35 --"
test,1562946522629722112,53,"   53   245    0     8 -- |    0     0    9    35 --"
test,1562946524622447104,53,"   53   246    0     9 -- |    0     0    5    35 --"
test,1562946525643374848,53,"   53   247    0     8 -- |    0     0   10    35 --"
test,1562946528624169216,53,"   53   248    0     8 -- |    0     0    9    35 --"
test,1562946530632709888,53,"   53   249    0     9 -- |    0     0    8    35 --"
test,1562946532625394944,53,"   53   250    0     9 -- |    0     0    6    35 --"
test,1562946534634136832,53,"   53   251    0     8 -- |    0     0    6    35 --"
test,1562946536626893056,53,"   53   252    0    10 -- |    0     0    6    35 --"
test,1562946538635760896,53,"   53   253    0    10 -- |    0     0    8    35 --"
test,1562946539658905856,53,"   53   254    0    10 -- |    0     0   10    35 --"
test,1562946542636982016,53,"   53   255    0    10 -- |    0     0    5    35 --"
test,1562946544629846016,53,"   53   256    0    10 -- |    0     0    7    35 --"
test,1562946546622595072,53,"   53   257    0     8 -- |    0     0    9    35 --"
test,1562946547643280896,53,"   53   258    0     6 -- |    0     0   10    35 --"
test,1562946549651706880,53,"   53   259    0     6 -- |    0     0   10    35 --"
test,1562946551645360896,53,"   53   260    0     9 -- |    0     0   10    35 --"
test,1562946554625580032,53,"   53   261    0     7 -- |    0     0    9    35 --"
test,1562946556634146048,53,"   53   262    0    10 -- |    0     0    8    35 --"
test,1562946558627049984,53,"   53   263    0     9 -- |    0     0    7    35 --"
test,1562946559654863104,53,"   53   264    0     9 -- |    0     0   10    35 --"
test,1562946562628559104,53,"   53   265    0    10 -- |    0     0    9    35 --"
test,1562946564621293056,53,"   53   266    0    10 -- |    0     0    8    35 --"
test,1562946566630039040,53,"   53   267    0     7 -- |    0     0    8    35 --"
test,1562946567651843072,53,"   53   268    0     9 -- |    0     0   10    35 --"
test,1562946570631582976,53,"   53   269    0     8 -- |    0     0    8    35 --"
test,1562946572624252928,53,"   53   270    0     9 -- |    0     0    7    35 --"
test,1562946574633008128,53,"   53   271    0     9 -- |    0     0    9    35 --"
test,1562946576625737984,53,"   53   272    0    10 -- |    0     0    8    35 --"
test,1562946578634445824,53,"   53   273    0    10 -- |    0     0    7    35 --"
test,1562946580627335168,53,"   53   274    0     9 -- |    0     0    9    35 --"
test,1562946582636066048,53,"   53   275    0     8 -- |    0     0    9    35 --"
test,1562946584628717056,53,"   53   276    0    10 -- |    0     0    9    35 --"
test,1562946586621473024,53,"   53   277    0     9 -- |    0     0    8    35 --"
test,1562946588630204928,53,"   53   278    0     8 -- |    0     0    9    35 --"
test,1562946590623073024,53,"   53   279    0    10 -- |    0     0    9    35 --"
test,1562946592631604992,53,"   53   280    0     7 -- |    0     0    8    35 --"
test,1562946593659570944,53,"   53   281    0     7 -- |    0     0   10    35 --"
test,1562946596633181184,53,"   53   282    0    10 -- |    0     0    9    35 --"
test,1562946598626040832,53,"   53   283    0     6 -- |    0     0    8    35 --"
