name,time,nodeid,value
test,1562946000894262016,54,"   54   288    0    10 42767  |    0     0   10    35 41999 "
test,1562946043209986816,54,=8`vxB;Yz0``>000``0|00   54     5    0    10 -- |    0     0    7    30 --
test,1562946044644323072,54,"   54     6    0    10 -- |    0     0    9    30 --"
test,1562946045666423040,54,"   54     7    0    10 -- |    0     0   10    30 --"
test,1562946048639401984,54,"   54     8    0    10 -- |    0     0    9    30 --"
test,1562946049658332160,54,"   54     9    0    10 -- |    0     0   10    30 --"
test,1562946051664056064,54,"   54    10    0    10 -- |    0     0   10    30 --"
test,1562946054640086784,54,"   54    11    0    10 -- |    0     0    8    30 --"
test,1562946055660259072,54,"   54    12    0    10 -- |    0     0   10    30 --"
test,1562946058651366912,54,"   54    13    0    10 -- |    0     0    9    30 --"
test,1562946060640482048,54,"   54    14    0    10 -- |    0     0    9    30 --"
test,1562946062646086912,54,"   54    15    0    10 -- |    0     0    9    30 --"
test,1562946063676864000,54,"   54    16    0    10 -- |    0     0   10    30 --"
test,1562946066641207808,54,"   54    17    0    10 -- |    0     0    9    30 --"
test,1562946068646696960,54,"   54    18    0    10 -- |    0     0    9    30 --"
test,1562946069667161856,54,"   54    19    0    10 -- |    0     0   10    30 --"
test,1562946071654843136,54,"   54    20    0    10 -- |    0     0   10    30 --"
test,1562946073661294848,54,"   54    21    0    10 -- |    0     0   10    30 --"
test,1562946075669986048,54,"   54    22    0    10 -- |    0     0   10    30 --"
test,1562946077655559168,54,"   54    23    0    10 -- |    0     0   10    30 --"
test,1562946079665656064,54,"   54    24    0    10 -- |    0     0   10    30 --"
test,1562946083656105984,54,"   54    26    0    10 -- |    0     0   10    30 --"
test,1562946085663580928,54,"   54    27    0    10 -- |    0     0   10    30 --"
test,1562946088638016000,54,"   54    28    0    10 -- |    0     0    8    30 --"
test,1562946089657163008,54,"   54    29    0    10 -- |    0     0   10    30 --"
test,1562946091664262144,54,"   54    30    0    10 -- |    0     0   10    30 --"
test,1562946094638572032,54,"   54    31    0    10 -- |    0     0    9    30 --"
test,1562946096643974144,54,"   54    32    0    10 -- |    0     0    9    30 --"
test,1562946097663717888,54,"   54    33    0    10 -- |    0     0   10    30 --"
test,1562946099669174016,54,"   54    34    0    10 -- |    0     0   10    30 --"
test,1562946102644583936,54,"   54    35    0    10 -- |    0     0    8    30 --"
test,1562946105653003008,54,"   54    37    0    10 -- |    0     0   10    30 --"
test,1562946107661537024,54,"   54    38    0    10 -- |    0     0   10    30 --"
test,1562946109664700928,54,"   54    39    0    10 -- |    0     0   10    30 --"
test,1562946111671065088,54,"   54    40    0    10 -- |    0     0   10    30 --"
test,1562946115667706112,54,"   54    42    0    10 -- |    0     0   10    30 --"
test,1562946117653835008,54,"   54    43    0    10 -- |    0     0   10    30 --"
test,1562946119660871936,54,"   54    44    0    10 -- |    0     0   10    30 --"
test,1562946121670630912,54,"   54    45    0    10 -- |    0     0   10    30 --"
test,1562946124641277952,54,"   54    46    0    10 -- |    0     0    9    30 --"
test,1562946125660509952,54,"   54    47    0    10 -- |    0     0   10    30 --"
test,1562946127666713856,54,"   54    48    0    10 -- |    0     0   10    30 --"
test,1562946129658402048,54,"   54    49    0    10 -- |    0     0   10    30 --"
test,1562946131662148096,54,"   54    50    0    10 -- |    0     0   10    30 --"
test,1562946135655587072,54,"   54    52    0    10 -- |    0     0   10    30 --"
test,1562946137663009024,54,"   54    53    0    10 -- |    0     0   10    30 --"
test,1562946139667318016,54,"   54    54    0    10 -- |    0     0   10    30 --"
test,1562946141656719872,54,"   54    55    0    10 -- |    0     0   10    30 --"
test,1562946144648546816,54,"   54    56    0    10 -- |    0     0    9    30 --"
test,1562946145671191808,54,"   54    57    0    10 -- |    0     0   10    30 --"
test,1562946147656802816,54,"   54    58    0    10 -- |    0     0   10    30 --"
test,1562946149663028992,54,"   54    59    0    10 -- |    0     0   10    30 --"
test,1562946151651938816,54,"   54    60    0    10 -- |    0     0   10    30 --"
test,1562946154644160000,54,"   54    61    0    10 -- |    0     0    7    30 --"
test,1562946155664967168,54,"   54    62    0    10 -- |    0     0   10    30 --"
test,1562946157652200960,54,"   54    63    0    10 -- |    0     0   10    30 --"
test,1562946159658515968,54,"   54    64    0    10 -- |    0     0   10    30 --"
test,1562946161664061184,54,"   54    65    0    10 -- |    0     0   10    30 --"
test,1562946163653316864,54,"   54    66    0    10 -- |    0     0   10    30 --"
test,1562946165664002048,54,"   54    67    0    10 -- |    0     0   10    30 --"
test,1562946168650631936,54,"   54    68    0    10 -- |    0     0    9    30 --"
test,1562946169653790976,54,"   54    69    0    10 -- |    0     0   10    30 --"
test,1562946171659606016,54,"   54    70    0    10 -- |    0     0   10    30 --"
test,1562946173664381952,54,"   54    71    0    10 -- |    0     0   10    30 --"
test,1562946175654354944,54,"   54    72    0    10 -- |    0     0   10    30 --"
test,1562946177660192000,54,"   54    73    0    10 -- |    0     0   10    30 --"
test,1562946180635915008,54,"   54    74    0    10 -- |    0     0    8    30 --"
test,1562946181656055808,54,"   54    75    0    10 -- |    0     0   10    30 --"
test,1562946183664112128,54,"   54    76    0    10 -- |    0     0   10    30 --"
test,1562946185669187072,54,"   54    77    0    10 -- |    0     0   10    30 --"
test,1562946187655123968,54,"   54    78    0    10 -- |    0     0   10    30 --"
test,1562946189662718976,54,"   54    79    0    10 -- |    0     0   10    30 --"
test,1562946191650226944,54,"   54    80    0    10 -- |    0     0   10    30 --"
test,1562946193655734016,54,"   54    81    0    10 -- |    0     0   10    30 --"
test,1562946195671217920,54,"   54    82    0    10 -- |    0     0   10    30 --"
test,1562946197650824192,54,"   54    83    0    10 -- |    0     0   10    30 --"
test,1562946200643162112,54,"   54    84    0    10 -- |    0     0    9    30 --"
test,1562946201666941952,54,"   54    85    0    10 -- |    0     0   10    30 --"
test,1562946203651465984,54,"   54    86    0    10 -- |    0     0   10    30 --"
test,1562946205658781952,54,"   54    87    0    10 -- |    0     0   10    30 --"
test,1562946207670010112,54,"   54    88    0    10 -- |    0     0   10    30 --"
test,1562946209652239104,54,"   54    89    0    10 -- |    0     0   10    30 --"
test,1562946211661769984,54,"   54    90    0    10 -- |    0     0   10    30 --"
test,1562946213664020992,54,"   54    91    0    10 -- |    0     0   10    30 --"
test,1562946216639760128,54,"   54    92    0    10 -- |    0     0    9    30 --"
test,1562946218644835072,54,"    0     0    0     0     0  |    0     0    9    30 --"
test,1562946219664208896,54,"   54    94    0    10 -- |    0     0   10    30 --"
test,1562946221653036032,54,"   54    95    0    10 -- |    0     0   10    30 --"
test,1562946224648669952,54,"   54    96    0    10 -- |    0     0    9    30 --"
test,1562946226635230976,54,"   54    97    0    10 -- |    0     0    9    30 --"
test,1562946228640883968,54,"   54    98    0    10 -- |    0     0    8    30 --"
test,1562946229663921152,54,"   54    99    0    10 -- |    0     0   10    30 --"
test,1562946231648864000,54,"   54   100    0    10 -- |    0     0   10    30 --"
test,1562946234641267968,54,"   54   101    0    10 -- |    0     0    9    35 --"
test,1562946235661070080,54,"   54   102    0    10 -- |    0     0   10    30 --"
test,1562946237649456896,54,"   54   103    0    10 -- |    0     0   10    30 --"
test,1562946239656267776,54,"   54   104    0    10 -- |    0     0   10    30 --"
test,1562946241663556096,54,"   54   105    0    10 -- |    0     0   10    30 --"
test,1562946244636846080,54,"   54   106    0    10 -- |    0     0    9    30 --"
test,1562946246642409984,54,"   54   107    0    10 -- |    0     0    9    30 --"
test,1562946247662020864,54,"   54   108    0    10 -- |    0     0   10    30 --"
test,1562946249650659072,54,"   54   109    0    10 -- |    0     0   10    30 --"
test,1562946251656407040,54,"   54   110    0    10 -- |    0     0   10    30 --"
test,1562946253664040960,54,"   54   111    0    10 -- |    0     0   10    30 --"
test,1562946255653718016,54,"   54   112    0    10 -- |    0     0   10    30 --"
test,1562946257657611008,54,"   54   113    0    10 -- |    0     0   10    30 --"
test,1562946259667841792,54,"   54   114    0    10 -- |    0     0   10    30 --"
test,1562946261653688064,54,"   54   115    0    10 -- |    0     0   10    30 --"
test,1562946263659405056,54,"   54   116    0    10 -- |    0     0   10    30 --"
test,1562946265646884864,54,"   54   117    0    10 -- |    0     0   10    30 --"
test,1562946267655363072,54,"   54   118    0    10 -- |    0     0   10    30 --"
test,1562946269658900992,54,"   54   119    0    10 -- |    0     0   10    30 --"
test,1562946271647224064,54,"   54   120    0    10 -- |    0     0   10    30 --"
test,1562946274639646976,54,"   54   121    0    10 -- |    0     0    8    30 --"
test,1562946276645314048,54,"   54   122    0    10 -- |    0     0    9    30 --"
test,1562946277648178944,54,"   54   123    0    10 -- |    0     0   10    30 --"
test,1562946280640350976,54,"   54   124    0    10 -- |    0     0    9    30 --"
test,1562946281661353216,54,"   54   125    0    10 -- |    0     0   10    30 --"
test,1562946283650060032,54,"   54   126    0    10 -- |    0     0   10    30 --"
test,1562946285662112000,54,"   54   127    0    10 -- |    0     0   10    30 --"
test,1562946287666611968,54,"   54   128    0    10 -- |    0     0   10    30 --"
test,1562946289649491968,54,"   54   129    0    10 -- |    0     0   10    30 --"
test,1562946291655905024,54,"   54   130    0    10 -- |    0     0   10    30 --"
test,1562946293661068032,54,"   54   131    0    10 -- |    0     0   10    30 --"
test,1562946295650310912,54,"   54   132    0    10 -- |    0     0   10    30 --"
test,1562946297658360832,54,"   54   133    0    10 -- |    0     0   10    30 --"
test,1562946299663858944,54,"   54   134    0    10 -- |    0     0   10    30 --"
test,1562946301651609856,54,"   54   135    0    10 -- |    0     0   10    30 --"
test,1562946303656750848,54,"   54   136    0    10 -- |    0     0   10    30 --"
test,1562946308637517056,54,"   54   138    0    10 -- |    0     0    9    30 --"
test,1562946309656132864,54,"   54   139    0    10 -- |    0     0   10    30 --"
test,1562946311645713152,54,"   54   140    0    10 -- |    0     0   10    30 --"
test,1562946313651639040,54,"   54   141    0    10 -- |    0     0   10    30 --"
test,1562946317646803968,54,"   54   143    0    10 -- |    0     0   10    30 --"
test,1562946319654519040,54,"   54   144    0    10 -- |    0     0   10    35 --"
test,1562946321659702016,54,"   54   145    0    10 -- |    0     0   10    30 --"
test,1562946324633718016,54,"   54   146    0    10 -- |    0     0    9    30 --"
test,1562946325652349952,54,"   54   147    0    10 -- |    0     0   10    30 --"
test,1562946328644761088,54,"   54   148    0    10 -- |    0     0    9    30 --"
test,1562946329648144896,54,"   54   149    0    10 -- |    0     0   10    30 --"
test,1562946331653609984,54,"   54   150    0    10 -- |    0     0   10    30 --"
test,1562946333665278976,54,"   54   151    0    10 -- |    0     0   10    30 --"
test,1562946335647915008,54,"   54   152    0    10 -- |    0     0   10    30 --"
test,1562946338640371968,54,"   54   153    0    10 -- |    0     0    9    30 --"
test,1562946339664809984,54,"   54   154    0    10 -- |    0     0   10    30 --"
test,1562946341649355776,54,"   54   155    0    10 -- |    0     0   10    30 --"
test,1562946343655833088,54,"   54   156    0    10 -- |    0     0   10    30 --"
test,1562946345659475200,54,"   54   157    0    10 -- |    0     0   10    30 --"
test,1562946347650682880,54,"   54   158    0    10 -- |    0     0   10    30 --"
test,1562946349655844096,54,"   54   159    0    10 -- |    0     0   10    30 --"
test,1562946351662502144,54,"   54   160    0    10 -- |    0     0   10    30 --"
test,1562946353651489024,54,"   54   161    0    10 -- |    0     0   10    30 --"
test,1562946355657586176,54,"   54   162    0    10 -- |    0     0   10    30 --"
test,1562946357645231872,54,"   54   163    0    10 -- |    0     0   10    30 --"
test,1562946359657325056,54,"   54   164    0    10 -- |    0     0   10    30 --"
test,1562946361656455936,54,"   54   165    0    10 -- |    0     0   10    30 --"
test,1562946363645857024,54,"   54   166    0    10 -- |    0     0   10    30 --"
test,1562946365651340032,54,"   54   167    0    10 -- |    0     0   10    30 --"
test,1562946367662405120,54,"   54   168    0    10 -- |    0     0   10    30 --"
test,1562946369647342848,54,"   54   169    0    10 -- |    0     0   10    30 --"
test,1562946372638093824,54,"   54   170    0    10 -- |    0     0    9    30 --"
test,1562946373657380096,54,"   54   171    0    10 -- |    0     0   10    30 --"
test,1562946375647159040,54,"   54   172    0    10 -- |    0     0   10    30 --"
test,1562946377662756864,54,"   54   173    0    10 -- |    0     0   10    30 --"
test,1562946379661332992,54,"   54   174    0    10 -- |    0     0   10    30 --"
test,1562946381646822912,54,"   54   175    0    10 -- |    0     0   10    30 --"
test,1562946383652923136,54,"   54   176    0    10 -- |    0     0   10    30 --"
test,1562946386628706816,54,"   54   177    0    10 -- |    0     0    9    30 --"
test,1562946387648994048,54,"   54   178    0    10 -- |    0     0   10    30 --"
test,1562946389653839104,54,"   54   179    0    10 -- |    0     0   10    30 --"
test,1562946391664371968,54,"   54   180    0    10 -- |    0     0   10    30 --"
test,1562946393649296128,54,"   54   181    0    10 -- |    0     0   10    30 --"
test,1562946396650150144,54,"   54   182    0    10 -- |    0     0    9    30 --"
test,1562946397643194880,54,"   54   183    0    10 -- |    0     0   10    30 --"
test,1562946399648526848,54,"   54   184    0    10 -- |    0     0   10    30 --"
test,1562946402640784896,54,"   54   185    0    10 -- |    0     0    9    30 --"
test,1562946404630446848,54,"   54   186    0    10 -- |    0     0    9    30 --"
test,1562946405650167040,54,"   54   187    0    10 -- |    0     0   10    30 --"
test,1562946407661278976,54,"   54   188    0    10 -- |    0     0   10    30 --"
test,1562946409644368896,54,"   54   189    0    10 -- |    0     0   10    30 --"
test,1562946411650654976,54,"   54   190    0    10 -- |    0     0   10    30 --"
test,1562946413656104192,54,"   54   191    0    10 -- |    0     0   10    30 --"
test,1562946415645137920,54,"   54   192    0    10 -- |    0     0   10    30 --"
test,1562946417653265920,54,"   54   193    0    10 -- |    0     0   10    30 --"
test,1562946419656517888,54,"   54   194    0    10 -- |    0     0   10    30 --"
test,1562946421645356032,54,"   54   195    0    10 -- |    0     0   10    30 --"
test,1562946423652959232,54,"   54   196    0    10 -- |    0     0   10    30 --"
test,1562946425658360832,54,"   54   197    0    10 -- |    0     0   10    30 --"
test,1562946429652993792,54,"   54   199    0    10 -- |    0     0   10    30 --"
test,1562946432627732992,54,"   54   200    0    10 -- |    0     0    7    30 --"
test,1562946433646422016,54,"   54   201    0    10 -- |    0     0   10    30 --"
test,1562946435654400000,54,"   54   202    0    10 -- |    0     0   10    30 --"
test,1562946437641736960,54,"   54   203    0    10 -- |    0     0   10    30 --"
test,1562946439650473984,54,"   54   204    0    10 -- |    0     0   10    30 --"
test,1562946441653274112,54,"   54   205    0    10 -- |    0     0   10    30 --"
test,1562946443642327040,54,"   54   206    0    10 -- |    0     0   10    30 --"
test,1562946445648178176,54,"   54   207    0    10 -- |    0     0   10    30 --"
test,1562946447676950016,54,"   54   208    0    10 -- |    0     0   10    30 --"
test,1562946449650004992,54,"   54   209    0    10 -- |    0     0   10    30 --"
test,1562946451649595136,54,"   54   210    0    10 -- |    0     0   10    30 --"
test,1562946453657913856,54,"   54   211    0    10 -- |    0     0   10    30 --"
test,1562946455644649984,54,"   54   212    0    10 -- |    0     0   10    30 --"
test,1562946458635755008,54,"   54   213    0    10 -- |    0     0    8    30 --"
test,1562946460625127936,54,"   54   214    0    10 -- |    0     0    7    30 --"
test,1562946462630633984,54,"   54   215    0    10 -- |    0     0    9    30 --"
test,1562946463650060032,54,"   54   216    0    10 -- |    0     0   10    30 --"
test,1562946466625747968,54,"   54   217    0    10 -- |    0     0    9    30 --"
test,1562946467645106944,54,"   54   218    0    10 -- |    0     0   10    30 --"
test,1562946469651987968,54,"   54   219    0    10 -- |    0     0   10    30 --"
test,1562946471657782016,54,"   54   220    0    10 -- |    0     0   10    30 --"
test,1562946473648294912,54,"   54   221    0    10 -- |    0     0   10    30 --"
test,1562946475658763008,54,"   54   222    0    10 -- |    0     0   10    30 --"
test,1562946477683588864,54,"   54   223    0    10 -- |    0     0   10    30 --"
test,1562946479650116864,54,"   54   224    0    10 -- |    0     0   10    30 --"
test,1562946482637931008,54,"   54   225    0    10 -- |    0     0    9    30 --"
test,1562946483640544000,54,"   54   226    0    10 -- |    0     0   10    30 --"
test,1562946485649789184,54,"   54   227    0    10 -- |    0     0   10    30 --"
test,1562946487654391040,54,"   54   228    0    10 -- |    0     0   10    30 --"
test,1562946489641880064,54,"   54   229    0    10 -- |    0     0   10    30 --"
test,1562946492633488896,54,"   54   230    0    10 -- |    0     0    9    30 --"
test,1562946494639017216,54,"   54   231    0    10 -- |    0     0    9    30 --"
test,1562946495642457088,54,"   54   232    0    10 -- |    0     0   10    30 --"
test,1562946498634329088,54,"   54   233    0    10 -- |    0     0    6    30 --"
test,1562946499653763072,54,"   54   234    0    10 -- |    0     0   10    30 --"
test,1562946501644002816,54,"   54   235    0    10 -- |    0     0   10    30 --"
test,1562946503651878144,54,"   54   236    0    10 -- |    0     0   10    30 --"
test,1562946505654944000,54,"   54   237    0    10 -- |    0     0   10    30 --"
test,1562946507643197184,54,"   54   238    0    10 -- |    0     0   10    30 --"
test,1562946509651046144,54,"   54   239    0    10 -- |    0     0   10    30 --"
test,1562946511654813952,54,"   54   240    0    10 -- |    0     0   10    30 --"
test,1562946513644072960,54,"   54   241    0    10 -- |    0     0   10    30 --"
test,1562946515651073024,54,"   54   242    0    10 -- |    0     0   10    30 --"
test,1562946517638681856,54,"   54   243    0    10 -- |    0     0   10    30 --"
test,1562946519648736000,54,"   54   244    0    10 -- |    0     0   10    30 --"
test,1562946522636424192,54,"   54   245    0    10 -- |    0     0    9    30 --"
test,1562946523656534784,54,"   54   246    0    10 -- |    0     0   10    30 --"
test,1562946525645308928,54,"   54   247    0    10 -- |    0     0   10    30 --"
test,1562946527651720960,54,"   54   248    0    10 -- |    0     0   10    30 --"
test,1562946529639942912,54,"   54   249    0    10 -- |    0     0   10    30 --"
test,1562946531649080064,54,"   54   250    0    10 -- |    0     0   10    30 --"
test,1562946533655976960,54,"   54   251    0    10 -- |    0     0   10    30 --"
test,1562946535640614912,54,"   54   252    0    10 -- |    0     0   10    30 --"
test,1562946537646074112,54,"   54   253    0    10 -- |    0     0   10    30 --"
test,1562946539655518976,54,"   54   254    0    10 -- |    0     0   10    30 --"
test,1562946542627598080,54,"   54   255    0    10 -- |    0     0    9    30 --"
test,1562946543652948992,54,"   54   256    0    10 -- |    0     0   10    30 --"
test,1562946545652726784,54,"   54   257    0    10 -- |    0     0   10    30 --"
test,1562946547641339904,54,"   54   258    0    10 -- |    0     0   10    30 --"
test,1562946549646884864,54,"   54   259    0    10 -- |    0     0   10    30 --"
test,1562946552623243008,54,"   54   260    0    10 -- |    0     0    9    30 --"
test,1562946553642754048,54,"   54   261    0    10 -- |    0     0   10    30 --"
test,1562946555651449856,54,"   54   262    0    10 -- |    0     0   10    30 --"
test,1562946557636851200,54,"   54   263    0    10 -- |    0     0   10    30 --"
test,1562946559645995008,54,"   54   264    0    10 -- |    0     0   10    30 --"
test,1562946561651757056,54,"   54   265    0    10 -- |    0     0   10    30 --"
test,1562946563637850112,54,"   54   266    0    10 -- |    0     0   10    30 --"
test,1562946565643880960,54,"   54   267    0    10 -- |    0     0   10    30 --"
test,1562946567651346944,54,"   54   268    0    10 -- |    0     0   10    30 --"
test,1562946569645395968,54,"   54   269    0    10 -- |    0     0   10    30 --"
test,1562946571644381952,54,"   54   270    0    10 -- |    0     0   10    30 --"
test,1562946573652168960,54,"   54   271    0    10 -- |    0     0   10    30 --"
test,1562946575638736896,54,"   54   272    0    10 -- |    0     0   10    30 --"
test,1562946577646710016,54,"   54   273    0    10 -- |    0     0   10    30 --"
test,1562946581640727040,54,"   54   275    0    10 -- |    0     0   10    30 --"
test,1562946583646514944,54,"   54   276    0    10 -- |    0     0   10    30 --"
test,1562946585655421952,54,"   54   277    0    10 -- |    0     0   10    30 --"
test,1562946587640542976,54,"   54   278    0    10 -- |    0     0   10    30 --"
test,1562946591652686080,54,"   54   280    0    10 -- |    0     0   10    30 --"
test,1562946593640296960,54,"   54   281    0    10 -- |    0     0   10    30 --"
test,1562946595647033088,54,"   54   282    0    10 -- |    0     0   10    30 --"
test,1562946598622124032,54,"   54   283    0    10 -- |    0     0    9    30 --"
