-------------------------------------------------------------------------------------------------------------------------------------------------------------------------------------------
With SFD Change
-------------------------------------------------------------------------------------------------------------------------------------------------------------------------------------------
SNo		Node Id:	Initiator_Id	Reception_from_Grp_Initiator	Reception_from_other	No from Self initiator	No from other initiator		No of times not recieved pkt
1 		47 		44 		100.0 				0.0 			274 			0 				0
2 		15 		44 		100.0 				0.0 			274 			0 				0
3 		30 		44 		100.0 				0.0 			273 			0 				0
4 		48 		44 		100.0 				0.0 			275 			0 				0
5 		55 		44 		100.0 				0.0 			273 			0 				0
6 		18 		44 		100.0 				0.0 			273 			0 				0
7 		28 		44 		100.0 				0.0 			275 			0 				0
8 		1 		44 		100.0 				0.0 			273 			0 				1
9 		44 		44 		100.0 				0.0 			276 			0 				0
10 		14 		44 		100.0 				0.0 			192 			0 				0
11 		54 		44 		100.0 				0.0 			274 			0 				0
12 		13 		44 		100.0 				0.0 			272 			0 				0
13 		52 		44 		100.0 				0.0 			273 			0 				0
14 		51 		44 		100.0 				0.0 			274 			0 				0
15 		24 		44 		100.0 				0.0 			273 			0 				0
16 		10 		44 		100.0 				0.0 			273 			0 				0
17 		37 		44 		100.0 				0.0 			274 			0 				0
18 		35 		44 		100.0 				0.0 			273 			0 				1
19 		56 		44 		100.0 				0.0 			272 			0 				0
20 		46 		44 		100.0 				0.0 			273 			0 				0
21 		5 		44 		100.0 				0.0 			273 			0 				1
22 		19 		44 		100.0 				0.0 			275 			0 				0
23 		45 		65 		100.0 				0.0 			151 			0 				117
24 		57 		65 		98.8 				1.3 			158 			2 				108
25 		34 		65 		100.0 				0.0 			149 			0 				120
26 		16 		65 		98.6 				1.4 			146 			2 				122
27 		32 		65 		100.0 				0.0 			147 			0 				119
28 		17 		65 		100.0 				0.0 			147 			0 				120
29 		61 		65 		99.6 				0.4 			262 			1 				2
30 		60 		65 		100.0 				0.0 			230 			0 				36
31 		2 		65 		100.0 				0.0 			145 			0 				116
32 		7 		65 		100.0 				0.0 			146 			0 				122
33 		40 		65 		98.7 				1.3 			150 			2 				117
34 		9 		65 		100.0 				0.0 			145 			0 				118
35 		26 		65 		99.3 				0.7 			145 			1 				119
36 		27 		65 		100.0 				0.0 			151 			0 				120
37 		42 		65 		99.3 				0.7 			150 			1 				115
38 		29 		65 		100.0 				0.0 			148 			0 				121
39 		12 		65 		100.0 				0.0 			145 			0 				120
-------------------------------------------------------------------------------------------------------------------------------------------------------------------------------------------
No change
-------------------------------------------------------------------------------------------------------------------------------------------------------------------------------------------
SNo		Node Id:	Initiator_Id	Reception_from_Grp_Initiator	Reception_from_other	No from Self initiator	No from other initiator		No of times not recieved pkt
1 		47 		44 		99.6 				0.4 			263 			1 				0
2 		15 		44 		89.8 				10.2 			237 			27 				0
3 		30 		44 		99.6 				0.4 			264 			1 				0
4 		48 		44 		100.0 				0.0 			262 			0 				0
5 		55 		44 		72.8 				27.2 			195 			73 				1
6 		18 		44 		99.6 				0.4 			264 			1 				1
7 		28 		44 		100.0 				0.0 			264 			0 				0
8 		1 		44 		1.1 				98.9 			3 			259 				0
9 		44 		44 		100.0 				0.0 			264 			0 				1
10 		14 		44 		3.0 				97.0 			8 			257 				0
11 		54 		44 		2.3 				97.7 			6 			257 				1
12 		13 		44 		0.4 				99.6 			1 			262 				0
13 		52 		44 		99.6 				0.4 			265 			1 				0
14 		51 		44 		0.4 				99.6 			1 			262 				0
15 		24 		44 		99.6 				0.4 			264 			1 				0
16 		10 		44 		0.4 				99.6 			1 			258 				0
17 		37 		44 		99.6 				0.4 			264 			1 				0
18 		35 		44 		100.0 				0.0 			263 			0 				0
19 		56 		44 		3.4 				96.6 			9 			255 				1
20 		46 		44 		100.0 				0.0 			267 			0 				0
21 		5 		44 		0.4 				99.6 			1 			261 				0
22 		19 		44 		99.6 				0.4 			261 			1 				1
23 		45 		65 		0.0 				100.0 			0 			264 				0
24 		57 		65 		36.2 				63.8 			96 			169 				1
25 		34 		65 		0.4 				99.6 			1 			260 				1
26 		16 		65 		0.4 				99.6 			1 			262 				1
27 		32 		65 		1.9 				98.1 			5 			259 				1
28 		17 		65 		0.4 				99.6 			1 			264 				0
29 		61 		65 		92.1 				7.9 			246 			21 				0
30 		60 		65 		99.6 				0.4 			263 			1 				1
31 		2 		65 		96.9 				3.1 			251 			8 				0
32 		49 		65 		26.8 				73.2 			72 			197 				2
33 		7 		65 		98.9 				1.1 			263 			3 				0
34 		40 		65 		0.4 				99.6 			1 			264 				0
35 		9 		65 		98.9 				1.1 			262 			3 				0
36 		26 		65 		0.0 				100.0 			0 			262 				0
37 		27 		65 		0.4 				99.6 			1 			263 				0
38 		53 		65 		26.5 				73.5 			71 			197 				1
39 		42 		65 		0.0 				100.0 			0 			264 				0
40 		29 		65 		0.4 				99.6 			1 			259 				0
41 		12 		65 		97.0 				3.0 			256 			8 				0
